%FSLAX45Y45*%
G04 Gerber Fmt 4.5, Leading zero omitted, Abs format (unit mm)*
G04 Created by KiCad (PCBNEW 5.1.5+dfsg1-2build2) date 2020-12-02 13:40:33*
%MOMM*%
%LPD*%
G04 APERTURE LIST*
%TA.AperFunction,Profile*%
%ADD10C,0.050000*%
%TD*%
%ADD11C,0.200000*%
%ADD12C,0.300000*%
G04 APERTURE END LIST*
D10*
X13159740Y-6553200D02*
X13159740Y-17358360D01*
X13159740Y-4582160D02*
X13159740Y-6553200D01*
X8036560Y-4582160D02*
X13159740Y-4582160D01*
X8036560Y-17358360D02*
X8036560Y-4582160D01*
X12052300Y-17358360D02*
X8036560Y-17358360D01*
X13159740Y-17358360D02*
X12052300Y-17358360D01*
D11*
X10054360Y-16119880D02*
X10074360Y-16139880D01*
X10074360Y-16119880D02*
X10054360Y-16139880D01*
X10054360Y-16229880D02*
X10074360Y-16249880D01*
X10074360Y-16229880D02*
X10054360Y-16249880D01*
X10164360Y-16119880D02*
X10184360Y-16139880D01*
X10184360Y-16119880D02*
X10164360Y-16139880D01*
X10164360Y-16229880D02*
X10184360Y-16249880D01*
X10184360Y-16229880D02*
X10164360Y-16249880D01*
X8636010Y-15995650D02*
X8656010Y-16015650D01*
X8656010Y-15995650D02*
X8636010Y-16015650D01*
X8636010Y-16105650D02*
X8656010Y-16125650D01*
X8656010Y-16105650D02*
X8636010Y-16125650D01*
X8577260Y-16365220D02*
G75*
G03X8577260Y-16365220I-20000J0D01*
G01*
X8755060Y-16244570D02*
G75*
G03X8755060Y-16244570I-20000J0D01*
G01*
X9028110Y-15880080D02*
G75*
G03X9028110Y-15880080I-20000J0D01*
G01*
X9361866Y-11055096D02*
G75*
G03X9361866Y-11055096I-20000J0D01*
G01*
X9519600Y-10582910D02*
G75*
G03X9519600Y-10582910I-20000J0D01*
G01*
X9552620Y-11609324D02*
G75*
G03X9552620Y-11609324I-20000J0D01*
G01*
X10008550Y-10450830D02*
G75*
G03X10008550Y-10450830I-20000J0D01*
G01*
X10107610Y-10535920D02*
G75*
G03X10107610Y-10535920I-20000J0D01*
G01*
X10219624Y-7392162D02*
G75*
G03X10219624Y-7392162I-20000J0D01*
G01*
X10400980Y-16159480D02*
G75*
G03X10400980Y-16159480I-20000J0D01*
G01*
X10455844Y-11614912D02*
G75*
G03X10455844Y-11614912I-20000J0D01*
G01*
X10992800Y-16309340D02*
G75*
G03X10992800Y-16309340I-20000J0D01*
G01*
X11333160Y-8309864D02*
G75*
G03X11333160Y-8309864I-20000J0D01*
G01*
X11472860Y-15421610D02*
G75*
G03X11472860Y-15421610I-20000J0D01*
G01*
X11516040Y-16512540D02*
G75*
G03X11516040Y-16512540I-20000J0D01*
G01*
X11673520Y-16609060D02*
G75*
G03X11673520Y-16609060I-20000J0D01*
G01*
X11686220Y-15425420D02*
G75*
G03X11686220Y-15425420I-20000J0D01*
G01*
X11818300Y-15176500D02*
G75*
G03X11818300Y-15176500I-20000J0D01*
G01*
X11881800Y-16062960D02*
G75*
G03X11881800Y-16062960I-20000J0D01*
G01*
X11940220Y-15179040D02*
G75*
G03X11940220Y-15179040I-20000J0D01*
G01*
X11970700Y-15361920D02*
G75*
G03X11970700Y-15361920I-20000J0D01*
G01*
X11991274Y-11419332D02*
G75*
G03X11991274Y-11419332I-20000J0D01*
G01*
X12038772Y-5665724D02*
G75*
G03X12038772Y-5665724I-20000J0D01*
G01*
X12059600Y-15181580D02*
G75*
G03X12059600Y-15181580I-20000J0D01*
G01*
X12079920Y-15425420D02*
G75*
G03X12079920Y-15425420I-20000J0D01*
G01*
X12437044Y-8843772D02*
G75*
G03X12437044Y-8843772I-20000J0D01*
G01*
X12510958Y-8352536D02*
G75*
G03X12510958Y-8352536I-20000J0D01*
G01*
X12628560Y-14254480D02*
G75*
G03X12628560Y-14254480I-20000J0D01*
G01*
X12671740Y-15278100D02*
G75*
G03X12671740Y-15278100I-20000J0D01*
G01*
X12684440Y-15021560D02*
G75*
G03X12684440Y-15021560I-20000J0D01*
G01*
X12686980Y-14018260D02*
G75*
G03X12686980Y-14018260I-20000J0D01*
G01*
X12776388Y-8697468D02*
G75*
G03X12776388Y-8697468I-20000J0D01*
G01*
X13055788Y-8935720D02*
G75*
G03X13055788Y-8935720I-20000J0D01*
G01*
X9597644Y-8943232D02*
X9597644Y-8993232D01*
X9572644Y-8968232D02*
X9622644Y-8968232D01*
X9982708Y-8939168D02*
X9982708Y-8989168D01*
X9957708Y-8964168D02*
X10007708Y-8964168D01*
X10035540Y-5889644D02*
X10035540Y-5939644D01*
X10010540Y-5914644D02*
X10060540Y-5914644D01*
X10353548Y-9394844D02*
X10353548Y-9444844D01*
X10328548Y-9419844D02*
X10378548Y-9419844D01*
X11089132Y-5589924D02*
X11089132Y-5639924D01*
X11064132Y-5614924D02*
X11114132Y-5614924D01*
X12359132Y-11068196D02*
X12359132Y-11118196D01*
X12334132Y-11093196D02*
X12384132Y-11093196D01*
X12448794Y-7690504D02*
X12448794Y-7740504D01*
X12423794Y-7715504D02*
X12473794Y-7715504D01*
X10852271Y-5190611D02*
X10852271Y-5144649D01*
X10806309Y-5144649D01*
X10806309Y-5190611D01*
X10852271Y-5190611D01*
X10979271Y-5190611D02*
X10979271Y-5144649D01*
X10933309Y-5144649D01*
X10933309Y-5190611D01*
X10979271Y-5190611D01*
X11106271Y-5190611D02*
X11106271Y-5144649D01*
X11060309Y-5144649D01*
X11060309Y-5190611D01*
X11106271Y-5190611D01*
X11233271Y-5190611D02*
X11233271Y-5144649D01*
X11187309Y-5144649D01*
X11187309Y-5190611D01*
X11233271Y-5190611D01*
X12250541Y-6957181D02*
X12250541Y-6911219D01*
X12204579Y-6911219D01*
X12204579Y-6957181D01*
X12250541Y-6957181D01*
X12250541Y-7084181D02*
X12250541Y-7038219D01*
X12204579Y-7038219D01*
X12204579Y-7084181D01*
X12250541Y-7084181D01*
X10306933Y-5187817D02*
X10306933Y-5141855D01*
X10260971Y-5141855D01*
X10260971Y-5187817D01*
X10306933Y-5187817D01*
X10433933Y-5187817D02*
X10433933Y-5141855D01*
X10387971Y-5141855D01*
X10387971Y-5187817D01*
X10433933Y-5187817D01*
X11869541Y-9946761D02*
X11869541Y-9900799D01*
X11823579Y-9900799D01*
X11823579Y-9946761D01*
X11869541Y-9946761D01*
X11869541Y-10073761D02*
X11869541Y-10027799D01*
X11823579Y-10027799D01*
X11823579Y-10073761D01*
X11869541Y-10073761D01*
X11869541Y-10200761D02*
X11869541Y-10154799D01*
X11823579Y-10154799D01*
X11823579Y-10200761D01*
X11869541Y-10200761D01*
X11869541Y-10327761D02*
X11869541Y-10281799D01*
X11823579Y-10281799D01*
X11823579Y-10327761D01*
X11869541Y-10327761D01*
X11869541Y-10454761D02*
X11869541Y-10408799D01*
X11823579Y-10408799D01*
X11823579Y-10454761D01*
X11869541Y-10454761D01*
X11869541Y-10581761D02*
X11869541Y-10535799D01*
X11823579Y-10535799D01*
X11823579Y-10581761D01*
X11869541Y-10581761D01*
X11869541Y-10708761D02*
X11869541Y-10662799D01*
X11823579Y-10662799D01*
X11823579Y-10708761D01*
X11869541Y-10708761D01*
X11869541Y-10835761D02*
X11869541Y-10789799D01*
X11823579Y-10789799D01*
X11823579Y-10835761D01*
X11869541Y-10835761D01*
X9596120Y-9471060D02*
X9633620Y-9433560D01*
X9596120Y-9396060D01*
X9558620Y-9433560D01*
X9596120Y-9471060D01*
X10665460Y-13093100D02*
X10702960Y-13055600D01*
X10665460Y-13018100D01*
X10627960Y-13055600D01*
X10665460Y-13093100D01*
X10784840Y-14215780D02*
X10822340Y-14178280D01*
X10784840Y-14140780D01*
X10747340Y-14178280D01*
X10784840Y-14215780D01*
X10784840Y-14383420D02*
X10822340Y-14345920D01*
X10784840Y-14308420D01*
X10747340Y-14345920D01*
X10784840Y-14383420D01*
X10835640Y-9869840D02*
X10873140Y-9832340D01*
X10835640Y-9794840D01*
X10798140Y-9832340D01*
X10835640Y-9869840D01*
X10840720Y-10128920D02*
X10878220Y-10091420D01*
X10840720Y-10053920D01*
X10803220Y-10091420D01*
X10840720Y-10128920D01*
X10840720Y-10382920D02*
X10878220Y-10345420D01*
X10840720Y-10307920D01*
X10803220Y-10345420D01*
X10840720Y-10382920D01*
X10880090Y-13100720D02*
X10917590Y-13063220D01*
X10880090Y-13025720D01*
X10842590Y-13063220D01*
X10880090Y-13100720D01*
X11107420Y-12907680D02*
X11144920Y-12870180D01*
X11107420Y-12832680D01*
X11069920Y-12870180D01*
X11107420Y-12907680D01*
X12534900Y-13543950D02*
X12572400Y-13506450D01*
X12534900Y-13468950D01*
X12497400Y-13506450D01*
X12534900Y-13543950D01*
X9178160Y-16589500D02*
X9273160Y-16684500D01*
X9273160Y-16589500D02*
X9178160Y-16684500D01*
X9273160Y-16637000D02*
G75*
G03X9273160Y-16637000I-47500J0D01*
G01*
X9428160Y-16589500D02*
X9523160Y-16684500D01*
X9523160Y-16589500D02*
X9428160Y-16684500D01*
X9523160Y-16637000D02*
G75*
G03X9523160Y-16637000I-47500J0D01*
G01*
X9678160Y-16589500D02*
X9773160Y-16684500D01*
X9773160Y-16589500D02*
X9678160Y-16684500D01*
X9773160Y-16637000D02*
G75*
G03X9773160Y-16637000I-47500J0D01*
G01*
X10386860Y-17130560D02*
X10486860Y-17230560D01*
X10486860Y-17130560D02*
X10386860Y-17230560D01*
X10436860Y-17130560D02*
X10436860Y-17230560D01*
X10386860Y-17180560D02*
X10486860Y-17180560D01*
X10638320Y-16368560D02*
X10738320Y-16468560D01*
X10738320Y-16368560D02*
X10638320Y-16468560D01*
X10688320Y-16368560D02*
X10688320Y-16468560D01*
X10638320Y-16418560D02*
X10738320Y-16418560D01*
X12850660Y-13193560D02*
X12950660Y-13293560D01*
X12950660Y-13193560D02*
X12850660Y-13293560D01*
X12900660Y-13193560D02*
X12900660Y-13293560D01*
X12850660Y-13243560D02*
X12950660Y-13243560D01*
X12850660Y-13447560D02*
X12950660Y-13547560D01*
X12950660Y-13447560D02*
X12850660Y-13547560D01*
X12900660Y-13447560D02*
X12900660Y-13547560D01*
X12850660Y-13497560D02*
X12950660Y-13497560D01*
X12850660Y-13701560D02*
X12950660Y-13801560D01*
X12950660Y-13701560D02*
X12850660Y-13801560D01*
X12900660Y-13701560D02*
X12900660Y-13801560D01*
X12850660Y-13751560D02*
X12950660Y-13751560D01*
X12850660Y-13955560D02*
X12950660Y-14055560D01*
X12950660Y-13955560D02*
X12850660Y-14055560D01*
X12900660Y-13955560D02*
X12900660Y-14055560D01*
X12850660Y-14005560D02*
X12950660Y-14005560D01*
X12850660Y-14209560D02*
X12950660Y-14309560D01*
X12950660Y-14209560D02*
X12850660Y-14309560D01*
X12900660Y-14209560D02*
X12900660Y-14309560D01*
X12850660Y-14259560D02*
X12950660Y-14259560D01*
X12850660Y-14463560D02*
X12950660Y-14563560D01*
X12950660Y-14463560D02*
X12850660Y-14563560D01*
X12900660Y-14463560D02*
X12900660Y-14563560D01*
X12850660Y-14513560D02*
X12950660Y-14513560D01*
X12850660Y-14717560D02*
X12950660Y-14817560D01*
X12950660Y-14717560D02*
X12850660Y-14817560D01*
X12900660Y-14717560D02*
X12900660Y-14817560D01*
X12850660Y-14767560D02*
X12950660Y-14767560D01*
X12850660Y-14971560D02*
X12950660Y-15071560D01*
X12950660Y-14971560D02*
X12850660Y-15071560D01*
X12900660Y-14971560D02*
X12900660Y-15071560D01*
X12850660Y-15021560D02*
X12950660Y-15021560D01*
X12850660Y-15225560D02*
X12950660Y-15325560D01*
X12950660Y-15225560D02*
X12850660Y-15325560D01*
X12900660Y-15225560D02*
X12900660Y-15325560D01*
X12850660Y-15275560D02*
X12950660Y-15275560D01*
X12850660Y-15479560D02*
X12950660Y-15579560D01*
X12950660Y-15479560D02*
X12850660Y-15579560D01*
X12900660Y-15479560D02*
X12900660Y-15579560D01*
X12850660Y-15529560D02*
X12950660Y-15529560D01*
X12850660Y-15733560D02*
X12950660Y-15833560D01*
X12950660Y-15733560D02*
X12850660Y-15833560D01*
X12900660Y-15733560D02*
X12900660Y-15833560D01*
X12850660Y-15783560D02*
X12950660Y-15783560D01*
X12850660Y-15987560D02*
X12950660Y-16087560D01*
X12950660Y-15987560D02*
X12850660Y-16087560D01*
X12900660Y-15987560D02*
X12900660Y-16087560D01*
X12850660Y-16037560D02*
X12950660Y-16037560D01*
X12850660Y-16241560D02*
X12950660Y-16341560D01*
X12950660Y-16241560D02*
X12850660Y-16341560D01*
X12900660Y-16241560D02*
X12900660Y-16341560D01*
X12850660Y-16291560D02*
X12950660Y-16291560D01*
X8987320Y-5063020D02*
X9087320Y-5163020D01*
X9087320Y-5063020D02*
X8987320Y-5163020D01*
X9037320Y-5063020D02*
X9037320Y-5163020D01*
X8987320Y-5113020D02*
X9087320Y-5113020D01*
X8987320Y-5317020D02*
X9087320Y-5417020D01*
X9087320Y-5317020D02*
X8987320Y-5417020D01*
X9037320Y-5317020D02*
X9037320Y-5417020D01*
X8987320Y-5367020D02*
X9087320Y-5367020D01*
X8987320Y-5571020D02*
X9087320Y-5671020D01*
X9087320Y-5571020D02*
X8987320Y-5671020D01*
X9037320Y-5571020D02*
X9037320Y-5671020D01*
X8987320Y-5621020D02*
X9087320Y-5621020D01*
X8987320Y-5825020D02*
X9087320Y-5925020D01*
X9087320Y-5825020D02*
X8987320Y-5925020D01*
X9037320Y-5825020D02*
X9037320Y-5925020D01*
X8987320Y-5875020D02*
X9087320Y-5875020D01*
X8987320Y-6079020D02*
X9087320Y-6179020D01*
X9087320Y-6079020D02*
X8987320Y-6179020D01*
X9037320Y-6079020D02*
X9037320Y-6179020D01*
X8987320Y-6129020D02*
X9087320Y-6129020D01*
X8987320Y-6333020D02*
X9087320Y-6433020D01*
X9087320Y-6333020D02*
X8987320Y-6433020D01*
X9037320Y-6333020D02*
X9037320Y-6433020D01*
X8987320Y-6383020D02*
X9087320Y-6383020D01*
X8987320Y-6587020D02*
X9087320Y-6687020D01*
X9087320Y-6587020D02*
X8987320Y-6687020D01*
X9037320Y-6587020D02*
X9037320Y-6687020D01*
X8987320Y-6637020D02*
X9087320Y-6637020D01*
X8987320Y-6841020D02*
X9087320Y-6941020D01*
X9087320Y-6841020D02*
X8987320Y-6941020D01*
X9037320Y-6841020D02*
X9037320Y-6941020D01*
X8987320Y-6891020D02*
X9087320Y-6891020D01*
X8987320Y-7095020D02*
X9087320Y-7195020D01*
X9087320Y-7095020D02*
X8987320Y-7195020D01*
X9037320Y-7095020D02*
X9037320Y-7195020D01*
X8987320Y-7145020D02*
X9087320Y-7145020D01*
X8987320Y-7349020D02*
X9087320Y-7449020D01*
X9087320Y-7349020D02*
X8987320Y-7449020D01*
X9037320Y-7349020D02*
X9037320Y-7449020D01*
X8987320Y-7399020D02*
X9087320Y-7399020D01*
X8987320Y-7603020D02*
X9087320Y-7703020D01*
X9087320Y-7603020D02*
X8987320Y-7703020D01*
X9037320Y-7603020D02*
X9037320Y-7703020D01*
X8987320Y-7653020D02*
X9087320Y-7653020D01*
X8987320Y-7857020D02*
X9087320Y-7957020D01*
X9087320Y-7857020D02*
X8987320Y-7957020D01*
X9037320Y-7857020D02*
X9037320Y-7957020D01*
X8987320Y-7907020D02*
X9087320Y-7907020D01*
X8987320Y-8111020D02*
X9087320Y-8211020D01*
X9087320Y-8111020D02*
X8987320Y-8211020D01*
X9037320Y-8111020D02*
X9037320Y-8211020D01*
X8987320Y-8161020D02*
X9087320Y-8161020D01*
X11179350Y-17092040D02*
X11299350Y-17212040D01*
X11299350Y-17092040D02*
X11179350Y-17212040D01*
X11281777Y-17194467D02*
X11281777Y-17109613D01*
X11196923Y-17109613D01*
X11196923Y-17194467D01*
X11281777Y-17194467D01*
X11954350Y-17092040D02*
X12074350Y-17212040D01*
X12074350Y-17092040D02*
X11954350Y-17212040D01*
X12056777Y-17194467D02*
X12056777Y-17109613D01*
X11971923Y-17109613D01*
X11971923Y-17194467D01*
X12056777Y-17194467D01*
X11184350Y-16702040D02*
X11324350Y-16842040D01*
X11324350Y-16702040D02*
X11184350Y-16842040D01*
X11254350Y-16842040D02*
X11324350Y-16772040D01*
X11254350Y-16702040D01*
X11184350Y-16772040D01*
X11254350Y-16842040D01*
X11929350Y-16702040D02*
X12069350Y-16842040D01*
X12069350Y-16702040D02*
X11929350Y-16842040D01*
X11999350Y-16842040D02*
X12069350Y-16772040D01*
X11999350Y-16702040D01*
X11929350Y-16772040D01*
X11999350Y-16842040D01*
D12*
X8320488Y-17826574D02*
X8320488Y-17526574D01*
X8391917Y-17526574D01*
X8434774Y-17540860D01*
X8463346Y-17569432D01*
X8477631Y-17598003D01*
X8491917Y-17655146D01*
X8491917Y-17698003D01*
X8477631Y-17755146D01*
X8463346Y-17783717D01*
X8434774Y-17812289D01*
X8391917Y-17826574D01*
X8320488Y-17826574D01*
X8620488Y-17826574D02*
X8620488Y-17626574D01*
X8620488Y-17683717D02*
X8634774Y-17655146D01*
X8649060Y-17640860D01*
X8677631Y-17626574D01*
X8706203Y-17626574D01*
X8806203Y-17826574D02*
X8806203Y-17626574D01*
X8806203Y-17526574D02*
X8791917Y-17540860D01*
X8806203Y-17555146D01*
X8820488Y-17540860D01*
X8806203Y-17526574D01*
X8806203Y-17555146D01*
X8991917Y-17826574D02*
X8963346Y-17812289D01*
X8949060Y-17783717D01*
X8949060Y-17526574D01*
X9149060Y-17826574D02*
X9120488Y-17812289D01*
X9106203Y-17783717D01*
X9106203Y-17526574D01*
X9491917Y-17826574D02*
X9491917Y-17526574D01*
X9591917Y-17740860D01*
X9691917Y-17526574D01*
X9691917Y-17826574D01*
X9963346Y-17826574D02*
X9963346Y-17669432D01*
X9949060Y-17640860D01*
X9920488Y-17626574D01*
X9863346Y-17626574D01*
X9834774Y-17640860D01*
X9963346Y-17812289D02*
X9934774Y-17826574D01*
X9863346Y-17826574D01*
X9834774Y-17812289D01*
X9820488Y-17783717D01*
X9820488Y-17755146D01*
X9834774Y-17726574D01*
X9863346Y-17712289D01*
X9934774Y-17712289D01*
X9963346Y-17698003D01*
X10106203Y-17626574D02*
X10106203Y-17926574D01*
X10106203Y-17640860D02*
X10134774Y-17626574D01*
X10191917Y-17626574D01*
X10220488Y-17640860D01*
X10234774Y-17655146D01*
X10249060Y-17683717D01*
X10249060Y-17769432D01*
X10234774Y-17798003D01*
X10220488Y-17812289D01*
X10191917Y-17826574D01*
X10134774Y-17826574D01*
X10106203Y-17812289D01*
X10377631Y-17798003D02*
X10391917Y-17812289D01*
X10377631Y-17826574D01*
X10363346Y-17812289D01*
X10377631Y-17798003D01*
X10377631Y-17826574D01*
X10377631Y-17640860D02*
X10391917Y-17655146D01*
X10377631Y-17669432D01*
X10363346Y-17655146D01*
X10377631Y-17640860D01*
X10377631Y-17669432D01*
X8014060Y-18310860D02*
X8034060Y-18330860D01*
X8034060Y-18310860D02*
X8014060Y-18330860D01*
X8377631Y-18156574D02*
X8406203Y-18156574D01*
X8434774Y-18170860D01*
X8449060Y-18185146D01*
X8463346Y-18213717D01*
X8477631Y-18270860D01*
X8477631Y-18342289D01*
X8463346Y-18399432D01*
X8449060Y-18428003D01*
X8434774Y-18442289D01*
X8406203Y-18456574D01*
X8377631Y-18456574D01*
X8349060Y-18442289D01*
X8334774Y-18428003D01*
X8320488Y-18399432D01*
X8306203Y-18342289D01*
X8306203Y-18270860D01*
X8320488Y-18213717D01*
X8334774Y-18185146D01*
X8349060Y-18170860D01*
X8377631Y-18156574D01*
X8606203Y-18428003D02*
X8620488Y-18442289D01*
X8606203Y-18456574D01*
X8591917Y-18442289D01*
X8606203Y-18428003D01*
X8606203Y-18456574D01*
X8734774Y-18185146D02*
X8749060Y-18170860D01*
X8777631Y-18156574D01*
X8849060Y-18156574D01*
X8877631Y-18170860D01*
X8891917Y-18185146D01*
X8906203Y-18213717D01*
X8906203Y-18242289D01*
X8891917Y-18285146D01*
X8720488Y-18456574D01*
X8906203Y-18456574D01*
X9091917Y-18156574D02*
X9120488Y-18156574D01*
X9149060Y-18170860D01*
X9163346Y-18185146D01*
X9177631Y-18213717D01*
X9191917Y-18270860D01*
X9191917Y-18342289D01*
X9177631Y-18399432D01*
X9163346Y-18428003D01*
X9149060Y-18442289D01*
X9120488Y-18456574D01*
X9091917Y-18456574D01*
X9063346Y-18442289D01*
X9049060Y-18428003D01*
X9034774Y-18399432D01*
X9020488Y-18342289D01*
X9020488Y-18270860D01*
X9034774Y-18213717D01*
X9049060Y-18185146D01*
X9063346Y-18170860D01*
X9091917Y-18156574D01*
X9320488Y-18456574D02*
X9320488Y-18256574D01*
X9320488Y-18285146D02*
X9334774Y-18270860D01*
X9363346Y-18256574D01*
X9406203Y-18256574D01*
X9434774Y-18270860D01*
X9449060Y-18299432D01*
X9449060Y-18456574D01*
X9449060Y-18299432D02*
X9463346Y-18270860D01*
X9491917Y-18256574D01*
X9534774Y-18256574D01*
X9563346Y-18270860D01*
X9577631Y-18299432D01*
X9577631Y-18456574D01*
X9720488Y-18456574D02*
X9720488Y-18256574D01*
X9720488Y-18285146D02*
X9734774Y-18270860D01*
X9763346Y-18256574D01*
X9806203Y-18256574D01*
X9834774Y-18270860D01*
X9849060Y-18299432D01*
X9849060Y-18456574D01*
X9849060Y-18299432D02*
X9863346Y-18270860D01*
X9891917Y-18256574D01*
X9934774Y-18256574D01*
X9963346Y-18270860D01*
X9977631Y-18299432D01*
X9977631Y-18456574D01*
X10563346Y-18142289D02*
X10306203Y-18528003D01*
X10949060Y-18156574D02*
X10977631Y-18156574D01*
X11006203Y-18170860D01*
X11020488Y-18185146D01*
X11034774Y-18213717D01*
X11049060Y-18270860D01*
X11049060Y-18342289D01*
X11034774Y-18399432D01*
X11020488Y-18428003D01*
X11006203Y-18442289D01*
X10977631Y-18456574D01*
X10949060Y-18456574D01*
X10920488Y-18442289D01*
X10906203Y-18428003D01*
X10891917Y-18399432D01*
X10877631Y-18342289D01*
X10877631Y-18270860D01*
X10891917Y-18213717D01*
X10906203Y-18185146D01*
X10920488Y-18170860D01*
X10949060Y-18156574D01*
X11177631Y-18428003D02*
X11191917Y-18442289D01*
X11177631Y-18456574D01*
X11163346Y-18442289D01*
X11177631Y-18428003D01*
X11177631Y-18456574D01*
X11377631Y-18156574D02*
X11406203Y-18156574D01*
X11434774Y-18170860D01*
X11449060Y-18185146D01*
X11463346Y-18213717D01*
X11477631Y-18270860D01*
X11477631Y-18342289D01*
X11463346Y-18399432D01*
X11449060Y-18428003D01*
X11434774Y-18442289D01*
X11406203Y-18456574D01*
X11377631Y-18456574D01*
X11349060Y-18442289D01*
X11334774Y-18428003D01*
X11320488Y-18399432D01*
X11306203Y-18342289D01*
X11306203Y-18270860D01*
X11320488Y-18213717D01*
X11334774Y-18185146D01*
X11349060Y-18170860D01*
X11377631Y-18156574D01*
X11663346Y-18156574D02*
X11691917Y-18156574D01*
X11720488Y-18170860D01*
X11734774Y-18185146D01*
X11749060Y-18213717D01*
X11763346Y-18270860D01*
X11763346Y-18342289D01*
X11749060Y-18399432D01*
X11734774Y-18428003D01*
X11720488Y-18442289D01*
X11691917Y-18456574D01*
X11663346Y-18456574D01*
X11634774Y-18442289D01*
X11620488Y-18428003D01*
X11606203Y-18399432D01*
X11591917Y-18342289D01*
X11591917Y-18270860D01*
X11606203Y-18213717D01*
X11620488Y-18185146D01*
X11634774Y-18170860D01*
X11663346Y-18156574D01*
X11934774Y-18285146D02*
X11906203Y-18270860D01*
X11891917Y-18256574D01*
X11877631Y-18228003D01*
X11877631Y-18213717D01*
X11891917Y-18185146D01*
X11906203Y-18170860D01*
X11934774Y-18156574D01*
X11991917Y-18156574D01*
X12020488Y-18170860D01*
X12034774Y-18185146D01*
X12049060Y-18213717D01*
X12049060Y-18228003D01*
X12034774Y-18256574D01*
X12020488Y-18270860D01*
X11991917Y-18285146D01*
X11934774Y-18285146D01*
X11906203Y-18299432D01*
X11891917Y-18313717D01*
X11877631Y-18342289D01*
X11877631Y-18399432D01*
X11891917Y-18428003D01*
X11906203Y-18442289D01*
X11934774Y-18456574D01*
X11991917Y-18456574D01*
X12020488Y-18442289D01*
X12034774Y-18428003D01*
X12049060Y-18399432D01*
X12049060Y-18342289D01*
X12034774Y-18313717D01*
X12020488Y-18299432D01*
X11991917Y-18285146D01*
X12163346Y-18156574D02*
X12163346Y-18213717D01*
X12277631Y-18156574D02*
X12277631Y-18213717D01*
X12720488Y-18570860D02*
X12706203Y-18556574D01*
X12677631Y-18513717D01*
X12663346Y-18485146D01*
X12649060Y-18442289D01*
X12634774Y-18370860D01*
X12634774Y-18313717D01*
X12649060Y-18242289D01*
X12663346Y-18199432D01*
X12677631Y-18170860D01*
X12706203Y-18128003D01*
X12720488Y-18113717D01*
X12963346Y-18156574D02*
X12906203Y-18156574D01*
X12877631Y-18170860D01*
X12863346Y-18185146D01*
X12834774Y-18228003D01*
X12820488Y-18285146D01*
X12820488Y-18399432D01*
X12834774Y-18428003D01*
X12849060Y-18442289D01*
X12877631Y-18456574D01*
X12934774Y-18456574D01*
X12963346Y-18442289D01*
X12977631Y-18428003D01*
X12991917Y-18399432D01*
X12991917Y-18328003D01*
X12977631Y-18299432D01*
X12963346Y-18285146D01*
X12934774Y-18270860D01*
X12877631Y-18270860D01*
X12849060Y-18285146D01*
X12834774Y-18299432D01*
X12820488Y-18328003D01*
X13349060Y-18456574D02*
X13349060Y-18156574D01*
X13477631Y-18456574D02*
X13477631Y-18299432D01*
X13463346Y-18270860D01*
X13434774Y-18256574D01*
X13391917Y-18256574D01*
X13363346Y-18270860D01*
X13349060Y-18285146D01*
X13663346Y-18456574D02*
X13634774Y-18442289D01*
X13620488Y-18428003D01*
X13606203Y-18399432D01*
X13606203Y-18313717D01*
X13620488Y-18285146D01*
X13634774Y-18270860D01*
X13663346Y-18256574D01*
X13706203Y-18256574D01*
X13734774Y-18270860D01*
X13749060Y-18285146D01*
X13763346Y-18313717D01*
X13763346Y-18399432D01*
X13749060Y-18428003D01*
X13734774Y-18442289D01*
X13706203Y-18456574D01*
X13663346Y-18456574D01*
X13934774Y-18456574D02*
X13906203Y-18442289D01*
X13891917Y-18413717D01*
X13891917Y-18156574D01*
X14163346Y-18442289D02*
X14134774Y-18456574D01*
X14077631Y-18456574D01*
X14049060Y-18442289D01*
X14034774Y-18413717D01*
X14034774Y-18299432D01*
X14049060Y-18270860D01*
X14077631Y-18256574D01*
X14134774Y-18256574D01*
X14163346Y-18270860D01*
X14177631Y-18299432D01*
X14177631Y-18328003D01*
X14034774Y-18356574D01*
X14291917Y-18442289D02*
X14320488Y-18456574D01*
X14377631Y-18456574D01*
X14406203Y-18442289D01*
X14420488Y-18413717D01*
X14420488Y-18399432D01*
X14406203Y-18370860D01*
X14377631Y-18356574D01*
X14334774Y-18356574D01*
X14306203Y-18342289D01*
X14291917Y-18313717D01*
X14291917Y-18299432D01*
X14306203Y-18270860D01*
X14334774Y-18256574D01*
X14377631Y-18256574D01*
X14406203Y-18270860D01*
X14520488Y-18570860D02*
X14534774Y-18556574D01*
X14563346Y-18513717D01*
X14577631Y-18485146D01*
X14591917Y-18442289D01*
X14606203Y-18370860D01*
X14606203Y-18313717D01*
X14591917Y-18242289D01*
X14577631Y-18199432D01*
X14563346Y-18170860D01*
X14534774Y-18128003D01*
X14520488Y-18113717D01*
X8034060Y-18716860D02*
G75*
G03X8034060Y-18716860I-20000J0D01*
G01*
X8377631Y-18552574D02*
X8406203Y-18552574D01*
X8434774Y-18566860D01*
X8449060Y-18581146D01*
X8463346Y-18609717D01*
X8477631Y-18666860D01*
X8477631Y-18738289D01*
X8463346Y-18795432D01*
X8449060Y-18824003D01*
X8434774Y-18838289D01*
X8406203Y-18852574D01*
X8377631Y-18852574D01*
X8349060Y-18838289D01*
X8334774Y-18824003D01*
X8320488Y-18795432D01*
X8306203Y-18738289D01*
X8306203Y-18666860D01*
X8320488Y-18609717D01*
X8334774Y-18581146D01*
X8349060Y-18566860D01*
X8377631Y-18552574D01*
X8606203Y-18824003D02*
X8620488Y-18838289D01*
X8606203Y-18852574D01*
X8591917Y-18838289D01*
X8606203Y-18824003D01*
X8606203Y-18852574D01*
X8877631Y-18652574D02*
X8877631Y-18852574D01*
X8806203Y-18538289D02*
X8734774Y-18752574D01*
X8920488Y-18752574D01*
X9091917Y-18552574D02*
X9120488Y-18552574D01*
X9149060Y-18566860D01*
X9163346Y-18581146D01*
X9177631Y-18609717D01*
X9191917Y-18666860D01*
X9191917Y-18738289D01*
X9177631Y-18795432D01*
X9163346Y-18824003D01*
X9149060Y-18838289D01*
X9120488Y-18852574D01*
X9091917Y-18852574D01*
X9063346Y-18838289D01*
X9049060Y-18824003D01*
X9034774Y-18795432D01*
X9020488Y-18738289D01*
X9020488Y-18666860D01*
X9034774Y-18609717D01*
X9049060Y-18581146D01*
X9063346Y-18566860D01*
X9091917Y-18552574D01*
X9320488Y-18852574D02*
X9320488Y-18652574D01*
X9320488Y-18681146D02*
X9334774Y-18666860D01*
X9363346Y-18652574D01*
X9406203Y-18652574D01*
X9434774Y-18666860D01*
X9449060Y-18695432D01*
X9449060Y-18852574D01*
X9449060Y-18695432D02*
X9463346Y-18666860D01*
X9491917Y-18652574D01*
X9534774Y-18652574D01*
X9563346Y-18666860D01*
X9577631Y-18695432D01*
X9577631Y-18852574D01*
X9720488Y-18852574D02*
X9720488Y-18652574D01*
X9720488Y-18681146D02*
X9734774Y-18666860D01*
X9763346Y-18652574D01*
X9806203Y-18652574D01*
X9834774Y-18666860D01*
X9849060Y-18695432D01*
X9849060Y-18852574D01*
X9849060Y-18695432D02*
X9863346Y-18666860D01*
X9891917Y-18652574D01*
X9934774Y-18652574D01*
X9963346Y-18666860D01*
X9977631Y-18695432D01*
X9977631Y-18852574D01*
X10563346Y-18538289D02*
X10306203Y-18924003D01*
X10949060Y-18552574D02*
X10977631Y-18552574D01*
X11006203Y-18566860D01*
X11020488Y-18581146D01*
X11034774Y-18609717D01*
X11049060Y-18666860D01*
X11049060Y-18738289D01*
X11034774Y-18795432D01*
X11020488Y-18824003D01*
X11006203Y-18838289D01*
X10977631Y-18852574D01*
X10949060Y-18852574D01*
X10920488Y-18838289D01*
X10906203Y-18824003D01*
X10891917Y-18795432D01*
X10877631Y-18738289D01*
X10877631Y-18666860D01*
X10891917Y-18609717D01*
X10906203Y-18581146D01*
X10920488Y-18566860D01*
X10949060Y-18552574D01*
X11177631Y-18824003D02*
X11191917Y-18838289D01*
X11177631Y-18852574D01*
X11163346Y-18838289D01*
X11177631Y-18824003D01*
X11177631Y-18852574D01*
X11377631Y-18552574D02*
X11406203Y-18552574D01*
X11434774Y-18566860D01*
X11449060Y-18581146D01*
X11463346Y-18609717D01*
X11477631Y-18666860D01*
X11477631Y-18738289D01*
X11463346Y-18795432D01*
X11449060Y-18824003D01*
X11434774Y-18838289D01*
X11406203Y-18852574D01*
X11377631Y-18852574D01*
X11349060Y-18838289D01*
X11334774Y-18824003D01*
X11320488Y-18795432D01*
X11306203Y-18738289D01*
X11306203Y-18666860D01*
X11320488Y-18609717D01*
X11334774Y-18581146D01*
X11349060Y-18566860D01*
X11377631Y-18552574D01*
X11763346Y-18852574D02*
X11591917Y-18852574D01*
X11677631Y-18852574D02*
X11677631Y-18552574D01*
X11649060Y-18595432D01*
X11620488Y-18624003D01*
X11591917Y-18638289D01*
X12020488Y-18552574D02*
X11963346Y-18552574D01*
X11934774Y-18566860D01*
X11920488Y-18581146D01*
X11891917Y-18624003D01*
X11877631Y-18681146D01*
X11877631Y-18795432D01*
X11891917Y-18824003D01*
X11906203Y-18838289D01*
X11934774Y-18852574D01*
X11991917Y-18852574D01*
X12020488Y-18838289D01*
X12034774Y-18824003D01*
X12049060Y-18795432D01*
X12049060Y-18724003D01*
X12034774Y-18695432D01*
X12020488Y-18681146D01*
X11991917Y-18666860D01*
X11934774Y-18666860D01*
X11906203Y-18681146D01*
X11891917Y-18695432D01*
X11877631Y-18724003D01*
X12163346Y-18552574D02*
X12163346Y-18609717D01*
X12277631Y-18552574D02*
X12277631Y-18609717D01*
X12720488Y-18966860D02*
X12706203Y-18952574D01*
X12677631Y-18909717D01*
X12663346Y-18881146D01*
X12649060Y-18838289D01*
X12634774Y-18766860D01*
X12634774Y-18709717D01*
X12649060Y-18638289D01*
X12663346Y-18595432D01*
X12677631Y-18566860D01*
X12706203Y-18524003D01*
X12720488Y-18509717D01*
X12806203Y-18552574D02*
X12991917Y-18552574D01*
X12891917Y-18666860D01*
X12934774Y-18666860D01*
X12963346Y-18681146D01*
X12977631Y-18695432D01*
X12991917Y-18724003D01*
X12991917Y-18795432D01*
X12977631Y-18824003D01*
X12963346Y-18838289D01*
X12934774Y-18852574D01*
X12849060Y-18852574D01*
X12820488Y-18838289D01*
X12806203Y-18824003D01*
X13091917Y-18552574D02*
X13277631Y-18552574D01*
X13177631Y-18666860D01*
X13220488Y-18666860D01*
X13249060Y-18681146D01*
X13263346Y-18695432D01*
X13277631Y-18724003D01*
X13277631Y-18795432D01*
X13263346Y-18824003D01*
X13249060Y-18838289D01*
X13220488Y-18852574D01*
X13134774Y-18852574D01*
X13106203Y-18838289D01*
X13091917Y-18824003D01*
X13634774Y-18852574D02*
X13634774Y-18552574D01*
X13763346Y-18852574D02*
X13763346Y-18695432D01*
X13749060Y-18666860D01*
X13720488Y-18652574D01*
X13677631Y-18652574D01*
X13649060Y-18666860D01*
X13634774Y-18681146D01*
X13949060Y-18852574D02*
X13920488Y-18838289D01*
X13906203Y-18824003D01*
X13891917Y-18795432D01*
X13891917Y-18709717D01*
X13906203Y-18681146D01*
X13920488Y-18666860D01*
X13949060Y-18652574D01*
X13991917Y-18652574D01*
X14020488Y-18666860D01*
X14034774Y-18681146D01*
X14049060Y-18709717D01*
X14049060Y-18795432D01*
X14034774Y-18824003D01*
X14020488Y-18838289D01*
X13991917Y-18852574D01*
X13949060Y-18852574D01*
X14220488Y-18852574D02*
X14191917Y-18838289D01*
X14177631Y-18809717D01*
X14177631Y-18552574D01*
X14449060Y-18838289D02*
X14420488Y-18852574D01*
X14363346Y-18852574D01*
X14334774Y-18838289D01*
X14320488Y-18809717D01*
X14320488Y-18695432D01*
X14334774Y-18666860D01*
X14363346Y-18652574D01*
X14420488Y-18652574D01*
X14449060Y-18666860D01*
X14463346Y-18695432D01*
X14463346Y-18724003D01*
X14320488Y-18752574D01*
X14577631Y-18838289D02*
X14606203Y-18852574D01*
X14663346Y-18852574D01*
X14691917Y-18838289D01*
X14706203Y-18809717D01*
X14706203Y-18795432D01*
X14691917Y-18766860D01*
X14663346Y-18752574D01*
X14620488Y-18752574D01*
X14591917Y-18738289D01*
X14577631Y-18709717D01*
X14577631Y-18695432D01*
X14591917Y-18666860D01*
X14620488Y-18652574D01*
X14663346Y-18652574D01*
X14691917Y-18666860D01*
X14806203Y-18966860D02*
X14820488Y-18952574D01*
X14849060Y-18909717D01*
X14863346Y-18881146D01*
X14877631Y-18838289D01*
X14891917Y-18766860D01*
X14891917Y-18709717D01*
X14877631Y-18638289D01*
X14863346Y-18595432D01*
X14849060Y-18566860D01*
X14820488Y-18524003D01*
X14806203Y-18509717D01*
X8009060Y-19087860D02*
X8009060Y-19137860D01*
X7984060Y-19112860D02*
X8034060Y-19112860D01*
X8377631Y-18948574D02*
X8406203Y-18948574D01*
X8434774Y-18962860D01*
X8449060Y-18977146D01*
X8463346Y-19005717D01*
X8477631Y-19062860D01*
X8477631Y-19134289D01*
X8463346Y-19191432D01*
X8449060Y-19220003D01*
X8434774Y-19234289D01*
X8406203Y-19248574D01*
X8377631Y-19248574D01*
X8349060Y-19234289D01*
X8334774Y-19220003D01*
X8320488Y-19191432D01*
X8306203Y-19134289D01*
X8306203Y-19062860D01*
X8320488Y-19005717D01*
X8334774Y-18977146D01*
X8349060Y-18962860D01*
X8377631Y-18948574D01*
X8606203Y-19220003D02*
X8620488Y-19234289D01*
X8606203Y-19248574D01*
X8591917Y-19234289D01*
X8606203Y-19220003D01*
X8606203Y-19248574D01*
X8891917Y-18948574D02*
X8749060Y-18948574D01*
X8734774Y-19091432D01*
X8749060Y-19077146D01*
X8777631Y-19062860D01*
X8849060Y-19062860D01*
X8877631Y-19077146D01*
X8891917Y-19091432D01*
X8906203Y-19120003D01*
X8906203Y-19191432D01*
X8891917Y-19220003D01*
X8877631Y-19234289D01*
X8849060Y-19248574D01*
X8777631Y-19248574D01*
X8749060Y-19234289D01*
X8734774Y-19220003D01*
X9091917Y-18948574D02*
X9120488Y-18948574D01*
X9149060Y-18962860D01*
X9163346Y-18977146D01*
X9177631Y-19005717D01*
X9191917Y-19062860D01*
X9191917Y-19134289D01*
X9177631Y-19191432D01*
X9163346Y-19220003D01*
X9149060Y-19234289D01*
X9120488Y-19248574D01*
X9091917Y-19248574D01*
X9063346Y-19234289D01*
X9049060Y-19220003D01*
X9034774Y-19191432D01*
X9020488Y-19134289D01*
X9020488Y-19062860D01*
X9034774Y-19005717D01*
X9049060Y-18977146D01*
X9063346Y-18962860D01*
X9091917Y-18948574D01*
X9320488Y-19248574D02*
X9320488Y-19048574D01*
X9320488Y-19077146D02*
X9334774Y-19062860D01*
X9363346Y-19048574D01*
X9406203Y-19048574D01*
X9434774Y-19062860D01*
X9449060Y-19091432D01*
X9449060Y-19248574D01*
X9449060Y-19091432D02*
X9463346Y-19062860D01*
X9491917Y-19048574D01*
X9534774Y-19048574D01*
X9563346Y-19062860D01*
X9577631Y-19091432D01*
X9577631Y-19248574D01*
X9720488Y-19248574D02*
X9720488Y-19048574D01*
X9720488Y-19077146D02*
X9734774Y-19062860D01*
X9763346Y-19048574D01*
X9806203Y-19048574D01*
X9834774Y-19062860D01*
X9849060Y-19091432D01*
X9849060Y-19248574D01*
X9849060Y-19091432D02*
X9863346Y-19062860D01*
X9891917Y-19048574D01*
X9934774Y-19048574D01*
X9963346Y-19062860D01*
X9977631Y-19091432D01*
X9977631Y-19248574D01*
X10563346Y-18934289D02*
X10306203Y-19320003D01*
X10949060Y-18948574D02*
X10977631Y-18948574D01*
X11006203Y-18962860D01*
X11020488Y-18977146D01*
X11034774Y-19005717D01*
X11049060Y-19062860D01*
X11049060Y-19134289D01*
X11034774Y-19191432D01*
X11020488Y-19220003D01*
X11006203Y-19234289D01*
X10977631Y-19248574D01*
X10949060Y-19248574D01*
X10920488Y-19234289D01*
X10906203Y-19220003D01*
X10891917Y-19191432D01*
X10877631Y-19134289D01*
X10877631Y-19062860D01*
X10891917Y-19005717D01*
X10906203Y-18977146D01*
X10920488Y-18962860D01*
X10949060Y-18948574D01*
X11177631Y-19220003D02*
X11191917Y-19234289D01*
X11177631Y-19248574D01*
X11163346Y-19234289D01*
X11177631Y-19220003D01*
X11177631Y-19248574D01*
X11377631Y-18948574D02*
X11406203Y-18948574D01*
X11434774Y-18962860D01*
X11449060Y-18977146D01*
X11463346Y-19005717D01*
X11477631Y-19062860D01*
X11477631Y-19134289D01*
X11463346Y-19191432D01*
X11449060Y-19220003D01*
X11434774Y-19234289D01*
X11406203Y-19248574D01*
X11377631Y-19248574D01*
X11349060Y-19234289D01*
X11334774Y-19220003D01*
X11320488Y-19191432D01*
X11306203Y-19134289D01*
X11306203Y-19062860D01*
X11320488Y-19005717D01*
X11334774Y-18977146D01*
X11349060Y-18962860D01*
X11377631Y-18948574D01*
X11591917Y-18977146D02*
X11606203Y-18962860D01*
X11634774Y-18948574D01*
X11706203Y-18948574D01*
X11734774Y-18962860D01*
X11749060Y-18977146D01*
X11763346Y-19005717D01*
X11763346Y-19034289D01*
X11749060Y-19077146D01*
X11577631Y-19248574D01*
X11763346Y-19248574D01*
X11949060Y-18948574D02*
X11977631Y-18948574D01*
X12006203Y-18962860D01*
X12020488Y-18977146D01*
X12034774Y-19005717D01*
X12049060Y-19062860D01*
X12049060Y-19134289D01*
X12034774Y-19191432D01*
X12020488Y-19220003D01*
X12006203Y-19234289D01*
X11977631Y-19248574D01*
X11949060Y-19248574D01*
X11920488Y-19234289D01*
X11906203Y-19220003D01*
X11891917Y-19191432D01*
X11877631Y-19134289D01*
X11877631Y-19062860D01*
X11891917Y-19005717D01*
X11906203Y-18977146D01*
X11920488Y-18962860D01*
X11949060Y-18948574D01*
X12163346Y-18948574D02*
X12163346Y-19005717D01*
X12277631Y-18948574D02*
X12277631Y-19005717D01*
X12720488Y-19362860D02*
X12706203Y-19348574D01*
X12677631Y-19305717D01*
X12663346Y-19277146D01*
X12649060Y-19234289D01*
X12634774Y-19162860D01*
X12634774Y-19105717D01*
X12649060Y-19034289D01*
X12663346Y-18991432D01*
X12677631Y-18962860D01*
X12706203Y-18920003D01*
X12720488Y-18905717D01*
X12806203Y-18948574D02*
X13006203Y-18948574D01*
X12877631Y-19248574D01*
X13349060Y-19248574D02*
X13349060Y-18948574D01*
X13477631Y-19248574D02*
X13477631Y-19091432D01*
X13463346Y-19062860D01*
X13434774Y-19048574D01*
X13391917Y-19048574D01*
X13363346Y-19062860D01*
X13349060Y-19077146D01*
X13663346Y-19248574D02*
X13634774Y-19234289D01*
X13620488Y-19220003D01*
X13606203Y-19191432D01*
X13606203Y-19105717D01*
X13620488Y-19077146D01*
X13634774Y-19062860D01*
X13663346Y-19048574D01*
X13706203Y-19048574D01*
X13734774Y-19062860D01*
X13749060Y-19077146D01*
X13763346Y-19105717D01*
X13763346Y-19191432D01*
X13749060Y-19220003D01*
X13734774Y-19234289D01*
X13706203Y-19248574D01*
X13663346Y-19248574D01*
X13934774Y-19248574D02*
X13906203Y-19234289D01*
X13891917Y-19205717D01*
X13891917Y-18948574D01*
X14163346Y-19234289D02*
X14134774Y-19248574D01*
X14077631Y-19248574D01*
X14049060Y-19234289D01*
X14034774Y-19205717D01*
X14034774Y-19091432D01*
X14049060Y-19062860D01*
X14077631Y-19048574D01*
X14134774Y-19048574D01*
X14163346Y-19062860D01*
X14177631Y-19091432D01*
X14177631Y-19120003D01*
X14034774Y-19148574D01*
X14291917Y-19234289D02*
X14320488Y-19248574D01*
X14377631Y-19248574D01*
X14406203Y-19234289D01*
X14420488Y-19205717D01*
X14420488Y-19191432D01*
X14406203Y-19162860D01*
X14377631Y-19148574D01*
X14334774Y-19148574D01*
X14306203Y-19134289D01*
X14291917Y-19105717D01*
X14291917Y-19091432D01*
X14306203Y-19062860D01*
X14334774Y-19048574D01*
X14377631Y-19048574D01*
X14406203Y-19062860D01*
X14520488Y-19362860D02*
X14534774Y-19348574D01*
X14563346Y-19305717D01*
X14577631Y-19277146D01*
X14591917Y-19234289D01*
X14606203Y-19162860D01*
X14606203Y-19105717D01*
X14591917Y-19034289D01*
X14577631Y-18991432D01*
X14563346Y-18962860D01*
X14534774Y-18920003D01*
X14520488Y-18905717D01*
X8024541Y-19531841D02*
X8024541Y-19485879D01*
X7978579Y-19485879D01*
X7978579Y-19531841D01*
X8024541Y-19531841D01*
X8377631Y-19344574D02*
X8406203Y-19344574D01*
X8434774Y-19358860D01*
X8449060Y-19373146D01*
X8463346Y-19401717D01*
X8477631Y-19458860D01*
X8477631Y-19530289D01*
X8463346Y-19587432D01*
X8449060Y-19616003D01*
X8434774Y-19630289D01*
X8406203Y-19644574D01*
X8377631Y-19644574D01*
X8349060Y-19630289D01*
X8334774Y-19616003D01*
X8320488Y-19587432D01*
X8306203Y-19530289D01*
X8306203Y-19458860D01*
X8320488Y-19401717D01*
X8334774Y-19373146D01*
X8349060Y-19358860D01*
X8377631Y-19344574D01*
X8606203Y-19616003D02*
X8620488Y-19630289D01*
X8606203Y-19644574D01*
X8591917Y-19630289D01*
X8606203Y-19616003D01*
X8606203Y-19644574D01*
X8877631Y-19344574D02*
X8820488Y-19344574D01*
X8791917Y-19358860D01*
X8777631Y-19373146D01*
X8749060Y-19416003D01*
X8734774Y-19473146D01*
X8734774Y-19587432D01*
X8749060Y-19616003D01*
X8763346Y-19630289D01*
X8791917Y-19644574D01*
X8849060Y-19644574D01*
X8877631Y-19630289D01*
X8891917Y-19616003D01*
X8906203Y-19587432D01*
X8906203Y-19516003D01*
X8891917Y-19487432D01*
X8877631Y-19473146D01*
X8849060Y-19458860D01*
X8791917Y-19458860D01*
X8763346Y-19473146D01*
X8749060Y-19487432D01*
X8734774Y-19516003D01*
X9177631Y-19344574D02*
X9034774Y-19344574D01*
X9020488Y-19487432D01*
X9034774Y-19473146D01*
X9063346Y-19458860D01*
X9134774Y-19458860D01*
X9163346Y-19473146D01*
X9177631Y-19487432D01*
X9191917Y-19516003D01*
X9191917Y-19587432D01*
X9177631Y-19616003D01*
X9163346Y-19630289D01*
X9134774Y-19644574D01*
X9063346Y-19644574D01*
X9034774Y-19630289D01*
X9020488Y-19616003D01*
X9320488Y-19644574D02*
X9320488Y-19444574D01*
X9320488Y-19473146D02*
X9334774Y-19458860D01*
X9363346Y-19444574D01*
X9406203Y-19444574D01*
X9434774Y-19458860D01*
X9449060Y-19487432D01*
X9449060Y-19644574D01*
X9449060Y-19487432D02*
X9463346Y-19458860D01*
X9491917Y-19444574D01*
X9534774Y-19444574D01*
X9563346Y-19458860D01*
X9577631Y-19487432D01*
X9577631Y-19644574D01*
X9720488Y-19644574D02*
X9720488Y-19444574D01*
X9720488Y-19473146D02*
X9734774Y-19458860D01*
X9763346Y-19444574D01*
X9806203Y-19444574D01*
X9834774Y-19458860D01*
X9849060Y-19487432D01*
X9849060Y-19644574D01*
X9849060Y-19487432D02*
X9863346Y-19458860D01*
X9891917Y-19444574D01*
X9934774Y-19444574D01*
X9963346Y-19458860D01*
X9977631Y-19487432D01*
X9977631Y-19644574D01*
X10563346Y-19330289D02*
X10306203Y-19716003D01*
X10949060Y-19344574D02*
X10977631Y-19344574D01*
X11006203Y-19358860D01*
X11020488Y-19373146D01*
X11034774Y-19401717D01*
X11049060Y-19458860D01*
X11049060Y-19530289D01*
X11034774Y-19587432D01*
X11020488Y-19616003D01*
X11006203Y-19630289D01*
X10977631Y-19644574D01*
X10949060Y-19644574D01*
X10920488Y-19630289D01*
X10906203Y-19616003D01*
X10891917Y-19587432D01*
X10877631Y-19530289D01*
X10877631Y-19458860D01*
X10891917Y-19401717D01*
X10906203Y-19373146D01*
X10920488Y-19358860D01*
X10949060Y-19344574D01*
X11177631Y-19616003D02*
X11191917Y-19630289D01*
X11177631Y-19644574D01*
X11163346Y-19630289D01*
X11177631Y-19616003D01*
X11177631Y-19644574D01*
X11377631Y-19344574D02*
X11406203Y-19344574D01*
X11434774Y-19358860D01*
X11449060Y-19373146D01*
X11463346Y-19401717D01*
X11477631Y-19458860D01*
X11477631Y-19530289D01*
X11463346Y-19587432D01*
X11449060Y-19616003D01*
X11434774Y-19630289D01*
X11406203Y-19644574D01*
X11377631Y-19644574D01*
X11349060Y-19630289D01*
X11334774Y-19616003D01*
X11320488Y-19587432D01*
X11306203Y-19530289D01*
X11306203Y-19458860D01*
X11320488Y-19401717D01*
X11334774Y-19373146D01*
X11349060Y-19358860D01*
X11377631Y-19344574D01*
X11591917Y-19373146D02*
X11606203Y-19358860D01*
X11634774Y-19344574D01*
X11706203Y-19344574D01*
X11734774Y-19358860D01*
X11749060Y-19373146D01*
X11763346Y-19401717D01*
X11763346Y-19430289D01*
X11749060Y-19473146D01*
X11577631Y-19644574D01*
X11763346Y-19644574D01*
X12020488Y-19344574D02*
X11963346Y-19344574D01*
X11934774Y-19358860D01*
X11920488Y-19373146D01*
X11891917Y-19416003D01*
X11877631Y-19473146D01*
X11877631Y-19587432D01*
X11891917Y-19616003D01*
X11906203Y-19630289D01*
X11934774Y-19644574D01*
X11991917Y-19644574D01*
X12020488Y-19630289D01*
X12034774Y-19616003D01*
X12049060Y-19587432D01*
X12049060Y-19516003D01*
X12034774Y-19487432D01*
X12020488Y-19473146D01*
X11991917Y-19458860D01*
X11934774Y-19458860D01*
X11906203Y-19473146D01*
X11891917Y-19487432D01*
X11877631Y-19516003D01*
X12163346Y-19344574D02*
X12163346Y-19401717D01*
X12277631Y-19344574D02*
X12277631Y-19401717D01*
X12720488Y-19758860D02*
X12706203Y-19744574D01*
X12677631Y-19701717D01*
X12663346Y-19673146D01*
X12649060Y-19630289D01*
X12634774Y-19558860D01*
X12634774Y-19501717D01*
X12649060Y-19430289D01*
X12663346Y-19387432D01*
X12677631Y-19358860D01*
X12706203Y-19316003D01*
X12720488Y-19301717D01*
X12991917Y-19644574D02*
X12820488Y-19644574D01*
X12906203Y-19644574D02*
X12906203Y-19344574D01*
X12877631Y-19387432D01*
X12849060Y-19416003D01*
X12820488Y-19430289D01*
X13249060Y-19344574D02*
X13191917Y-19344574D01*
X13163346Y-19358860D01*
X13149060Y-19373146D01*
X13120488Y-19416003D01*
X13106203Y-19473146D01*
X13106203Y-19587432D01*
X13120488Y-19616003D01*
X13134774Y-19630289D01*
X13163346Y-19644574D01*
X13220488Y-19644574D01*
X13249060Y-19630289D01*
X13263346Y-19616003D01*
X13277631Y-19587432D01*
X13277631Y-19516003D01*
X13263346Y-19487432D01*
X13249060Y-19473146D01*
X13220488Y-19458860D01*
X13163346Y-19458860D01*
X13134774Y-19473146D01*
X13120488Y-19487432D01*
X13106203Y-19516003D01*
X13634774Y-19644574D02*
X13634774Y-19344574D01*
X13763346Y-19644574D02*
X13763346Y-19487432D01*
X13749060Y-19458860D01*
X13720488Y-19444574D01*
X13677631Y-19444574D01*
X13649060Y-19458860D01*
X13634774Y-19473146D01*
X13949060Y-19644574D02*
X13920488Y-19630289D01*
X13906203Y-19616003D01*
X13891917Y-19587432D01*
X13891917Y-19501717D01*
X13906203Y-19473146D01*
X13920488Y-19458860D01*
X13949060Y-19444574D01*
X13991917Y-19444574D01*
X14020488Y-19458860D01*
X14034774Y-19473146D01*
X14049060Y-19501717D01*
X14049060Y-19587432D01*
X14034774Y-19616003D01*
X14020488Y-19630289D01*
X13991917Y-19644574D01*
X13949060Y-19644574D01*
X14220488Y-19644574D02*
X14191917Y-19630289D01*
X14177631Y-19601717D01*
X14177631Y-19344574D01*
X14449060Y-19630289D02*
X14420488Y-19644574D01*
X14363346Y-19644574D01*
X14334774Y-19630289D01*
X14320488Y-19601717D01*
X14320488Y-19487432D01*
X14334774Y-19458860D01*
X14363346Y-19444574D01*
X14420488Y-19444574D01*
X14449060Y-19458860D01*
X14463346Y-19487432D01*
X14463346Y-19516003D01*
X14320488Y-19544574D01*
X14577631Y-19630289D02*
X14606203Y-19644574D01*
X14663346Y-19644574D01*
X14691917Y-19630289D01*
X14706203Y-19601717D01*
X14706203Y-19587432D01*
X14691917Y-19558860D01*
X14663346Y-19544574D01*
X14620488Y-19544574D01*
X14591917Y-19530289D01*
X14577631Y-19501717D01*
X14577631Y-19487432D01*
X14591917Y-19458860D01*
X14620488Y-19444574D01*
X14663346Y-19444574D01*
X14691917Y-19458860D01*
X14806203Y-19758860D02*
X14820488Y-19744574D01*
X14849060Y-19701717D01*
X14863346Y-19673146D01*
X14877631Y-19630289D01*
X14891917Y-19558860D01*
X14891917Y-19501717D01*
X14877631Y-19430289D01*
X14863346Y-19387432D01*
X14849060Y-19358860D01*
X14820488Y-19316003D01*
X14806203Y-19301717D01*
X7996560Y-19942360D02*
X8034060Y-19904860D01*
X7996560Y-19867360D01*
X7959060Y-19904860D01*
X7996560Y-19942360D01*
X8377631Y-19740574D02*
X8406203Y-19740574D01*
X8434774Y-19754860D01*
X8449060Y-19769146D01*
X8463346Y-19797717D01*
X8477631Y-19854860D01*
X8477631Y-19926289D01*
X8463346Y-19983432D01*
X8449060Y-20012003D01*
X8434774Y-20026289D01*
X8406203Y-20040574D01*
X8377631Y-20040574D01*
X8349060Y-20026289D01*
X8334774Y-20012003D01*
X8320488Y-19983432D01*
X8306203Y-19926289D01*
X8306203Y-19854860D01*
X8320488Y-19797717D01*
X8334774Y-19769146D01*
X8349060Y-19754860D01*
X8377631Y-19740574D01*
X8606203Y-20012003D02*
X8620488Y-20026289D01*
X8606203Y-20040574D01*
X8591917Y-20026289D01*
X8606203Y-20012003D01*
X8606203Y-20040574D01*
X8720488Y-19740574D02*
X8920488Y-19740574D01*
X8791917Y-20040574D01*
X9177631Y-19740574D02*
X9034774Y-19740574D01*
X9020488Y-19883432D01*
X9034774Y-19869146D01*
X9063346Y-19854860D01*
X9134774Y-19854860D01*
X9163346Y-19869146D01*
X9177631Y-19883432D01*
X9191917Y-19912003D01*
X9191917Y-19983432D01*
X9177631Y-20012003D01*
X9163346Y-20026289D01*
X9134774Y-20040574D01*
X9063346Y-20040574D01*
X9034774Y-20026289D01*
X9020488Y-20012003D01*
X9320488Y-20040574D02*
X9320488Y-19840574D01*
X9320488Y-19869146D02*
X9334774Y-19854860D01*
X9363346Y-19840574D01*
X9406203Y-19840574D01*
X9434774Y-19854860D01*
X9449060Y-19883432D01*
X9449060Y-20040574D01*
X9449060Y-19883432D02*
X9463346Y-19854860D01*
X9491917Y-19840574D01*
X9534774Y-19840574D01*
X9563346Y-19854860D01*
X9577631Y-19883432D01*
X9577631Y-20040574D01*
X9720488Y-20040574D02*
X9720488Y-19840574D01*
X9720488Y-19869146D02*
X9734774Y-19854860D01*
X9763346Y-19840574D01*
X9806203Y-19840574D01*
X9834774Y-19854860D01*
X9849060Y-19883432D01*
X9849060Y-20040574D01*
X9849060Y-19883432D02*
X9863346Y-19854860D01*
X9891917Y-19840574D01*
X9934774Y-19840574D01*
X9963346Y-19854860D01*
X9977631Y-19883432D01*
X9977631Y-20040574D01*
X10563346Y-19726289D02*
X10306203Y-20112003D01*
X10949060Y-19740574D02*
X10977631Y-19740574D01*
X11006203Y-19754860D01*
X11020488Y-19769146D01*
X11034774Y-19797717D01*
X11049060Y-19854860D01*
X11049060Y-19926289D01*
X11034774Y-19983432D01*
X11020488Y-20012003D01*
X11006203Y-20026289D01*
X10977631Y-20040574D01*
X10949060Y-20040574D01*
X10920488Y-20026289D01*
X10906203Y-20012003D01*
X10891917Y-19983432D01*
X10877631Y-19926289D01*
X10877631Y-19854860D01*
X10891917Y-19797717D01*
X10906203Y-19769146D01*
X10920488Y-19754860D01*
X10949060Y-19740574D01*
X11177631Y-20012003D02*
X11191917Y-20026289D01*
X11177631Y-20040574D01*
X11163346Y-20026289D01*
X11177631Y-20012003D01*
X11177631Y-20040574D01*
X11377631Y-19740574D02*
X11406203Y-19740574D01*
X11434774Y-19754860D01*
X11449060Y-19769146D01*
X11463346Y-19797717D01*
X11477631Y-19854860D01*
X11477631Y-19926289D01*
X11463346Y-19983432D01*
X11449060Y-20012003D01*
X11434774Y-20026289D01*
X11406203Y-20040574D01*
X11377631Y-20040574D01*
X11349060Y-20026289D01*
X11334774Y-20012003D01*
X11320488Y-19983432D01*
X11306203Y-19926289D01*
X11306203Y-19854860D01*
X11320488Y-19797717D01*
X11334774Y-19769146D01*
X11349060Y-19754860D01*
X11377631Y-19740574D01*
X11577631Y-19740574D02*
X11763346Y-19740574D01*
X11663346Y-19854860D01*
X11706203Y-19854860D01*
X11734774Y-19869146D01*
X11749060Y-19883432D01*
X11763346Y-19912003D01*
X11763346Y-19983432D01*
X11749060Y-20012003D01*
X11734774Y-20026289D01*
X11706203Y-20040574D01*
X11620488Y-20040574D01*
X11591917Y-20026289D01*
X11577631Y-20012003D01*
X11949060Y-19740574D02*
X11977631Y-19740574D01*
X12006203Y-19754860D01*
X12020488Y-19769146D01*
X12034774Y-19797717D01*
X12049060Y-19854860D01*
X12049060Y-19926289D01*
X12034774Y-19983432D01*
X12020488Y-20012003D01*
X12006203Y-20026289D01*
X11977631Y-20040574D01*
X11949060Y-20040574D01*
X11920488Y-20026289D01*
X11906203Y-20012003D01*
X11891917Y-19983432D01*
X11877631Y-19926289D01*
X11877631Y-19854860D01*
X11891917Y-19797717D01*
X11906203Y-19769146D01*
X11920488Y-19754860D01*
X11949060Y-19740574D01*
X12163346Y-19740574D02*
X12163346Y-19797717D01*
X12277631Y-19740574D02*
X12277631Y-19797717D01*
X12720488Y-20154860D02*
X12706203Y-20140574D01*
X12677631Y-20097717D01*
X12663346Y-20069146D01*
X12649060Y-20026289D01*
X12634774Y-19954860D01*
X12634774Y-19897717D01*
X12649060Y-19826289D01*
X12663346Y-19783432D01*
X12677631Y-19754860D01*
X12706203Y-19712003D01*
X12720488Y-19697717D01*
X12991917Y-20040574D02*
X12820488Y-20040574D01*
X12906203Y-20040574D02*
X12906203Y-19740574D01*
X12877631Y-19783432D01*
X12849060Y-19812003D01*
X12820488Y-19826289D01*
X13177631Y-19740574D02*
X13206203Y-19740574D01*
X13234774Y-19754860D01*
X13249060Y-19769146D01*
X13263346Y-19797717D01*
X13277631Y-19854860D01*
X13277631Y-19926289D01*
X13263346Y-19983432D01*
X13249060Y-20012003D01*
X13234774Y-20026289D01*
X13206203Y-20040574D01*
X13177631Y-20040574D01*
X13149060Y-20026289D01*
X13134774Y-20012003D01*
X13120488Y-19983432D01*
X13106203Y-19926289D01*
X13106203Y-19854860D01*
X13120488Y-19797717D01*
X13134774Y-19769146D01*
X13149060Y-19754860D01*
X13177631Y-19740574D01*
X13634774Y-20040574D02*
X13634774Y-19740574D01*
X13763346Y-20040574D02*
X13763346Y-19883432D01*
X13749060Y-19854860D01*
X13720488Y-19840574D01*
X13677631Y-19840574D01*
X13649060Y-19854860D01*
X13634774Y-19869146D01*
X13949060Y-20040574D02*
X13920488Y-20026289D01*
X13906203Y-20012003D01*
X13891917Y-19983432D01*
X13891917Y-19897717D01*
X13906203Y-19869146D01*
X13920488Y-19854860D01*
X13949060Y-19840574D01*
X13991917Y-19840574D01*
X14020488Y-19854860D01*
X14034774Y-19869146D01*
X14049060Y-19897717D01*
X14049060Y-19983432D01*
X14034774Y-20012003D01*
X14020488Y-20026289D01*
X13991917Y-20040574D01*
X13949060Y-20040574D01*
X14220488Y-20040574D02*
X14191917Y-20026289D01*
X14177631Y-19997717D01*
X14177631Y-19740574D01*
X14449060Y-20026289D02*
X14420488Y-20040574D01*
X14363346Y-20040574D01*
X14334774Y-20026289D01*
X14320488Y-19997717D01*
X14320488Y-19883432D01*
X14334774Y-19854860D01*
X14363346Y-19840574D01*
X14420488Y-19840574D01*
X14449060Y-19854860D01*
X14463346Y-19883432D01*
X14463346Y-19912003D01*
X14320488Y-19940574D01*
X14577631Y-20026289D02*
X14606203Y-20040574D01*
X14663346Y-20040574D01*
X14691917Y-20026289D01*
X14706203Y-19997717D01*
X14706203Y-19983432D01*
X14691917Y-19954860D01*
X14663346Y-19940574D01*
X14620488Y-19940574D01*
X14591917Y-19926289D01*
X14577631Y-19897717D01*
X14577631Y-19883432D01*
X14591917Y-19854860D01*
X14620488Y-19840574D01*
X14663346Y-19840574D01*
X14691917Y-19854860D01*
X14806203Y-20154860D02*
X14820488Y-20140574D01*
X14849060Y-20097717D01*
X14863346Y-20069146D01*
X14877631Y-20026289D01*
X14891917Y-19954860D01*
X14891917Y-19897717D01*
X14877631Y-19826289D01*
X14863346Y-19783432D01*
X14849060Y-19754860D01*
X14820488Y-19712003D01*
X14806203Y-19697717D01*
X7939060Y-20253360D02*
X8034060Y-20348360D01*
X8034060Y-20253360D02*
X7939060Y-20348360D01*
X8034060Y-20300860D02*
G75*
G03X8034060Y-20300860I-47500J0D01*
G01*
X8377631Y-20136574D02*
X8406203Y-20136574D01*
X8434774Y-20150860D01*
X8449060Y-20165146D01*
X8463346Y-20193717D01*
X8477631Y-20250860D01*
X8477631Y-20322289D01*
X8463346Y-20379432D01*
X8449060Y-20408003D01*
X8434774Y-20422289D01*
X8406203Y-20436574D01*
X8377631Y-20436574D01*
X8349060Y-20422289D01*
X8334774Y-20408003D01*
X8320488Y-20379432D01*
X8306203Y-20322289D01*
X8306203Y-20250860D01*
X8320488Y-20193717D01*
X8334774Y-20165146D01*
X8349060Y-20150860D01*
X8377631Y-20136574D01*
X8606203Y-20408003D02*
X8620488Y-20422289D01*
X8606203Y-20436574D01*
X8591917Y-20422289D01*
X8606203Y-20408003D01*
X8606203Y-20436574D01*
X8763346Y-20436574D02*
X8820488Y-20436574D01*
X8849060Y-20422289D01*
X8863346Y-20408003D01*
X8891917Y-20365146D01*
X8906203Y-20308003D01*
X8906203Y-20193717D01*
X8891917Y-20165146D01*
X8877631Y-20150860D01*
X8849060Y-20136574D01*
X8791917Y-20136574D01*
X8763346Y-20150860D01*
X8749060Y-20165146D01*
X8734774Y-20193717D01*
X8734774Y-20265146D01*
X8749060Y-20293717D01*
X8763346Y-20308003D01*
X8791917Y-20322289D01*
X8849060Y-20322289D01*
X8877631Y-20308003D01*
X8891917Y-20293717D01*
X8906203Y-20265146D01*
X9177631Y-20136574D02*
X9034774Y-20136574D01*
X9020488Y-20279432D01*
X9034774Y-20265146D01*
X9063346Y-20250860D01*
X9134774Y-20250860D01*
X9163346Y-20265146D01*
X9177631Y-20279432D01*
X9191917Y-20308003D01*
X9191917Y-20379432D01*
X9177631Y-20408003D01*
X9163346Y-20422289D01*
X9134774Y-20436574D01*
X9063346Y-20436574D01*
X9034774Y-20422289D01*
X9020488Y-20408003D01*
X9320488Y-20436574D02*
X9320488Y-20236574D01*
X9320488Y-20265146D02*
X9334774Y-20250860D01*
X9363346Y-20236574D01*
X9406203Y-20236574D01*
X9434774Y-20250860D01*
X9449060Y-20279432D01*
X9449060Y-20436574D01*
X9449060Y-20279432D02*
X9463346Y-20250860D01*
X9491917Y-20236574D01*
X9534774Y-20236574D01*
X9563346Y-20250860D01*
X9577631Y-20279432D01*
X9577631Y-20436574D01*
X9720488Y-20436574D02*
X9720488Y-20236574D01*
X9720488Y-20265146D02*
X9734774Y-20250860D01*
X9763346Y-20236574D01*
X9806203Y-20236574D01*
X9834774Y-20250860D01*
X9849060Y-20279432D01*
X9849060Y-20436574D01*
X9849060Y-20279432D02*
X9863346Y-20250860D01*
X9891917Y-20236574D01*
X9934774Y-20236574D01*
X9963346Y-20250860D01*
X9977631Y-20279432D01*
X9977631Y-20436574D01*
X10563346Y-20122289D02*
X10306203Y-20508003D01*
X10949060Y-20136574D02*
X10977631Y-20136574D01*
X11006203Y-20150860D01*
X11020488Y-20165146D01*
X11034774Y-20193717D01*
X11049060Y-20250860D01*
X11049060Y-20322289D01*
X11034774Y-20379432D01*
X11020488Y-20408003D01*
X11006203Y-20422289D01*
X10977631Y-20436574D01*
X10949060Y-20436574D01*
X10920488Y-20422289D01*
X10906203Y-20408003D01*
X10891917Y-20379432D01*
X10877631Y-20322289D01*
X10877631Y-20250860D01*
X10891917Y-20193717D01*
X10906203Y-20165146D01*
X10920488Y-20150860D01*
X10949060Y-20136574D01*
X11177631Y-20408003D02*
X11191917Y-20422289D01*
X11177631Y-20436574D01*
X11163346Y-20422289D01*
X11177631Y-20408003D01*
X11177631Y-20436574D01*
X11377631Y-20136574D02*
X11406203Y-20136574D01*
X11434774Y-20150860D01*
X11449060Y-20165146D01*
X11463346Y-20193717D01*
X11477631Y-20250860D01*
X11477631Y-20322289D01*
X11463346Y-20379432D01*
X11449060Y-20408003D01*
X11434774Y-20422289D01*
X11406203Y-20436574D01*
X11377631Y-20436574D01*
X11349060Y-20422289D01*
X11334774Y-20408003D01*
X11320488Y-20379432D01*
X11306203Y-20322289D01*
X11306203Y-20250860D01*
X11320488Y-20193717D01*
X11334774Y-20165146D01*
X11349060Y-20150860D01*
X11377631Y-20136574D01*
X11577631Y-20136574D02*
X11763346Y-20136574D01*
X11663346Y-20250860D01*
X11706203Y-20250860D01*
X11734774Y-20265146D01*
X11749060Y-20279432D01*
X11763346Y-20308003D01*
X11763346Y-20379432D01*
X11749060Y-20408003D01*
X11734774Y-20422289D01*
X11706203Y-20436574D01*
X11620488Y-20436574D01*
X11591917Y-20422289D01*
X11577631Y-20408003D01*
X11863346Y-20136574D02*
X12063346Y-20136574D01*
X11934774Y-20436574D01*
X12163346Y-20136574D02*
X12163346Y-20193717D01*
X12277631Y-20136574D02*
X12277631Y-20193717D01*
X12720488Y-20550860D02*
X12706203Y-20536574D01*
X12677631Y-20493717D01*
X12663346Y-20465146D01*
X12649060Y-20422289D01*
X12634774Y-20350860D01*
X12634774Y-20293717D01*
X12649060Y-20222289D01*
X12663346Y-20179432D01*
X12677631Y-20150860D01*
X12706203Y-20108003D01*
X12720488Y-20093717D01*
X12806203Y-20136574D02*
X12991917Y-20136574D01*
X12891917Y-20250860D01*
X12934774Y-20250860D01*
X12963346Y-20265146D01*
X12977631Y-20279432D01*
X12991917Y-20308003D01*
X12991917Y-20379432D01*
X12977631Y-20408003D01*
X12963346Y-20422289D01*
X12934774Y-20436574D01*
X12849060Y-20436574D01*
X12820488Y-20422289D01*
X12806203Y-20408003D01*
X13349060Y-20436574D02*
X13349060Y-20136574D01*
X13477631Y-20436574D02*
X13477631Y-20279432D01*
X13463346Y-20250860D01*
X13434774Y-20236574D01*
X13391917Y-20236574D01*
X13363346Y-20250860D01*
X13349060Y-20265146D01*
X13663346Y-20436574D02*
X13634774Y-20422289D01*
X13620488Y-20408003D01*
X13606203Y-20379432D01*
X13606203Y-20293717D01*
X13620488Y-20265146D01*
X13634774Y-20250860D01*
X13663346Y-20236574D01*
X13706203Y-20236574D01*
X13734774Y-20250860D01*
X13749060Y-20265146D01*
X13763346Y-20293717D01*
X13763346Y-20379432D01*
X13749060Y-20408003D01*
X13734774Y-20422289D01*
X13706203Y-20436574D01*
X13663346Y-20436574D01*
X13934774Y-20436574D02*
X13906203Y-20422289D01*
X13891917Y-20393717D01*
X13891917Y-20136574D01*
X14163346Y-20422289D02*
X14134774Y-20436574D01*
X14077631Y-20436574D01*
X14049060Y-20422289D01*
X14034774Y-20393717D01*
X14034774Y-20279432D01*
X14049060Y-20250860D01*
X14077631Y-20236574D01*
X14134774Y-20236574D01*
X14163346Y-20250860D01*
X14177631Y-20279432D01*
X14177631Y-20308003D01*
X14034774Y-20336574D01*
X14291917Y-20422289D02*
X14320488Y-20436574D01*
X14377631Y-20436574D01*
X14406203Y-20422289D01*
X14420488Y-20393717D01*
X14420488Y-20379432D01*
X14406203Y-20350860D01*
X14377631Y-20336574D01*
X14334774Y-20336574D01*
X14306203Y-20322289D01*
X14291917Y-20293717D01*
X14291917Y-20279432D01*
X14306203Y-20250860D01*
X14334774Y-20236574D01*
X14377631Y-20236574D01*
X14406203Y-20250860D01*
X14520488Y-20550860D02*
X14534774Y-20536574D01*
X14563346Y-20493717D01*
X14577631Y-20465146D01*
X14591917Y-20422289D01*
X14606203Y-20350860D01*
X14606203Y-20293717D01*
X14591917Y-20222289D01*
X14577631Y-20179432D01*
X14563346Y-20150860D01*
X14534774Y-20108003D01*
X14520488Y-20093717D01*
X7934060Y-20646860D02*
X8034060Y-20746860D01*
X8034060Y-20646860D02*
X7934060Y-20746860D01*
X7984060Y-20646860D02*
X7984060Y-20746860D01*
X7934060Y-20696860D02*
X8034060Y-20696860D01*
X8477631Y-20832574D02*
X8306203Y-20832574D01*
X8391917Y-20832574D02*
X8391917Y-20532574D01*
X8363346Y-20575432D01*
X8334774Y-20604003D01*
X8306203Y-20618289D01*
X8606203Y-20804003D02*
X8620488Y-20818289D01*
X8606203Y-20832574D01*
X8591917Y-20818289D01*
X8606203Y-20804003D01*
X8606203Y-20832574D01*
X8806203Y-20532574D02*
X8834774Y-20532574D01*
X8863346Y-20546860D01*
X8877631Y-20561146D01*
X8891917Y-20589717D01*
X8906203Y-20646860D01*
X8906203Y-20718289D01*
X8891917Y-20775432D01*
X8877631Y-20804003D01*
X8863346Y-20818289D01*
X8834774Y-20832574D01*
X8806203Y-20832574D01*
X8777631Y-20818289D01*
X8763346Y-20804003D01*
X8749060Y-20775432D01*
X8734774Y-20718289D01*
X8734774Y-20646860D01*
X8749060Y-20589717D01*
X8763346Y-20561146D01*
X8777631Y-20546860D01*
X8806203Y-20532574D01*
X9091917Y-20532574D02*
X9120488Y-20532574D01*
X9149060Y-20546860D01*
X9163346Y-20561146D01*
X9177631Y-20589717D01*
X9191917Y-20646860D01*
X9191917Y-20718289D01*
X9177631Y-20775432D01*
X9163346Y-20804003D01*
X9149060Y-20818289D01*
X9120488Y-20832574D01*
X9091917Y-20832574D01*
X9063346Y-20818289D01*
X9049060Y-20804003D01*
X9034774Y-20775432D01*
X9020488Y-20718289D01*
X9020488Y-20646860D01*
X9034774Y-20589717D01*
X9049060Y-20561146D01*
X9063346Y-20546860D01*
X9091917Y-20532574D01*
X9320488Y-20832574D02*
X9320488Y-20632574D01*
X9320488Y-20661146D02*
X9334774Y-20646860D01*
X9363346Y-20632574D01*
X9406203Y-20632574D01*
X9434774Y-20646860D01*
X9449060Y-20675432D01*
X9449060Y-20832574D01*
X9449060Y-20675432D02*
X9463346Y-20646860D01*
X9491917Y-20632574D01*
X9534774Y-20632574D01*
X9563346Y-20646860D01*
X9577631Y-20675432D01*
X9577631Y-20832574D01*
X9720488Y-20832574D02*
X9720488Y-20632574D01*
X9720488Y-20661146D02*
X9734774Y-20646860D01*
X9763346Y-20632574D01*
X9806203Y-20632574D01*
X9834774Y-20646860D01*
X9849060Y-20675432D01*
X9849060Y-20832574D01*
X9849060Y-20675432D02*
X9863346Y-20646860D01*
X9891917Y-20632574D01*
X9934774Y-20632574D01*
X9963346Y-20646860D01*
X9977631Y-20675432D01*
X9977631Y-20832574D01*
X10563346Y-20518289D02*
X10306203Y-20904003D01*
X10949060Y-20532574D02*
X10977631Y-20532574D01*
X11006203Y-20546860D01*
X11020488Y-20561146D01*
X11034774Y-20589717D01*
X11049060Y-20646860D01*
X11049060Y-20718289D01*
X11034774Y-20775432D01*
X11020488Y-20804003D01*
X11006203Y-20818289D01*
X10977631Y-20832574D01*
X10949060Y-20832574D01*
X10920488Y-20818289D01*
X10906203Y-20804003D01*
X10891917Y-20775432D01*
X10877631Y-20718289D01*
X10877631Y-20646860D01*
X10891917Y-20589717D01*
X10906203Y-20561146D01*
X10920488Y-20546860D01*
X10949060Y-20532574D01*
X11177631Y-20804003D02*
X11191917Y-20818289D01*
X11177631Y-20832574D01*
X11163346Y-20818289D01*
X11177631Y-20804003D01*
X11177631Y-20832574D01*
X11377631Y-20532574D02*
X11406203Y-20532574D01*
X11434774Y-20546860D01*
X11449060Y-20561146D01*
X11463346Y-20589717D01*
X11477631Y-20646860D01*
X11477631Y-20718289D01*
X11463346Y-20775432D01*
X11449060Y-20804003D01*
X11434774Y-20818289D01*
X11406203Y-20832574D01*
X11377631Y-20832574D01*
X11349060Y-20818289D01*
X11334774Y-20804003D01*
X11320488Y-20775432D01*
X11306203Y-20718289D01*
X11306203Y-20646860D01*
X11320488Y-20589717D01*
X11334774Y-20561146D01*
X11349060Y-20546860D01*
X11377631Y-20532574D01*
X11577631Y-20532574D02*
X11763346Y-20532574D01*
X11663346Y-20646860D01*
X11706203Y-20646860D01*
X11734774Y-20661146D01*
X11749060Y-20675432D01*
X11763346Y-20704003D01*
X11763346Y-20775432D01*
X11749060Y-20804003D01*
X11734774Y-20818289D01*
X11706203Y-20832574D01*
X11620488Y-20832574D01*
X11591917Y-20818289D01*
X11577631Y-20804003D01*
X11906203Y-20832574D02*
X11963346Y-20832574D01*
X11991917Y-20818289D01*
X12006203Y-20804003D01*
X12034774Y-20761146D01*
X12049060Y-20704003D01*
X12049060Y-20589717D01*
X12034774Y-20561146D01*
X12020488Y-20546860D01*
X11991917Y-20532574D01*
X11934774Y-20532574D01*
X11906203Y-20546860D01*
X11891917Y-20561146D01*
X11877631Y-20589717D01*
X11877631Y-20661146D01*
X11891917Y-20689717D01*
X11906203Y-20704003D01*
X11934774Y-20718289D01*
X11991917Y-20718289D01*
X12020488Y-20704003D01*
X12034774Y-20689717D01*
X12049060Y-20661146D01*
X12163346Y-20532574D02*
X12163346Y-20589717D01*
X12277631Y-20532574D02*
X12277631Y-20589717D01*
X12720488Y-20946860D02*
X12706203Y-20932574D01*
X12677631Y-20889717D01*
X12663346Y-20861146D01*
X12649060Y-20818289D01*
X12634774Y-20746860D01*
X12634774Y-20689717D01*
X12649060Y-20618289D01*
X12663346Y-20575432D01*
X12677631Y-20546860D01*
X12706203Y-20504003D01*
X12720488Y-20489717D01*
X12820488Y-20561146D02*
X12834774Y-20546860D01*
X12863346Y-20532574D01*
X12934774Y-20532574D01*
X12963346Y-20546860D01*
X12977631Y-20561146D01*
X12991917Y-20589717D01*
X12991917Y-20618289D01*
X12977631Y-20661146D01*
X12806203Y-20832574D01*
X12991917Y-20832574D01*
X13163346Y-20661146D02*
X13134774Y-20646860D01*
X13120488Y-20632574D01*
X13106203Y-20604003D01*
X13106203Y-20589717D01*
X13120488Y-20561146D01*
X13134774Y-20546860D01*
X13163346Y-20532574D01*
X13220488Y-20532574D01*
X13249060Y-20546860D01*
X13263346Y-20561146D01*
X13277631Y-20589717D01*
X13277631Y-20604003D01*
X13263346Y-20632574D01*
X13249060Y-20646860D01*
X13220488Y-20661146D01*
X13163346Y-20661146D01*
X13134774Y-20675432D01*
X13120488Y-20689717D01*
X13106203Y-20718289D01*
X13106203Y-20775432D01*
X13120488Y-20804003D01*
X13134774Y-20818289D01*
X13163346Y-20832574D01*
X13220488Y-20832574D01*
X13249060Y-20818289D01*
X13263346Y-20804003D01*
X13277631Y-20775432D01*
X13277631Y-20718289D01*
X13263346Y-20689717D01*
X13249060Y-20675432D01*
X13220488Y-20661146D01*
X13634774Y-20832574D02*
X13634774Y-20532574D01*
X13763346Y-20832574D02*
X13763346Y-20675432D01*
X13749060Y-20646860D01*
X13720488Y-20632574D01*
X13677631Y-20632574D01*
X13649060Y-20646860D01*
X13634774Y-20661146D01*
X13949060Y-20832574D02*
X13920488Y-20818289D01*
X13906203Y-20804003D01*
X13891917Y-20775432D01*
X13891917Y-20689717D01*
X13906203Y-20661146D01*
X13920488Y-20646860D01*
X13949060Y-20632574D01*
X13991917Y-20632574D01*
X14020488Y-20646860D01*
X14034774Y-20661146D01*
X14049060Y-20689717D01*
X14049060Y-20775432D01*
X14034774Y-20804003D01*
X14020488Y-20818289D01*
X13991917Y-20832574D01*
X13949060Y-20832574D01*
X14220488Y-20832574D02*
X14191917Y-20818289D01*
X14177631Y-20789717D01*
X14177631Y-20532574D01*
X14449060Y-20818289D02*
X14420488Y-20832574D01*
X14363346Y-20832574D01*
X14334774Y-20818289D01*
X14320488Y-20789717D01*
X14320488Y-20675432D01*
X14334774Y-20646860D01*
X14363346Y-20632574D01*
X14420488Y-20632574D01*
X14449060Y-20646860D01*
X14463346Y-20675432D01*
X14463346Y-20704003D01*
X14320488Y-20732574D01*
X14577631Y-20818289D02*
X14606203Y-20832574D01*
X14663346Y-20832574D01*
X14691917Y-20818289D01*
X14706203Y-20789717D01*
X14706203Y-20775432D01*
X14691917Y-20746860D01*
X14663346Y-20732574D01*
X14620488Y-20732574D01*
X14591917Y-20718289D01*
X14577631Y-20689717D01*
X14577631Y-20675432D01*
X14591917Y-20646860D01*
X14620488Y-20632574D01*
X14663346Y-20632574D01*
X14691917Y-20646860D01*
X14806203Y-20946860D02*
X14820488Y-20932574D01*
X14849060Y-20889717D01*
X14863346Y-20861146D01*
X14877631Y-20818289D01*
X14891917Y-20746860D01*
X14891917Y-20689717D01*
X14877631Y-20618289D01*
X14863346Y-20575432D01*
X14849060Y-20546860D01*
X14820488Y-20504003D01*
X14806203Y-20489717D01*
X7914060Y-21032860D02*
X8034060Y-21152860D01*
X8034060Y-21032860D02*
X7914060Y-21152860D01*
X8016487Y-21135287D02*
X8016487Y-21050433D01*
X7931633Y-21050433D01*
X7931633Y-21135287D01*
X8016487Y-21135287D01*
X8477631Y-21228574D02*
X8306203Y-21228574D01*
X8391917Y-21228574D02*
X8391917Y-20928574D01*
X8363346Y-20971432D01*
X8334774Y-21000003D01*
X8306203Y-21014289D01*
X8606203Y-21200003D02*
X8620488Y-21214289D01*
X8606203Y-21228574D01*
X8591917Y-21214289D01*
X8606203Y-21200003D01*
X8606203Y-21228574D01*
X8734774Y-20957146D02*
X8749060Y-20942860D01*
X8777631Y-20928574D01*
X8849060Y-20928574D01*
X8877631Y-20942860D01*
X8891917Y-20957146D01*
X8906203Y-20985717D01*
X8906203Y-21014289D01*
X8891917Y-21057146D01*
X8720488Y-21228574D01*
X8906203Y-21228574D01*
X9091917Y-20928574D02*
X9120488Y-20928574D01*
X9149060Y-20942860D01*
X9163346Y-20957146D01*
X9177631Y-20985717D01*
X9191917Y-21042860D01*
X9191917Y-21114289D01*
X9177631Y-21171432D01*
X9163346Y-21200003D01*
X9149060Y-21214289D01*
X9120488Y-21228574D01*
X9091917Y-21228574D01*
X9063346Y-21214289D01*
X9049060Y-21200003D01*
X9034774Y-21171432D01*
X9020488Y-21114289D01*
X9020488Y-21042860D01*
X9034774Y-20985717D01*
X9049060Y-20957146D01*
X9063346Y-20942860D01*
X9091917Y-20928574D01*
X9320488Y-21228574D02*
X9320488Y-21028574D01*
X9320488Y-21057146D02*
X9334774Y-21042860D01*
X9363346Y-21028574D01*
X9406203Y-21028574D01*
X9434774Y-21042860D01*
X9449060Y-21071432D01*
X9449060Y-21228574D01*
X9449060Y-21071432D02*
X9463346Y-21042860D01*
X9491917Y-21028574D01*
X9534774Y-21028574D01*
X9563346Y-21042860D01*
X9577631Y-21071432D01*
X9577631Y-21228574D01*
X9720488Y-21228574D02*
X9720488Y-21028574D01*
X9720488Y-21057146D02*
X9734774Y-21042860D01*
X9763346Y-21028574D01*
X9806203Y-21028574D01*
X9834774Y-21042860D01*
X9849060Y-21071432D01*
X9849060Y-21228574D01*
X9849060Y-21071432D02*
X9863346Y-21042860D01*
X9891917Y-21028574D01*
X9934774Y-21028574D01*
X9963346Y-21042860D01*
X9977631Y-21071432D01*
X9977631Y-21228574D01*
X10563346Y-20914289D02*
X10306203Y-21300003D01*
X10949060Y-20928574D02*
X10977631Y-20928574D01*
X11006203Y-20942860D01*
X11020488Y-20957146D01*
X11034774Y-20985717D01*
X11049060Y-21042860D01*
X11049060Y-21114289D01*
X11034774Y-21171432D01*
X11020488Y-21200003D01*
X11006203Y-21214289D01*
X10977631Y-21228574D01*
X10949060Y-21228574D01*
X10920488Y-21214289D01*
X10906203Y-21200003D01*
X10891917Y-21171432D01*
X10877631Y-21114289D01*
X10877631Y-21042860D01*
X10891917Y-20985717D01*
X10906203Y-20957146D01*
X10920488Y-20942860D01*
X10949060Y-20928574D01*
X11177631Y-21200003D02*
X11191917Y-21214289D01*
X11177631Y-21228574D01*
X11163346Y-21214289D01*
X11177631Y-21200003D01*
X11177631Y-21228574D01*
X11377631Y-20928574D02*
X11406203Y-20928574D01*
X11434774Y-20942860D01*
X11449060Y-20957146D01*
X11463346Y-20985717D01*
X11477631Y-21042860D01*
X11477631Y-21114289D01*
X11463346Y-21171432D01*
X11449060Y-21200003D01*
X11434774Y-21214289D01*
X11406203Y-21228574D01*
X11377631Y-21228574D01*
X11349060Y-21214289D01*
X11334774Y-21200003D01*
X11320488Y-21171432D01*
X11306203Y-21114289D01*
X11306203Y-21042860D01*
X11320488Y-20985717D01*
X11334774Y-20957146D01*
X11349060Y-20942860D01*
X11377631Y-20928574D01*
X11734774Y-21028574D02*
X11734774Y-21228574D01*
X11663346Y-20914289D02*
X11591917Y-21128574D01*
X11777631Y-21128574D01*
X11863346Y-20928574D02*
X12063346Y-20928574D01*
X11934774Y-21228574D01*
X12163346Y-20928574D02*
X12163346Y-20985717D01*
X12277631Y-20928574D02*
X12277631Y-20985717D01*
X12720488Y-21342860D02*
X12706203Y-21328574D01*
X12677631Y-21285717D01*
X12663346Y-21257146D01*
X12649060Y-21214289D01*
X12634774Y-21142860D01*
X12634774Y-21085717D01*
X12649060Y-21014289D01*
X12663346Y-20971432D01*
X12677631Y-20942860D01*
X12706203Y-20900003D01*
X12720488Y-20885717D01*
X12820488Y-20957146D02*
X12834774Y-20942860D01*
X12863346Y-20928574D01*
X12934774Y-20928574D01*
X12963346Y-20942860D01*
X12977631Y-20957146D01*
X12991917Y-20985717D01*
X12991917Y-21014289D01*
X12977631Y-21057146D01*
X12806203Y-21228574D01*
X12991917Y-21228574D01*
X13349060Y-21228574D02*
X13349060Y-20928574D01*
X13477631Y-21228574D02*
X13477631Y-21071432D01*
X13463346Y-21042860D01*
X13434774Y-21028574D01*
X13391917Y-21028574D01*
X13363346Y-21042860D01*
X13349060Y-21057146D01*
X13663346Y-21228574D02*
X13634774Y-21214289D01*
X13620488Y-21200003D01*
X13606203Y-21171432D01*
X13606203Y-21085717D01*
X13620488Y-21057146D01*
X13634774Y-21042860D01*
X13663346Y-21028574D01*
X13706203Y-21028574D01*
X13734774Y-21042860D01*
X13749060Y-21057146D01*
X13763346Y-21085717D01*
X13763346Y-21171432D01*
X13749060Y-21200003D01*
X13734774Y-21214289D01*
X13706203Y-21228574D01*
X13663346Y-21228574D01*
X13934774Y-21228574D02*
X13906203Y-21214289D01*
X13891917Y-21185717D01*
X13891917Y-20928574D01*
X14163346Y-21214289D02*
X14134774Y-21228574D01*
X14077631Y-21228574D01*
X14049060Y-21214289D01*
X14034774Y-21185717D01*
X14034774Y-21071432D01*
X14049060Y-21042860D01*
X14077631Y-21028574D01*
X14134774Y-21028574D01*
X14163346Y-21042860D01*
X14177631Y-21071432D01*
X14177631Y-21100003D01*
X14034774Y-21128574D01*
X14291917Y-21214289D02*
X14320488Y-21228574D01*
X14377631Y-21228574D01*
X14406203Y-21214289D01*
X14420488Y-21185717D01*
X14420488Y-21171432D01*
X14406203Y-21142860D01*
X14377631Y-21128574D01*
X14334774Y-21128574D01*
X14306203Y-21114289D01*
X14291917Y-21085717D01*
X14291917Y-21071432D01*
X14306203Y-21042860D01*
X14334774Y-21028574D01*
X14377631Y-21028574D01*
X14406203Y-21042860D01*
X14520488Y-21342860D02*
X14534774Y-21328574D01*
X14563346Y-21285717D01*
X14577631Y-21257146D01*
X14591917Y-21214289D01*
X14606203Y-21142860D01*
X14606203Y-21085717D01*
X14591917Y-21014289D01*
X14577631Y-20971432D01*
X14563346Y-20942860D01*
X14534774Y-20900003D01*
X14520488Y-20885717D01*
X7894060Y-21418860D02*
X8034060Y-21558860D01*
X8034060Y-21418860D02*
X7894060Y-21558860D01*
X7964060Y-21558860D02*
X8034060Y-21488860D01*
X7964060Y-21418860D01*
X7894060Y-21488860D01*
X7964060Y-21558860D01*
X8477631Y-21624574D02*
X8306203Y-21624574D01*
X8391917Y-21624574D02*
X8391917Y-21324574D01*
X8363346Y-21367432D01*
X8334774Y-21396003D01*
X8306203Y-21410289D01*
X8606203Y-21596003D02*
X8620488Y-21610289D01*
X8606203Y-21624574D01*
X8591917Y-21610289D01*
X8606203Y-21596003D01*
X8606203Y-21624574D01*
X8877631Y-21424574D02*
X8877631Y-21624574D01*
X8806203Y-21310289D02*
X8734774Y-21524574D01*
X8920488Y-21524574D01*
X9091917Y-21324574D02*
X9120488Y-21324574D01*
X9149060Y-21338860D01*
X9163346Y-21353146D01*
X9177631Y-21381717D01*
X9191917Y-21438860D01*
X9191917Y-21510289D01*
X9177631Y-21567432D01*
X9163346Y-21596003D01*
X9149060Y-21610289D01*
X9120488Y-21624574D01*
X9091917Y-21624574D01*
X9063346Y-21610289D01*
X9049060Y-21596003D01*
X9034774Y-21567432D01*
X9020488Y-21510289D01*
X9020488Y-21438860D01*
X9034774Y-21381717D01*
X9049060Y-21353146D01*
X9063346Y-21338860D01*
X9091917Y-21324574D01*
X9320488Y-21624574D02*
X9320488Y-21424574D01*
X9320488Y-21453146D02*
X9334774Y-21438860D01*
X9363346Y-21424574D01*
X9406203Y-21424574D01*
X9434774Y-21438860D01*
X9449060Y-21467432D01*
X9449060Y-21624574D01*
X9449060Y-21467432D02*
X9463346Y-21438860D01*
X9491917Y-21424574D01*
X9534774Y-21424574D01*
X9563346Y-21438860D01*
X9577631Y-21467432D01*
X9577631Y-21624574D01*
X9720488Y-21624574D02*
X9720488Y-21424574D01*
X9720488Y-21453146D02*
X9734774Y-21438860D01*
X9763346Y-21424574D01*
X9806203Y-21424574D01*
X9834774Y-21438860D01*
X9849060Y-21467432D01*
X9849060Y-21624574D01*
X9849060Y-21467432D02*
X9863346Y-21438860D01*
X9891917Y-21424574D01*
X9934774Y-21424574D01*
X9963346Y-21438860D01*
X9977631Y-21467432D01*
X9977631Y-21624574D01*
X10563346Y-21310289D02*
X10306203Y-21696003D01*
X10949060Y-21324574D02*
X10977631Y-21324574D01*
X11006203Y-21338860D01*
X11020488Y-21353146D01*
X11034774Y-21381717D01*
X11049060Y-21438860D01*
X11049060Y-21510289D01*
X11034774Y-21567432D01*
X11020488Y-21596003D01*
X11006203Y-21610289D01*
X10977631Y-21624574D01*
X10949060Y-21624574D01*
X10920488Y-21610289D01*
X10906203Y-21596003D01*
X10891917Y-21567432D01*
X10877631Y-21510289D01*
X10877631Y-21438860D01*
X10891917Y-21381717D01*
X10906203Y-21353146D01*
X10920488Y-21338860D01*
X10949060Y-21324574D01*
X11177631Y-21596003D02*
X11191917Y-21610289D01*
X11177631Y-21624574D01*
X11163346Y-21610289D01*
X11177631Y-21596003D01*
X11177631Y-21624574D01*
X11377631Y-21324574D02*
X11406203Y-21324574D01*
X11434774Y-21338860D01*
X11449060Y-21353146D01*
X11463346Y-21381717D01*
X11477631Y-21438860D01*
X11477631Y-21510289D01*
X11463346Y-21567432D01*
X11449060Y-21596003D01*
X11434774Y-21610289D01*
X11406203Y-21624574D01*
X11377631Y-21624574D01*
X11349060Y-21610289D01*
X11334774Y-21596003D01*
X11320488Y-21567432D01*
X11306203Y-21510289D01*
X11306203Y-21438860D01*
X11320488Y-21381717D01*
X11334774Y-21353146D01*
X11349060Y-21338860D01*
X11377631Y-21324574D01*
X11749060Y-21324574D02*
X11606203Y-21324574D01*
X11591917Y-21467432D01*
X11606203Y-21453146D01*
X11634774Y-21438860D01*
X11706203Y-21438860D01*
X11734774Y-21453146D01*
X11749060Y-21467432D01*
X11763346Y-21496003D01*
X11763346Y-21567432D01*
X11749060Y-21596003D01*
X11734774Y-21610289D01*
X11706203Y-21624574D01*
X11634774Y-21624574D01*
X11606203Y-21610289D01*
X11591917Y-21596003D01*
X12034774Y-21324574D02*
X11891917Y-21324574D01*
X11877631Y-21467432D01*
X11891917Y-21453146D01*
X11920488Y-21438860D01*
X11991917Y-21438860D01*
X12020488Y-21453146D01*
X12034774Y-21467432D01*
X12049060Y-21496003D01*
X12049060Y-21567432D01*
X12034774Y-21596003D01*
X12020488Y-21610289D01*
X11991917Y-21624574D01*
X11920488Y-21624574D01*
X11891917Y-21610289D01*
X11877631Y-21596003D01*
X12163346Y-21324574D02*
X12163346Y-21381717D01*
X12277631Y-21324574D02*
X12277631Y-21381717D01*
X12720488Y-21738860D02*
X12706203Y-21724574D01*
X12677631Y-21681717D01*
X12663346Y-21653146D01*
X12649060Y-21610289D01*
X12634774Y-21538860D01*
X12634774Y-21481717D01*
X12649060Y-21410289D01*
X12663346Y-21367432D01*
X12677631Y-21338860D01*
X12706203Y-21296003D01*
X12720488Y-21281717D01*
X12820488Y-21353146D02*
X12834774Y-21338860D01*
X12863346Y-21324574D01*
X12934774Y-21324574D01*
X12963346Y-21338860D01*
X12977631Y-21353146D01*
X12991917Y-21381717D01*
X12991917Y-21410289D01*
X12977631Y-21453146D01*
X12806203Y-21624574D01*
X12991917Y-21624574D01*
X13349060Y-21624574D02*
X13349060Y-21324574D01*
X13477631Y-21624574D02*
X13477631Y-21467432D01*
X13463346Y-21438860D01*
X13434774Y-21424574D01*
X13391917Y-21424574D01*
X13363346Y-21438860D01*
X13349060Y-21453146D01*
X13663346Y-21624574D02*
X13634774Y-21610289D01*
X13620488Y-21596003D01*
X13606203Y-21567432D01*
X13606203Y-21481717D01*
X13620488Y-21453146D01*
X13634774Y-21438860D01*
X13663346Y-21424574D01*
X13706203Y-21424574D01*
X13734774Y-21438860D01*
X13749060Y-21453146D01*
X13763346Y-21481717D01*
X13763346Y-21567432D01*
X13749060Y-21596003D01*
X13734774Y-21610289D01*
X13706203Y-21624574D01*
X13663346Y-21624574D01*
X13934774Y-21624574D02*
X13906203Y-21610289D01*
X13891917Y-21581717D01*
X13891917Y-21324574D01*
X14163346Y-21610289D02*
X14134774Y-21624574D01*
X14077631Y-21624574D01*
X14049060Y-21610289D01*
X14034774Y-21581717D01*
X14034774Y-21467432D01*
X14049060Y-21438860D01*
X14077631Y-21424574D01*
X14134774Y-21424574D01*
X14163346Y-21438860D01*
X14177631Y-21467432D01*
X14177631Y-21496003D01*
X14034774Y-21524574D01*
X14291917Y-21610289D02*
X14320488Y-21624574D01*
X14377631Y-21624574D01*
X14406203Y-21610289D01*
X14420488Y-21581717D01*
X14420488Y-21567432D01*
X14406203Y-21538860D01*
X14377631Y-21524574D01*
X14334774Y-21524574D01*
X14306203Y-21510289D01*
X14291917Y-21481717D01*
X14291917Y-21467432D01*
X14306203Y-21438860D01*
X14334774Y-21424574D01*
X14377631Y-21424574D01*
X14406203Y-21438860D01*
X14520488Y-21738860D02*
X14534774Y-21724574D01*
X14563346Y-21681717D01*
X14577631Y-21653146D01*
X14591917Y-21610289D01*
X14606203Y-21538860D01*
X14606203Y-21481717D01*
X14591917Y-21410289D01*
X14577631Y-21367432D01*
X14563346Y-21338860D01*
X14534774Y-21296003D01*
X14520488Y-21281717D01*
M02*
