EESchema Schematic File Version 4
EELAYER 30 0
EELAYER END
$Descr USLegal 14000 8500
encoding utf-8
Sheet 1 4
Title "CentineLoRa"
Date "2020-11-29"
Rev "0.2"
Comp "Universidad Sergio Arboleda"
Comment1 ""
Comment2 "Juan Mariño"
Comment3 "Camilo Bonett"
Comment4 ""
$EndDescr
$Sheet
S 1285 5570 2170 2135
U 5FA2F28A
F0 "IoT_Sensors" 118
F1 "IoT_Sensors.sch" 118
F2 "~RESET" B L 1285 5715 79 
F3 "VIO_RTC" B L 1285 5875 79 
F4 "1PPS" B L 1285 6030 79 
F5 "DR_I2C_CLK" B L 1285 6185 79 
F6 "DR_I2C_DIO" B L 1285 6370 79 
F7 "ON_OFF" B L 1285 6545 79 
F8 "CFG0_SCK" B L 1285 6720 79 
F9 "CFG1_SCS" B L 1285 6890 79 
F10 "RxD_MOSI_SDA" B L 1285 7075 79 
F11 "TxD_MISO_SCL" B L 1285 7270 79 
F12 "MISO" B R 3455 5725 79 
F13 "MOSI" B R 3455 5880 79 
F14 "SCK" B R 3455 6030 79 
F15 "SS" B R 3455 6185 79 
F16 "EITO" B R 3455 6350 79 
$EndSheet
$Comp
L power:GND #PWR?
U 1 1 5FA9EB8A
P 965 1645
AR Path="/5F91AA4A/5FA9EB8A" Ref="#PWR?"  Part="1" 
AR Path="/5FA9EB8A" Ref="#PWR0101"  Part="1" 
AR Path="/5FA2F1CB/5FA9EB8A" Ref="#PWR?"  Part="1" 
F 0 "#PWR0101" H 965 1395 50  0001 C CNN
F 1 "GND" H 970 1472 50  0000 C CNN
F 2 "" H 965 1645 50  0001 C CNN
F 3 "" H 965 1645 50  0001 C CNN
	1    965  1645
	1    0    0    -1  
$EndComp
$Comp
L Connector:USB_B_Micro J?
U 1 1 5FA9EB90
P 965 1145
AR Path="/5F91AA4A/5FA9EB90" Ref="J?"  Part="1" 
AR Path="/5FA9EB90" Ref="J1"  Part="1" 
AR Path="/5FA2F1CB/5FA9EB90" Ref="J?"  Part="1" 
F 0 "J1" H 725 1520 50  0000 C CNN
F 1 "USB_B_Micro" H 1022 1521 50  0000 C CNN
F 2 "Connector_USB:USB_Micro-B_Wuerth_629105150521_CircularHoles" H 1115 1095 50  0001 C CNN
F 3 "~" H 1115 1095 50  0001 C CNN
	1    965  1145
	1    0    0    -1  
$EndComp
Wire Wire Line
	965  1545 965  1595
Wire Wire Line
	865  1545 865  1595
Wire Wire Line
	865  1595 965  1595
Wire Wire Line
	965  1645 965  1595
Connection ~ 965  1595
$Comp
L Device:Polyfuse_Small F1
U 1 1 5FC65422
P 1545 945
F 0 "F1" V 1450 945 50  0000 C CNN
F 1 "1206L150TH 8V 1.5A Polyfuse" V 1250 665 50  0000 C CNN
F 2 "Fuse:Fuse_1206_3216Metric_Pad1.42x1.75mm_HandSolder" H 1595 745 50  0001 L CNN
F 3 "~" H 1545 945 50  0001 C CNN
	1    1545 945 
	0    1    1    0   
$EndComp
$Comp
L Device:C_Small C19
U 1 1 5FC7AD1B
P 2640 1185
F 0 "C19" H 2732 1231 50  0000 L CNN
F 1 "10uF" H 2732 1140 50  0000 L CNN
F 2 "Capacitor_SMD:C_Elec_3x5.4" H 2640 1185 50  0001 C CNN
F 3 "~" H 2640 1185 50  0001 C CNN
	1    2640 1185
	1    0    0    -1  
$EndComp
$Comp
L Device:C_Small C20
U 1 1 5FC80F2F
P 3025 1180
F 0 "C20" H 3117 1226 50  0000 L CNN
F 1 "0.1uF" H 3117 1135 50  0000 L CNN
F 2 "Capacitor_SMD:C_1206_3216Metric_Pad1.42x1.75mm_HandSolder" H 3025 1180 50  0001 C CNN
F 3 "~" H 3025 1180 50  0001 C CNN
	1    3025 1180
	1    0    0    -1  
$EndComp
$Comp
L Device:C_Small C18
U 1 1 5FC814E1
P 2270 1190
F 0 "C18" H 2362 1236 50  0000 L CNN
F 1 "0.1uF" H 2362 1145 50  0000 L CNN
F 2 "Capacitor_SMD:C_1206_3216Metric_Pad1.42x1.75mm_HandSolder" H 2270 1190 50  0001 C CNN
F 3 "~" H 2270 1190 50  0001 C CNN
	1    2270 1190
	1    0    0    -1  
$EndComp
Wire Wire Line
	2270 945  2270 1090
Wire Wire Line
	2270 945  2640 945 
Wire Wire Line
	2640 945  2640 1085
Connection ~ 2270 945 
Connection ~ 2640 945 
$Comp
L power:GND #PWR?
U 1 1 5FC88A60
P 2640 1420
AR Path="/5F91AA4A/5FC88A60" Ref="#PWR?"  Part="1" 
AR Path="/5FC88A60" Ref="#PWR0104"  Part="1" 
AR Path="/5FA2F1CB/5FC88A60" Ref="#PWR?"  Part="1" 
F 0 "#PWR0104" H 2640 1170 50  0001 C CNN
F 1 "GND" H 2645 1247 50  0000 C CNN
F 2 "" H 2640 1420 50  0001 C CNN
F 3 "" H 2640 1420 50  0001 C CNN
	1    2640 1420
	1    0    0    -1  
$EndComp
Wire Wire Line
	2270 1290 2270 1395
$Comp
L Interface_USB:FT232RL U6
U 1 1 5FC8B26A
P 1820 3800
F 0 "U6" H 1440 4830 50  0000 C CNN
F 1 "FT232RL" H 1425 4725 50  0000 C CNN
F 2 "Package_SO:SSOP-28_5.3x10.2mm_P0.65mm" H 2920 2900 50  0001 C CNN
F 3 "https://www.ftdichip.com/Support/Documents/DataSheets/ICs/DS_FT232R.pdf" H 1820 3800 50  0001 C CNN
	1    1820 3800
	1    0    0    -1  
$EndComp
Wire Wire Line
	2640 945  3025 945 
Wire Wire Line
	3025 1280 3025 1395
Wire Wire Line
	2270 1395 2640 1395
Wire Wire Line
	2640 1285 2640 1395
Connection ~ 2640 1395
Wire Wire Line
	2640 1395 3025 1395
Wire Wire Line
	2640 1395 2640 1420
$Comp
L power:+5V #PWR0110
U 1 1 5FCB04F3
P 1930 865
F 0 "#PWR0110" H 1930 715 50  0001 C CNN
F 1 "+5V" H 1945 1038 50  0000 C CNN
F 2 "" H 1930 865 50  0001 C CNN
F 3 "" H 1930 865 50  0001 C CNN
	1    1930 865 
	1    0    0    -1  
$EndComp
Wire Wire Line
	1265 945  1445 945 
$Comp
L power:+5V #PWR0115
U 1 1 5FCB9EAF
P 1920 2685
F 0 "#PWR0115" H 1920 2535 50  0001 C CNN
F 1 "+5V" H 1935 2858 50  0000 C CNN
F 2 "" H 1920 2685 50  0001 C CNN
F 3 "" H 1920 2685 50  0001 C CNN
	1    1920 2685
	1    0    0    -1  
$EndComp
Wire Wire Line
	1920 2685 1920 2800
Text GLabel 1405 1145 2    50   BiDi ~ 0
USB_D+
Text GLabel 1405 1245 2    50   BiDi ~ 0
USB_D-
NoConn ~ 1265 1345
Wire Wire Line
	1265 1145 1405 1145
Wire Wire Line
	1265 1245 1405 1245
Text GLabel 935  3500 0    50   BiDi ~ 0
USB_D-
Text GLabel 935  3400 0    50   BiDi ~ 0
USB_D+
Wire Wire Line
	935  3400 1020 3400
Wire Wire Line
	935  3500 1020 3500
Wire Wire Line
	12840 1665 12960 1665
Wire Wire Line
	12810 2265 12960 2265
Wire Wire Line
	12875 2365 12960 2365
$Comp
L Connector:TestPoint TP1
U 1 1 5FD4FD65
P 12400 1520
F 0 "TP1" H 12458 1617 24  0000 L CNN
F 1 "TestPoint" H 12458 1567 24  0000 L CNN
F 2 "TestPoint:TestPoint_Pad_D1.0mm" H 12600 1520 50  0001 C CNN
F 3 "~" H 12600 1520 50  0001 C CNN
	1    12400 1520
	1    0    0    -1  
$EndComp
$Comp
L Connector:TestPoint TP2
U 1 1 5FD50522
P 12470 1720
F 0 "TP2" H 12528 1817 24  0000 L CNN
F 1 "TestPoint" H 12528 1767 24  0000 L CNN
F 2 "TestPoint:TestPoint_Pad_D1.0mm" H 12670 1720 50  0001 C CNN
F 3 "~" H 12670 1720 50  0001 C CNN
	1    12470 1720
	1    0    0    -1  
$EndComp
Wire Wire Line
	12745 1765 12745 1720
Wire Wire Line
	12745 1720 12470 1720
Wire Wire Line
	12745 1765 12960 1765
Connection ~ 12470 1720
Wire Wire Line
	12470 1720 12325 1720
$Comp
L Connector:TestPoint TP3
U 1 1 5FD5B56D
P 12425 1930
F 0 "TP3" H 12483 2027 24  0000 L CNN
F 1 "TestPoint" H 12483 1977 24  0000 L CNN
F 2 "TestPoint:TestPoint_Pad_D1.0mm" H 12625 1930 50  0001 C CNN
F 3 "~" H 12625 1930 50  0001 C CNN
	1    12425 1930
	1    0    0    -1  
$EndComp
Wire Wire Line
	12325 1930 12425 1930
Wire Wire Line
	12425 1930 12695 1930
Wire Wire Line
	12695 1930 12695 1865
Wire Wire Line
	12695 1865 12960 1865
Connection ~ 12425 1930
$Comp
L Connector:TestPoint TP4
U 1 1 5FD5D4E1
P 12395 2150
F 0 "TP4" H 12453 2247 24  0000 L CNN
F 1 "TestPoint" H 12453 2197 24  0000 L CNN
F 2 "TestPoint:TestPoint_Pad_D1.0mm" H 12595 2150 50  0001 C CNN
F 3 "~" H 12595 2150 50  0001 C CNN
	1    12395 2150
	1    0    0    -1  
$EndComp
Wire Wire Line
	12325 2150 12395 2150
Wire Wire Line
	12640 2150 12640 1965
Wire Wire Line
	12640 1965 12960 1965
Connection ~ 12395 2150
Wire Wire Line
	12395 2150 12640 2150
$Comp
L Connector:TestPoint TP5
U 1 1 5FD6240B
P 12385 2360
F 0 "TP5" H 12443 2457 24  0000 L CNN
F 1 "TestPoint" H 12443 2407 24  0000 L CNN
F 2 "TestPoint:TestPoint_Pad_D1.0mm" H 12585 2360 50  0001 C CNN
F 3 "~" H 12585 2360 50  0001 C CNN
	1    12385 2360
	1    0    0    -1  
$EndComp
Wire Wire Line
	12325 2360 12385 2360
Wire Wire Line
	12680 2360 12680 2065
Wire Wire Line
	12680 2065 12960 2065
Connection ~ 12385 2360
Wire Wire Line
	12385 2360 12680 2360
$Comp
L Connector:TestPoint TP6
U 1 1 5FD63B65
P 12405 2580
F 0 "TP6" H 12463 2677 24  0000 L CNN
F 1 "TestPoint" H 12463 2627 24  0000 L CNN
F 2 "TestPoint:TestPoint_Pad_D1.0mm" H 12605 2580 50  0001 C CNN
F 3 "~" H 12605 2580 50  0001 C CNN
	1    12405 2580
	1    0    0    -1  
$EndComp
Wire Wire Line
	12325 2580 12405 2580
Wire Wire Line
	12720 2580 12720 2165
Wire Wire Line
	12720 2165 12960 2165
Connection ~ 12405 2580
Wire Wire Line
	12405 2580 12720 2580
$Comp
L Connector:TestPoint TP7
U 1 1 5FD6603F
P 12395 2810
F 0 "TP7" H 12453 2907 24  0000 L CNN
F 1 "TestPoint" H 12453 2857 24  0000 L CNN
F 2 "TestPoint:TestPoint_Pad_D1.0mm" H 12595 2810 50  0001 C CNN
F 3 "~" H 12595 2810 50  0001 C CNN
	1    12395 2810
	1    0    0    -1  
$EndComp
Wire Wire Line
	12325 2810 12395 2810
Wire Wire Line
	12810 2810 12810 2265
Connection ~ 12395 2810
Wire Wire Line
	12395 2810 12810 2810
$Comp
L Connector:TestPoint TP8
U 1 1 5FD683BF
P 12395 3060
F 0 "TP8" H 12453 3157 24  0000 L CNN
F 1 "TestPoint" H 12453 3107 24  0000 L CNN
F 2 "TestPoint:TestPoint_Pad_D1.0mm" H 12595 3060 50  0001 C CNN
F 3 "~" H 12595 3060 50  0001 C CNN
	1    12395 3060
	1    0    0    -1  
$EndComp
Wire Wire Line
	12325 3060 12395 3060
Wire Wire Line
	12875 3060 12875 2365
Connection ~ 12395 3060
Wire Wire Line
	12395 3060 12875 3060
$Comp
L Connector:Conn_01x13_Male J5
U 1 1 5FDD674F
P 8620 2420
F 0 "J5" H 8670 3245 50  0000 C CNN
F 1 "Conn_01x13_Male" H 8675 3155 50  0000 C CNN
F 2 "Connector_PinHeader_2.54mm:PinHeader_1x13_P2.54mm_Vertical" H 8620 2420 50  0001 C CNN
F 3 "~" H 8620 2420 50  0001 C CNN
	1    8620 2420
	1    0    0    -1  
$EndComp
Text GLabel 2735 3100 2    50   BiDi ~ 0
TxD
Text GLabel 2735 3200 2    50   BiDi ~ 0
RxD
Wire Wire Line
	2735 3100 2620 3100
Wire Wire Line
	2735 3200 2620 3200
Text GLabel 12495 3330 2    50   BiDi ~ 0
TxD
Text GLabel 12495 3200 2    50   BiDi ~ 0
RxD
Wire Wire Line
	8860 3020 8820 3020
Wire Wire Line
	8860 3420 8860 3020
Wire Wire Line
	8915 2920 8820 2920
Wire Wire Line
	8915 3280 8915 2920
Wire Wire Line
	8965 2820 8820 2820
Wire Wire Line
	8965 3135 8965 2820
Wire Wire Line
	9010 2720 8820 2720
Wire Wire Line
	9010 2985 9010 2720
Wire Wire Line
	9125 2375 9125 2320
Wire Wire Line
	9125 2070 9125 2120
Wire Wire Line
	9230 2070 9125 2070
Wire Wire Line
	9230 2375 9125 2375
Wire Wire Line
	9230 3420 8860 3420
Wire Wire Line
	9230 3280 8915 3280
Wire Wire Line
	9230 3135 8965 3135
Wire Wire Line
	9230 2985 9010 2985
Wire Wire Line
	9050 2835 9050 2620
Wire Wire Line
	9230 2835 9050 2835
Wire Wire Line
	9085 2520 8890 2520
Wire Wire Line
	9085 2680 9085 2520
Wire Wire Line
	9230 2680 9085 2680
Wire Wire Line
	9110 2420 8820 2420
Wire Wire Line
	9110 2530 9110 2420
Wire Wire Line
	9230 2530 9110 2530
Wire Wire Line
	9125 2320 8885 2320
Wire Wire Line
	9110 2020 8820 2020
Wire Wire Line
	9110 1920 9110 2020
Wire Wire Line
	9230 1920 9110 1920
Wire Wire Line
	9090 1920 8820 1920
Wire Wire Line
	9090 1780 9090 1920
Wire Wire Line
	9230 1780 9090 1780
Wire Wire Line
	9070 1820 8820 1820
Wire Wire Line
	9070 1635 9070 1820
Wire Wire Line
	9230 1635 9070 1635
$Comp
L Connector:Conn_01x08_Male J6
U 1 1 5FD34CF6
P 13160 2065
F 0 "J6" H 13370 1345 50  0000 R CNN
F 1 "Conn_01x08_Male" H 13670 1420 50  0000 R CNN
F 2 "Connector_PinHeader_1.27mm:PinHeader_1x08_P1.27mm_Vertical" H 13160 2065 50  0001 C CNN
F 3 "~" H 13160 2065 50  0001 C CNN
	1    13160 2065
	-1   0    0    1   
$EndComp
Wire Wire Line
	12840 1520 12840 1665
Wire Wire Line
	12400 1520 12840 1520
Wire Wire Line
	12400 1520 12365 1520
Wire Wire Line
	12365 1520 12365 1525
Wire Wire Line
	12365 1525 12325 1525
Connection ~ 12400 1520
Wire Wire Line
	12495 3200 12325 3200
Wire Wire Line
	12495 3330 12325 3330
Text GLabel 9075 4870 0    50   BiDi ~ 0
MISO_MTX
Text GLabel 9075 4690 0    50   BiDi ~ 0
MOSI_MTX
Text GLabel 9075 3625 0    50   BiDi ~ 0
SCK
Wire Wire Line
	12325 3460 12490 3460
Wire Wire Line
	12325 3590 12490 3590
Text GLabel 12490 3850 2    50   BiDi ~ 0
UART_RTS
Text GLabel 12490 3720 2    50   BiDi ~ 0
UART_CTS
Wire Wire Line
	12490 3720 12325 3720
Wire Wire Line
	12490 3850 12325 3850
$Comp
L power:+3.3V #PWR0119
U 1 1 5FEB4D72
P 6075 775
F 0 "#PWR0119" H 6075 625 50  0001 C CNN
F 1 "+3.3V" H 6090 948 50  0000 C CNN
F 2 "" H 6075 775 50  0001 C CNN
F 3 "" H 6075 775 50  0001 C CNN
	1    6075 775 
	1    0    0    -1  
$EndComp
$Comp
L power:+3.3V #PWR0120
U 1 1 5FEB515C
P 9030 1355
F 0 "#PWR0120" H 9030 1205 50  0001 C CNN
F 1 "+3.3V" H 9045 1528 50  0000 C CNN
F 2 "" H 9030 1355 50  0001 C CNN
F 3 "" H 9030 1355 50  0001 C CNN
	1    9030 1355
	1    0    0    -1  
$EndComp
Wire Wire Line
	9030 1355 9030 1470
Wire Wire Line
	9030 1470 9230 1470
Wire Wire Line
	6075 775  6075 890 
Wire Wire Line
	6075 890  5910 890 
Wire Wire Line
	9075 4870 9230 4870
Wire Wire Line
	9075 4690 9230 4690
Wire Wire Line
	9075 3625 9230 3625
Text GLabel 12495 3980 2    50   BiDi ~ 0
RESET
Wire Wire Line
	12495 3980 12325 3980
Text GLabel 9075 4210 0    50   BiDi ~ 0
SWDIO
Text GLabel 9075 4340 0    50   BiDi ~ 0
SWCLK
Wire Wire Line
	9075 4210 9230 4210
Wire Wire Line
	9075 4340 9230 4340
Wire Wire Line
	1620 4800 1620 4855
Wire Wire Line
	1620 4855 1820 4855
Wire Wire Line
	2020 4855 2020 4800
Wire Wire Line
	1920 4800 1920 4855
Connection ~ 1920 4855
Wire Wire Line
	1920 4855 2020 4855
Wire Wire Line
	1820 4800 1820 4855
Connection ~ 1820 4855
Wire Wire Line
	1820 4855 1920 4855
$Comp
L power:GND #PWR0123
U 1 1 5FF73BDD
P 1820 4935
F 0 "#PWR0123" H 1820 4685 50  0001 C CNN
F 1 "GND" H 1825 4762 50  0000 C CNN
F 2 "" H 1820 4935 50  0001 C CNN
F 3 "" H 1820 4935 50  0001 C CNN
	1    1820 4935
	1    0    0    -1  
$EndComp
Wire Wire Line
	1820 4855 1820 4935
Text GLabel 12495 4255 2    50   BiDi ~ 0
~RESET
Wire Wire Line
	12495 4255 12325 4255
Text GLabel 2740 3300 2    50   BiDi ~ 0
UART_RTS
Text GLabel 2740 3400 2    50   BiDi ~ 0
UART_CTS
Text GLabel 2740 3500 2    50   BiDi ~ 0
DTR
Text GLabel 2740 3600 2    50   BiDi ~ 0
DCR
Text GLabel 2745 3700 2    50   BiDi ~ 0
DCD
Text GLabel 2745 3800 2    50   BiDi ~ 0
RI
Text GLabel 930  3800 0    50   BiDi ~ 0
~RESET
Wire Wire Line
	1020 3800 930  3800
Text GLabel 6045 1380 2    50   BiDi ~ 0
IO_35
Wire Wire Line
	5910 1130 6045 1130
Wire Wire Line
	6045 1380 5910 1380
Text GLabel 3530 1680 0    50   BiDi ~ 0
ON_LEC
Wire Wire Line
	3530 1680 3645 1680
Wire Wire Line
	2620 3300 2740 3300
Wire Wire Line
	2620 3400 2740 3400
Wire Wire Line
	2620 3500 2740 3500
Wire Wire Line
	2620 3600 2740 3600
Wire Wire Line
	2620 3700 2745 3700
Wire Wire Line
	2620 3800 2745 3800
Wire Wire Line
	1020 4000 930  4000
Wire Wire Line
	1020 4200 930  4200
Wire Wire Line
	1020 4500 930  4500
Text GLabel 2745 4100 2    50   BiDi ~ 0
CBUS0
Text GLabel 2745 4200 2    50   BiDi ~ 0
CBUS1
Text GLabel 2745 4300 2    50   BiDi ~ 0
CBUS2
Text GLabel 2745 4400 2    50   BiDi ~ 0
CBUS3
Text GLabel 2745 4500 2    50   BiDi ~ 0
CBUS4
Wire Wire Line
	2620 4100 2745 4100
Wire Wire Line
	2620 4200 2745 4200
Wire Wire Line
	2620 4300 2745 4300
Wire Wire Line
	2620 4400 2745 4400
Wire Wire Line
	2620 4500 2745 4500
Text GLabel 1155 5715 0    50   BiDi ~ 0
~RESET
Wire Wire Line
	1155 5715 1285 5715
Wire Wire Line
	12495 4110 12325 4110
Text GLabel 12495 4110 2    50   BiDi ~ 0
IO_19
Text GLabel 12495 4395 2    50   BiDi ~ 0
SS
Wire Wire Line
	12495 4395 12325 4395
Wire Wire Line
	3025 945  3025 1080
Wire Wire Line
	3645 945  3025 945 
Connection ~ 3025 945 
Text GLabel 3610 5725 2    50   BiDi ~ 0
MOSI_SD
Text GLabel 3610 5880 2    50   BiDi ~ 0
MISO_MTX
Text GLabel 3610 6030 2    50   BiDi ~ 0
SCK
Wire Wire Line
	3610 5725 3455 5725
Wire Wire Line
	3610 5880 3455 5880
Wire Wire Line
	3610 6030 3455 6030
Text GLabel 3610 6185 2    50   BiDi ~ 0
SS
Wire Wire Line
	3455 6185 3610 6185
Wire Wire Line
	930  3100 1020 3100
NoConn ~ 930  4500
NoConn ~ 930  4000
NoConn ~ 930  4200
Wire Wire Line
	8820 2220 9230 2220
$Comp
L Connector:Conn_01x02_Male J8
U 1 1 5FDD143D
P 12765 3580
F 0 "J8" H 12737 3462 50  0000 R CNN
F 1 "Conn_01x02_Male" H 12737 3553 50  0000 R CNN
F 2 "Connector_PinHeader_1.27mm:PinHeader_1x02_P1.27mm_Vertical" H 12765 3580 50  0001 C CNN
F 3 "~" H 12765 3580 50  0001 C CNN
	1    12765 3580
	-1   0    0    1   
$EndComp
Wire Wire Line
	12490 3460 12490 3480
Wire Wire Line
	12490 3480 12565 3480
Wire Wire Line
	12490 3590 12490 3580
Wire Wire Line
	12490 3580 12565 3580
Text GLabel 1125 6720 0    50   BiDi ~ 0
SCK
Text GLabel 1120 6890 0    50   BiDi ~ 0
SS
Wire Wire Line
	1285 6720 1125 6720
Wire Wire Line
	1285 6890 1120 6890
Text GLabel 6045 1130 2    50   BiDi ~ 0
IO_34
$Sheet
S 3645 730  2265 1315
U 5FA2F1CB
F0 "IoT_Power" 118
F1 "IoT_Power.sch" 118
F2 "VUSB" B L 3645 945 79 
F3 "5V" B L 3645 1890 79 
F4 "3.3V" B R 5910 890 79 
F5 "SYSON" B R 5910 1130 79 
F6 "SYSOFF" B R 5910 1380 79 
F7 "ON_LEC" B L 3645 1680 79 
$EndSheet
$Comp
L power:GND #PWR?
U 1 1 5FF290AF
P 7730 4075
AR Path="/5FA2F233/5FF290AF" Ref="#PWR?"  Part="1" 
AR Path="/5FF290AF" Ref="#PWR0138"  Part="1" 
F 0 "#PWR0138" H 7730 3825 50  0001 C CNN
F 1 "GND" H 7735 3902 50  0000 C CNN
F 2 "" H 7730 4075 50  0001 C CNN
F 3 "" H 7730 4075 50  0001 C CNN
	1    7730 4075
	1    0    0    -1  
$EndComp
$Comp
L Connector:Micro_SD_Card_Det J?
U 1 1 5FF290B5
P 6890 3415
AR Path="/5FA2F233/5FF290B5" Ref="J?"  Part="1" 
AR Path="/5FF290B5" Ref="J2"  Part="1" 
F 0 "J2" H 6840 4232 50  0000 C CNN
F 1 "Micro_SD_Card_Det" H 6840 4141 50  0000 C CNN
F 2 "Connector_Card:microSD_HC_Molex_104031-0811" H 8940 4115 50  0001 C CNN
F 3 "https://www.hirose.com/product/en/download_file/key_name/DM3/category/Catalog/doc_file_id/49662/?file_category_id=4&item_id=195&is_series=1" H 6890 3515 50  0001 C CNN
	1    6890 3415
	1    0    0    -1  
$EndComp
Wire Wire Line
	7730 3915 7690 3915
Wire Wire Line
	7730 3915 7730 4075
$Comp
L power:GND #PWR?
U 1 1 5FF290D9
P 5800 3515
AR Path="/5FA2F233/5FF290D9" Ref="#PWR?"  Part="1" 
AR Path="/5FF290D9" Ref="#PWR0147"  Part="1" 
F 0 "#PWR0147" H 5800 3265 50  0001 C CNN
F 1 "GND" V 5805 3387 50  0000 R CNN
F 2 "" H 5800 3515 50  0001 C CNN
F 3 "" H 5800 3515 50  0001 C CNN
	1    5800 3515
	0    1    1    0   
$EndComp
Wire Wire Line
	5930 3715 5990 3715
Wire Wire Line
	5930 3015 5990 3015
Wire Wire Line
	5750 3315 5990 3315
Wire Wire Line
	5930 3615 5990 3615
Wire Wire Line
	5930 3815 5990 3815
Wire Wire Line
	5930 3915 5990 3915
$Comp
L Device:R_Small R?
U 1 1 5FF290F2
P 7255 4295
AR Path="/5FA2F233/5FF290F2" Ref="R?"  Part="1" 
AR Path="/5FF290F2" Ref="R9"  Part="1" 
F 0 "R9" V 7415 4245 50  0000 L CNN
F 1 "1K" V 7335 4245 50  0000 L CNN
F 2 "Resistor_SMD:R_0603_1608Metric_Pad1.05x0.95mm_HandSolder" H 7255 4295 50  0001 C CNN
F 3 "~" H 7255 4295 50  0001 C CNN
	1    7255 4295
	0    -1   -1   0   
$EndComp
$Comp
L Device:LED_ALT D?
U 1 1 5FF290F8
P 7520 4730
AR Path="/5FA2F233/5FF290F8" Ref="D?"  Part="1" 
AR Path="/5FF290F8" Ref="D5"  Part="1" 
F 0 "D5" V 7559 4612 50  0000 R CNN
F 1 "RED" V 7468 4612 50  0000 R CNN
F 2 "LED_SMD:LED_0603_1608Metric_Pad1.05x0.95mm_HandSolder" H 7520 4730 50  0001 C CNN
F 3 "~" H 7520 4730 50  0001 C CNN
	1    7520 4730
	0    -1   -1   0   
$EndComp
Wire Wire Line
	7355 4295 7520 4295
Wire Wire Line
	7520 4295 7520 4580
Wire Wire Line
	5990 3515 5800 3515
Text Notes 6120 2780 2    98   Italic 20
MicroSD Module
$Sheet
S 9230 1345 3095 3945
U 5FA2F233
F0 "RF_Modules" 118
F1 "RF_Modules.sch" 118
F2 "3.3V" B L 9230 1470 79 
F3 "SD0" B R 12325 1525 79 
F4 "SD1" B R 12325 1720 79 
F5 "SD2" B R 12325 1930 79 
F6 "SD3" B R 12325 2150 79 
F7 "CLK" B R 12325 2360 79 
F8 "CMD" B R 12325 2580 79 
F9 "SENS_VP" B R 12325 3060 79 
F10 "SENS_VN" B R 12325 2810 79 
F11 "IO-0" B L 9230 1780 79 
F12 "IO-2" B L 9230 1635 79 
F13 "IO-4" B L 9230 1920 79 
F14 "IO-5" B L 9230 2375 79 
F15 "IO-16" B L 9230 2070 79 
F16 "IO-17" B L 9230 2220 79 
F17 "IO-18" B L 9230 2530 79 
F18 "IO-19" B L 9230 2680 79 
F19 "IO-23" B L 9230 2835 79 
F20 "IO-25" B L 9230 3135 79 
F21 "IO-27" B L 9230 2985 79 
F22 "IO-34" B L 9230 3420 79 
F23 "IO-35" B L 9230 3280 79 
F24 "TxD" B R 12325 3200 79 
F25 "RxD" B R 12325 3330 79 
F26 "SCK" B L 9230 3625 79 
F27 "UART2_TxD" B R 12325 3460 79 
F28 "UART2_RxD" B R 12325 3590 79 
F29 "UART_CTS" B R 12325 3720 79 
F30 "UART_RTS" B R 12325 3850 79 
F31 "RESET" I R 12325 3980 79 
F32 "WAKE" B R 12325 4110 79 
F33 "SWDIO" B L 9230 4210 79 
F34 "SWCLK" B L 9230 4340 79 
F35 "~RESET" I R 12325 4255 79 
F36 "NSS" B R 12325 4395 79 
F37 "MISO_ESP32" B L 9230 4520 79 
F38 "MOSI_ESP32" B L 9230 4690 79 
F39 "MISO_MTX" B L 9230 4870 79 
F40 "MOSI_MTX" B L 9230 5020 79 
$EndSheet
Text GLabel 9075 5020 0    50   BiDi ~ 0
MOSI_MTX
Wire Wire Line
	9075 5020 9230 5020
Text GLabel 1115 7075 0    50   BiDi ~ 0
TxD
Text GLabel 1115 7270 0    50   BiDi ~ 0
RxD
Wire Wire Line
	1115 7270 1285 7270
Wire Wire Line
	1115 7075 1285 7075
$Comp
L power:+3.3V #PWR?
U 1 1 602111EE
P 1720 2685
AR Path="/5FA2F233/602111EE" Ref="#PWR?"  Part="1" 
AR Path="/602111EE" Ref="#PWR0159"  Part="1" 
F 0 "#PWR0159" H 1720 2535 50  0001 C CNN
F 1 "+3.3V" H 1690 2855 50  0000 C CNN
F 2 "" H 1720 2685 50  0001 C CNN
F 3 "" H 1720 2685 50  0001 C CNN
	1    1720 2685
	1    0    0    -1  
$EndComp
Wire Wire Line
	1720 2685 1720 2800
Text GLabel 9075 4520 0    50   BiDi ~ 0
MISO_ESP32
Wire Wire Line
	9075 4520 9230 4520
Text GLabel 5930 3615 0    50   BiDi ~ 0
MISO_ESP32
Wire Wire Line
	5330 3415 5990 3415
Wire Wire Line
	5220 3215 5990 3215
Wire Wire Line
	5120 3115 5990 3115
$Comp
L power:+3.3V #PWR?
U 1 1 603E0BB0
P 5750 3315
AR Path="/5FA2F233/603E0BB0" Ref="#PWR?"  Part="1" 
AR Path="/603E0BB0" Ref="#PWR0162"  Part="1" 
F 0 "#PWR0162" H 5750 3165 50  0001 C CNN
F 1 "+3.3V" V 5745 3560 50  0000 C CNN
F 2 "" H 5750 3315 50  0001 C CNN
F 3 "" H 5750 3315 50  0001 C CNN
	1    5750 3315
	0    -1   -1   0   
$EndComp
Text GLabel 5930 3015 0    50   BiDi ~ 0
IO_26
Text GLabel 5930 3715 0    50   BiDi ~ 0
IO_32
NoConn ~ 5930 3915
Wire Notes Line
	4855 2545 7840 2545
$Comp
L Device:R_Small R14
U 1 1 6050C90E
P 5935 6825
F 0 "R14" V 5739 6825 50  0000 C CNN
F 1 "10K" V 5830 6825 50  0000 C CNN
F 2 "Resistor_SMD:R_0603_1608Metric_Pad1.05x0.95mm_HandSolder" H 5935 6825 50  0001 C CNN
F 3 "~" H 5935 6825 50  0001 C CNN
	1    5935 6825
	0    1    1    0   
$EndComp
$Comp
L Device:R_Small R15
U 1 1 60512057
P 5935 7520
F 0 "R15" V 5739 7520 50  0000 C CNN
F 1 "10K" V 5830 7520 50  0000 C CNN
F 2 "Resistor_SMD:R_0603_1608Metric_Pad1.05x0.95mm_HandSolder" H 5935 7520 50  0001 C CNN
F 3 "~" H 5935 7520 50  0001 C CNN
	1    5935 7520
	0    1    1    0   
$EndComp
$Comp
L Device:Q_NPN_BEC Q3
U 1 1 60512C59
P 6620 6825
F 0 "Q3" H 6811 6871 50  0000 L CNN
F 1 "MMBT2222" H 6811 6780 50  0000 L CNN
F 2 "Package_TO_SOT_SMD:SOT-23" H 6820 6925 50  0001 C CNN
F 3 "~" H 6620 6825 50  0001 C CNN
	1    6620 6825
	1    0    0    -1  
$EndComp
$Comp
L Device:Q_NPN_BEC Q4
U 1 1 60513A10
P 6620 7520
F 0 "Q4" H 6811 7566 50  0000 L CNN
F 1 "MMBT2222" H 6811 7475 50  0000 L CNN
F 2 "Package_TO_SOT_SMD:SOT-23" H 6820 7620 50  0001 C CNN
F 3 "~" H 6620 7520 50  0001 C CNN
	1    6620 7520
	1    0    0    -1  
$EndComp
Wire Wire Line
	5535 6825 5710 6825
Wire Wire Line
	5835 7520 5710 7520
Wire Wire Line
	6420 6825 6035 6825
Wire Wire Line
	6420 7520 6035 7520
Wire Wire Line
	5710 6940 6720 7235
Wire Wire Line
	6720 7235 6720 7320
Wire Wire Line
	6720 7025 6720 7085
Wire Wire Line
	6720 7085 5710 7295
Wire Wire Line
	5710 7295 5710 7520
Connection ~ 5710 7520
Wire Wire Line
	5710 7520 5540 7520
Wire Wire Line
	5710 6825 5710 6940
Connection ~ 5710 6825
Wire Wire Line
	5710 6825 5835 6825
Text GLabel 6905 7825 2    50   BiDi ~ 0
~RESET
Wire Wire Line
	6720 7720 6720 7825
Wire Wire Line
	6720 7825 6905 7825
Wire Wire Line
	8885 2245 8355 2245
Text GLabel 8355 2245 0    50   BiDi ~ 0
IO_5
Wire Wire Line
	6785 6480 6720 6480
Wire Wire Line
	6720 6480 6720 6625
Text GLabel 5540 7520 0    50   BiDi ~ 0
DTR
Text GLabel 5535 6825 0    50   BiDi ~ 0
UART_RTS
Text GLabel 1130 6370 0    50   BiDi ~ 0
SDA
Text GLabel 1130 6185 0    50   BiDi ~ 0
SCL
Text GLabel 1140 6030 0    50   BiDi ~ 0
1PPS
Wire Wire Line
	1130 6370 1285 6370
Wire Wire Line
	1130 6185 1285 6185
Text GLabel 840  6545 0    50   BiDi ~ 0
IO_33
Wire Wire Line
	1130 6545 1285 6545
$Comp
L 74xGxx:74AHC1G04 U9
U 1 1 606D827C
P 8340 6750
F 0 "U9" H 8080 6575 50  0000 C CNN
F 1 "74AHC1G04" H 8005 6505 50  0000 C CNN
F 2 "Package_TO_SOT_SMD:SOT-353_SC-70-5_Handsoldering" H 8340 6750 50  0001 C CNN
F 3 "http://www.ti.com/lit/sg/scyt129e/scyt129e.pdf" H 8340 6750 50  0001 C CNN
	1    8340 6750
	1    0    0    -1  
$EndComp
Text GLabel 8705 6750 2    50   BiDi ~ 0
~RESET
Text GLabel 7955 6750 0    50   BiDi ~ 0
RESET
$Comp
L power:+3.3V #PWR?
U 1 1 6073EB72
P 8340 6650
AR Path="/5FA2F233/6073EB72" Ref="#PWR?"  Part="1" 
AR Path="/6073EB72" Ref="#PWR0163"  Part="1" 
F 0 "#PWR0163" H 8340 6500 50  0001 C CNN
F 1 "+3.3V" H 8355 6823 50  0000 C CNN
F 2 "" H 8340 6650 50  0001 C CNN
F 3 "" H 8340 6650 50  0001 C CNN
	1    8340 6650
	1    0    0    -1  
$EndComp
$Comp
L power:GND #PWR?
U 1 1 60740507
P 8340 6850
AR Path="/5FA2F233/60740507" Ref="#PWR?"  Part="1" 
AR Path="/60740507" Ref="#PWR0164"  Part="1" 
F 0 "#PWR0164" H 8340 6600 50  0001 C CNN
F 1 "GND" H 8340 6680 50  0000 C CNN
F 2 "" H 8340 6850 50  0001 C CNN
F 3 "" H 8340 6850 50  0001 C CNN
	1    8340 6850
	1    0    0    -1  
$EndComp
NoConn ~ 5930 3815
$Comp
L Device:R_Small R16
U 1 1 607858B7
P 1030 6545
F 0 "R16" V 960 6545 50  0000 C CNN
F 1 "1K" V 1110 6545 50  0000 C CNN
F 2 "Resistor_SMD:R_0603_1608Metric_Pad1.05x0.95mm_HandSolder" H 1030 6545 50  0001 C CNN
F 3 "~" H 1030 6545 50  0001 C CNN
	1    1030 6545
	0    1    1    0   
$EndComp
Wire Wire Line
	840  6545 930  6545
Wire Wire Line
	8890 2445 8350 2445
Text GLabel 8350 2445 0    50   BiDi ~ 0
IO_19
Text GLabel 8340 2840 0    50   BiDi ~ 0
IO_35
Text GLabel 8340 2940 0    50   BiDi ~ 0
IO_34
Wire Wire Line
	8340 2840 8915 2840
Wire Wire Line
	8915 2840 8915 2920
Connection ~ 8915 2920
Wire Wire Line
	8340 2940 8860 2940
Wire Wire Line
	8860 2940 8860 3020
Connection ~ 8860 3020
$Comp
L Device:R_Small R?
U 1 1 6087574C
P 7120 890
AR Path="/5FA2F233/6087574C" Ref="R?"  Part="1" 
AR Path="/6087574C" Ref="R17"  Part="1" 
F 0 "R17" V 7280 815 50  0000 L CNN
F 1 "1K" V 7200 840 50  0000 L CNN
F 2 "Resistor_SMD:R_0603_1608Metric_Pad1.05x0.95mm_HandSolder" H 7120 890 50  0001 C CNN
F 3 "~" H 7120 890 50  0001 C CNN
	1    7120 890 
	0    -1   -1   0   
$EndComp
$Comp
L power:GND #PWR?
U 1 1 60875752
P 7345 1415
AR Path="/5FA2F233/60875752" Ref="#PWR?"  Part="1" 
AR Path="/60875752" Ref="#PWR0165"  Part="1" 
F 0 "#PWR0165" H 7345 1165 50  0001 C CNN
F 1 "GND" H 7350 1242 50  0000 C CNN
F 2 "" H 7345 1415 50  0001 C CNN
F 3 "" H 7345 1415 50  0001 C CNN
	1    7345 1415
	1    0    0    -1  
$EndComp
Wire Wire Line
	7220 890  7345 890 
Wire Wire Line
	7345 890  7345 1015
$Comp
L Device:LED_ALT D?
U 1 1 6087575A
P 7345 1165
AR Path="/5FA2F233/6087575A" Ref="D?"  Part="1" 
AR Path="/6087575A" Ref="LEC_LED1"  Part="1" 
F 0 "LEC_LED1" V 7384 1047 50  0000 R CNN
F 1 "GREEN" V 7293 1047 50  0000 R CNN
F 2 "LED_SMD:LED_0603_1608Metric_Pad1.05x0.95mm_HandSolder" H 7345 1165 50  0001 C CNN
F 3 "~" H 7345 1165 50  0001 C CNN
	1    7345 1165
	0    -1   -1   0   
$EndComp
Wire Wire Line
	7345 1315 7345 1415
Wire Wire Line
	6870 890  7020 890 
Wire Notes Line
	7865 640  7865 1640
Wire Notes Line
	6485 1640 6485 640 
Text Notes 6665 1955 0    79   Italic 16
Indicator LED\nfor Power Source
Text GLabel 6870 890  0    50   BiDi ~ 0
ON_LEC
Wire Notes Line
	6515 640  6485 640 
Text GLabel 3985 3755 2    50   BiDi ~ 0
1PPS
Text GLabel 3985 3855 2    50   BiDi ~ 0
VIO_RTC
Text GLabel 3985 3955 2    50   BiDi ~ 0
DCR
Text GLabel 3990 4055 2    50   BiDi ~ 0
DCD
Text GLabel 3990 4155 2    50   BiDi ~ 0
RI
Text GLabel 3985 3255 2    50   BiDi ~ 0
CBUS0
Text GLabel 3985 3355 2    50   BiDi ~ 0
CBUS1
Text GLabel 3985 3455 2    50   BiDi ~ 0
CBUS2
Text GLabel 3985 3555 2    50   BiDi ~ 0
CBUS3
Text GLabel 3985 3655 2    50   BiDi ~ 0
CBUS4
Wire Wire Line
	3985 3255 3930 3255
Wire Wire Line
	3985 3355 3930 3355
Wire Wire Line
	3985 3455 3930 3455
Wire Wire Line
	3985 3555 3930 3555
Wire Wire Line
	3985 3655 3930 3655
Wire Wire Line
	3985 3955 3930 3955
Wire Wire Line
	3990 4055 3930 4055
Wire Wire Line
	3930 4155 3990 4155
Wire Wire Line
	3985 3755 3930 3755
Wire Wire Line
	3985 3855 3930 3855
Wire Wire Line
	1285 6030 1140 6030
Text GLabel 3610 6350 2    50   BiDi ~ 0
EITO
Wire Wire Line
	3455 6350 3610 6350
Text GLabel 3990 4255 2    50   BiDi ~ 0
EITO
Text GLabel 4030 4925 2    50   BiDi ~ 0
SWDIO
Text GLabel 4030 4825 2    50   BiDi ~ 0
SWCLK
Wire Wire Line
	3990 4255 3930 4255
Wire Wire Line
	4030 4825 3970 4825
Wire Wire Line
	4030 4925 3970 4925
Text GLabel 3990 4355 2    50   BiDi ~ 0
V_SOURCE
$Comp
L Connector:Conn_01x13_Male J7
U 1 1 60EEB42C
P 3730 3755
F 0 "J7" H 3838 4636 50  0000 C CNN
F 1 "Conn_01x13_Male" H 3838 4545 50  0000 C CNN
F 2 "Connector_PinHeader_2.54mm:PinHeader_1x13_P2.54mm_Vertical" H 3730 3755 50  0001 C CNN
F 3 "~" H 3730 3755 50  0001 C CNN
	1    3730 3755
	1    0    0    -1  
$EndComp
Wire Wire Line
	3990 4355 3930 4355
Wire Wire Line
	5655 5550 5620 5550
Text GLabel 5620 5550 0    50   BiDi ~ 0
SS
Text GLabel 5725 5665 0    50   BiDi ~ 0
MOSI_SD
Wire Wire Line
	5655 5440 5655 5550
Wire Wire Line
	5725 5665 5755 5665
$Comp
L 74xx:74HC244 U5
U 1 1 5FD2D638
P 6155 4940
F 0 "U5" V 6025 4310 50  0000 R CNN
F 1 "74HC244" V 5940 4330 50  0000 R CNN
F 2 "Package_SO:TSSOP-20_4.4x6.5mm_P0.65mm" H 6155 4940 50  0001 C CNN
F 3 "https://assets.nexperia.com/documents/data-sheet/74HC_HCT244.pdf" H 6155 4940 50  0001 C CNN
	1    6155 4940
	0    -1   -1   0   
$EndComp
$Comp
L power:+3.3V #PWR?
U 1 1 5FEBC5E3
P 5245 4885
AR Path="/5FA2F233/5FEBC5E3" Ref="#PWR?"  Part="1" 
AR Path="/5FEBC5E3" Ref="#PWR0148"  Part="1" 
F 0 "#PWR0148" H 5245 4735 50  0001 C CNN
F 1 "+3.3V" H 5260 5058 50  0000 C CNN
F 2 "" H 5245 4885 50  0001 C CNN
F 3 "" H 5245 4885 50  0001 C CNN
	1    5245 4885
	1    0    0    -1  
$EndComp
$Comp
L power:GND #PWR?
U 1 1 5FEBCEEC
P 7235 5095
AR Path="/5FA2F233/5FEBCEEC" Ref="#PWR?"  Part="1" 
AR Path="/5FEBCEEC" Ref="#PWR0150"  Part="1" 
F 0 "#PWR0150" H 7235 4845 50  0001 C CNN
F 1 "GND" H 7240 4922 50  0000 C CNN
F 2 "" H 7235 5095 50  0001 C CNN
F 3 "" H 7235 5095 50  0001 C CNN
	1    7235 5095
	1    0    0    -1  
$EndComp
Wire Wire Line
	7235 5095 7235 4940
Wire Wire Line
	7235 4940 6955 4940
Wire Wire Line
	5245 4885 5245 4940
Wire Wire Line
	5245 4940 5355 4940
Wire Wire Line
	5655 4440 5655 4050
Wire Wire Line
	5655 4050 5120 4050
Wire Wire Line
	5120 4050 5120 3115
Wire Wire Line
	5755 4440 5755 3970
Wire Wire Line
	5755 3970 5220 3970
Wire Wire Line
	5220 3970 5220 3215
Wire Wire Line
	5855 4440 5855 3900
Wire Wire Line
	5855 3900 5330 3900
Wire Wire Line
	5330 3900 5330 3415
Wire Wire Line
	5855 5500 5955 5500
Wire Wire Line
	5955 5500 5955 5440
Wire Wire Line
	5955 4440 5955 4295
Wire Wire Line
	5955 4295 7155 4295
Wire Wire Line
	7520 4880 7520 5735
Wire Wire Line
	7520 5735 5120 5735
Wire Wire Line
	5120 5735 5120 4050
Connection ~ 5120 4050
Wire Wire Line
	5755 5440 5755 5665
Wire Wire Line
	5855 5440 5855 5500
Wire Wire Line
	5855 5500 5855 5620
Wire Wire Line
	5855 5620 5930 5620
Text GLabel 5930 5620 2    50   BiDi ~ 0
SCK
Connection ~ 5855 5500
Wire Wire Line
	6555 5440 6555 5460
Wire Wire Line
	6655 5460 6655 5440
$Comp
L power:GND #PWR?
U 1 1 6007B27B
P 6605 5505
AR Path="/5FA2F233/6007B27B" Ref="#PWR?"  Part="1" 
AR Path="/6007B27B" Ref="#PWR0151"  Part="1" 
F 0 "#PWR0151" H 6605 5255 50  0001 C CNN
F 1 "GND" H 6610 5332 50  0000 C CNN
F 2 "" H 6605 5505 50  0001 C CNN
F 3 "" H 6605 5505 50  0001 C CNN
	1    6605 5505
	1    0    0    -1  
$EndComp
Wire Wire Line
	6555 5460 6605 5460
Wire Wire Line
	6605 5505 6605 5460
Connection ~ 6605 5460
Wire Wire Line
	6605 5460 6655 5460
Wire Wire Line
	6155 4380 6155 4440
Wire Wire Line
	6055 4380 6055 4440
NoConn ~ 6055 4380
NoConn ~ 6155 4380
Wire Wire Line
	6355 4380 6355 4440
Wire Wire Line
	6255 4380 6255 4440
NoConn ~ 6255 4380
NoConn ~ 6355 4380
Wire Wire Line
	6255 5500 6255 5440
Wire Wire Line
	6355 5500 6355 5440
NoConn ~ 6355 5500
NoConn ~ 6255 5500
Wire Wire Line
	6055 5500 6055 5440
Wire Wire Line
	6155 5500 6155 5440
NoConn ~ 6155 5500
NoConn ~ 6055 5500
Wire Notes Line
	7840 5935 4855 5935
Wire Notes Line
	7840 2545 7840 5935
Wire Notes Line
	4855 2545 4855 5935
Wire Wire Line
	1930 865  1930 945 
Wire Wire Line
	1930 945  2270 945 
Wire Wire Line
	1930 945  1645 945 
Connection ~ 1930 945 
Wire Wire Line
	3985 3155 3930 3155
Wire Wire Line
	3645 1890 3530 1890
Text GLabel 3530 1890 0    50   BiDi ~ 0
5V_POWER_PIN
Text GLabel 3985 3155 2    50   BiDi ~ 0
5V_POWER_PIN
Wire Wire Line
	1285 5875 1140 5875
Text GLabel 1140 5875 0    50   BiDi ~ 0
VIO_RTC
NoConn ~ 930  3100
$Comp
L Mechanical:MountingHole H1
U 1 1 6044A35C
P 9805 6395
F 0 "H1" H 9905 6441 50  0000 L CNN
F 1 "MountingHole" H 9905 6350 50  0000 L CNN
F 2 "MountingHole:MountingHole_3.2mm_M3_ISO7380" H 9805 6395 50  0001 C CNN
F 3 "~" H 9805 6395 50  0001 C CNN
	1    9805 6395
	1    0    0    -1  
$EndComp
$Comp
L Mechanical:MountingHole H2
U 1 1 6044E588
P 10575 6395
F 0 "H2" H 10675 6441 50  0000 L CNN
F 1 "MountingHole" H 10675 6350 50  0000 L CNN
F 2 "MountingHole:MountingHole_3.2mm_M3_ISO7380" H 10575 6395 50  0001 C CNN
F 3 "~" H 10575 6395 50  0001 C CNN
	1    10575 6395
	1    0    0    -1  
$EndComp
$Comp
L Mechanical:MountingHole H3
U 1 1 60466886
P 11400 6400
F 0 "H3" H 11500 6446 50  0000 L CNN
F 1 "MountingHole" H 11500 6355 50  0000 L CNN
F 2 "MountingHole:MountingHole_3.2mm_M3_ISO7380" H 11400 6400 50  0001 C CNN
F 3 "~" H 11400 6400 50  0001 C CNN
	1    11400 6400
	1    0    0    -1  
$EndComp
$Comp
L Mechanical:MountingHole H4
U 1 1 6047F034
P 12160 6410
F 0 "H4" H 12260 6456 50  0000 L CNN
F 1 "MountingHole" H 12260 6365 50  0000 L CNN
F 2 "MountingHole:MountingHole_3.2mm_M3_ISO7380" H 12160 6410 50  0001 C CNN
F 3 "~" H 12160 6410 50  0001 C CNN
	1    12160 6410
	1    0    0    -1  
$EndComp
Text GLabel 6785 6480 2    50   BiDi ~ 0
IO_5
Wire Wire Line
	8820 2620 9050 2620
Wire Wire Line
	8890 2445 8890 2520
Connection ~ 8890 2520
Wire Wire Line
	8890 2520 8820 2520
Wire Wire Line
	8820 2120 9125 2120
Wire Wire Line
	8885 2245 8885 2320
Connection ~ 8885 2320
Wire Wire Line
	8885 2320 8820 2320
$Comp
L Connector:Conn_01x02_Male J9
U 1 1 5FE7AB4B
P 3770 4825
F 0 "J9" H 4020 5045 50  0000 R CNN
F 1 "Conn_01x02_Male" H 4320 4955 50  0000 R CNN
F 2 "Connector_PinHeader_1.27mm:PinHeader_1x02_P1.27mm_Vertical" H 3770 4825 50  0001 C CNN
F 3 "~" H 3770 4825 50  0001 C CNN
	1    3770 4825
	1    0    0    -1  
$EndComp
Wire Wire Line
	8040 6750 7955 6750
Wire Wire Line
	8590 6750 8705 6750
Wire Notes Line
	500  8000 500  5255
Wire Notes Line
	9655 6190 12830 6190
Wire Notes Line
	12830 6190 12830 6640
Wire Notes Line
	12830 6640 9655 6640
Wire Notes Line
	9655 6640 9655 6190
Wire Notes Line
	3615 4500 4455 4500
Wire Notes Line
	4455 4500 4455 5085
Wire Notes Line
	4455 5085 3615 5085
Wire Notes Line
	3615 5085 3615 4500
Wire Notes Line
	3430 2790 4660 2790
Wire Notes Line
	4660 2790 4660 4460
Wire Notes Line
	4660 4460 3430 4460
Wire Notes Line
	3430 4460 3430 2790
Wire Notes Line
	5065 6395 7285 6395
Wire Notes Line
	7285 6395 7285 7905
Wire Notes Line
	7285 7905 5065 7905
Wire Notes Line
	5065 7905 5065 6395
Wire Notes Line
	9030 6400 9030 7125
Wire Notes Line
	9030 7125 7610 7125
Wire Notes Line
	7610 7125 7610 6400
Wire Notes Line
	520  5185 3220 5185
Wire Notes Line
	3220 5185 3220 2435
Wire Notes Line
	3220 2435 520  2435
Wire Notes Line
	520  2435 520  5185
Wire Notes Line
	9030 6400 7610 6400
Wire Notes Line
	7985 1040 13470 1040
Wire Notes Line
	13470 1040 13470 5580
Wire Notes Line
	13470 5580 7985 5580
Wire Notes Line
	7985 5580 7985 1040
Wire Notes Line
	6420 525  6420 2290
Wire Notes Line
	6420 2290 580  2290
Wire Notes Line
	580  2290 580  525 
Wire Notes Line
	580  525  6420 525 
Text Notes 670  2235 0    98   Italic 20
USB PORT & POWER SUBSYSTEM
Wire Notes Line
	6520 640  7865 640 
Wire Notes Line
	6485 1640 7865 1640
Text Notes 9805 6130 0    157  Italic 31
Board's Mounting Holes
Text Notes 8605 975  0    157  Italic 31
RF Modules -- Hierarchical Sheet
Text Notes 3205 5040 2    98   Italic 20
USB to Serial\nModule
Wire Notes Line
	4685 5255 4685 8000
Wire Notes Line
	500  5255 4685 5255
Wire Notes Line
	500  8000 4685 8000
Text Notes 4560 6950 2    118  Italic 24
Sensors\nSubsystem
Text Notes 8810 6360 2    98   Italic 20
Reset Buffer
Text Notes 6855 6360 2    98   Italic 20
Programming State
Wire Notes Line
	4720 2545 4720 5115
Wire Notes Line
	4720 5115 3360 5115
Wire Notes Line
	3360 5115 3360 2545
Wire Notes Line
	3360 2545 4720 2545
Text Notes 4450 2755 2    98   Italic 20
BreakOuts
$EndSCHEMATC
