EESchema Schematic File Version 4
EELAYER 30 0
EELAYER END
$Descr USLetter 11000 8500
encoding utf-8
Sheet 4 4
Title "RF Modules -- CentineLoRa"
Date "2020-11-04"
Rev "0.1.2"
Comp "Universidad Sergio Arboleda"
Comment1 "Camilo Ernesto Arzuza Bonett"
Comment2 ""
Comment3 ""
Comment4 ""
$EndDescr
$Comp
L RF_Module:ESP32-WROOM-32 U3
U 1 1 5F9CA04C
P 5380 3845
F 0 "U3" H 5530 5345 50  0000 C CNN
F 1 "ESP32-WROOM-32" H 5830 5245 50  0000 C CNN
F 2 "RF_Module:ESP32-WROOM-32" H 5380 2345 50  0001 C CNN
F 3 "https://www.espressif.com/sites/default/files/documentation/esp32-wroom-32_datasheet_en.pdf" H 5080 3895 50  0001 C CNN
	1    5380 3845
	1    0    0    -1  
$EndComp
Text HLabel 6080 2745 2    50   BiDi Italic 0
TxD
Text HLabel 6080 2945 2    50   BiDi Italic 0
RxD
Text HLabel 6080 2645 2    50   BiDi Italic 0
IO-0
Text HLabel 6080 3045 2    50   BiDi Italic 0
IO-4
Text HLabel 6080 3145 2    50   BiDi Italic 0
IO-5
Text HLabel 6080 3745 2    50   BiDi Italic 0
IO-17
Text HLabel 6080 3845 2    50   BiDi Italic 0
IO-18
Text HLabel 6080 3945 2    50   BiDi Italic 0
IO-19
Text HLabel 6080 4245 2    50   BiDi Italic 0
IO-23
Text HLabel 6080 4345 2    50   BiDi Italic 0
IO-25
Text HLabel 6080 4545 2    50   BiDi Italic 0
IO-27
Text HLabel 6080 4845 2    50   BiDi Italic 0
IO-34
Text HLabel 6080 4945 2    50   BiDi Italic 0
IO-35
$Comp
L power:GND #PWR0124
U 1 1 5F9D0EC1
P 5380 5345
F 0 "#PWR0124" H 5380 5095 50  0001 C CNN
F 1 "GND" H 5385 5172 50  0000 C CNN
F 2 "" H 5380 5345 50  0001 C CNN
F 3 "" H 5380 5345 50  0001 C CNN
	1    5380 5345
	1    0    0    -1  
$EndComp
$Comp
L Device:C_Small C14
U 1 1 5F9D35AA
P 4030 2845
F 0 "C14" H 3780 2895 50  0000 L CNN
F 1 "100nF" H 3730 2795 50  0000 L CNN
F 2 "Capacitor_SMD:C_1206_3216Metric_Pad1.42x1.75mm_HandSolder" H 4030 2845 50  0001 C CNN
F 3 "~" H 4030 2845 50  0001 C CNN
	1    4030 2845
	1    0    0    -1  
$EndComp
$Comp
L Device:R_Small R10
U 1 1 5F9D4BFE
P 4030 2395
F 0 "R10" H 4089 2441 50  0000 L CNN
F 1 "10K" H 4089 2350 50  0000 L CNN
F 2 "Resistor_SMD:R_0603_1608Metric_Pad1.05x0.95mm_HandSolder" H 4030 2395 50  0001 C CNN
F 3 "~" H 4030 2395 50  0001 C CNN
	1    4030 2395
	1    0    0    -1  
$EndComp
$Comp
L power:GND #PWR0126
U 1 1 5F9D6FA6
P 4030 2995
F 0 "#PWR0126" H 4030 2745 50  0001 C CNN
F 1 "GND" H 4035 2822 50  0000 C CNN
F 2 "" H 4030 2995 50  0001 C CNN
F 3 "" H 4030 2995 50  0001 C CNN
	1    4030 2995
	1    0    0    -1  
$EndComp
Wire Wire Line
	4030 2495 4030 2645
$Comp
L Device:C_Small C11
U 1 1 5F9EB73A
P 1960 2715
F 0 "C11" V 2150 2660 50  0000 L CNN
F 1 "100nF" V 2065 2590 50  0000 L CNN
F 2 "Capacitor_SMD:C_1206_3216Metric_Pad1.42x1.75mm_HandSolder" H 1960 2715 50  0001 C CNN
F 3 "~" H 1960 2715 50  0001 C CNN
	1    1960 2715
	0    -1   -1   0   
$EndComp
$Comp
L Device:C_Small C10
U 1 1 5F9EBD10
P 1960 2215
F 0 "C10" V 2170 2160 50  0000 L CNN
F 1 "100nF" V 2075 2090 50  0000 L CNN
F 2 "Capacitor_SMD:C_1206_3216Metric_Pad1.42x1.75mm_HandSolder" H 1960 2215 50  0001 C CNN
F 3 "~" H 1960 2215 50  0001 C CNN
	1    1960 2215
	0    -1   -1   0   
$EndComp
$Comp
L power:GND #PWR0127
U 1 1 5F9EDEF5
P 2210 2715
F 0 "#PWR0127" H 2210 2465 50  0001 C CNN
F 1 "GND" H 2215 2542 50  0000 C CNN
F 2 "" H 2210 2715 50  0001 C CNN
F 3 "" H 2210 2715 50  0001 C CNN
	1    2210 2715
	1    0    0    -1  
$EndComp
$Comp
L power:GND #PWR0128
U 1 1 5F9EE324
P 3115 2215
F 0 "#PWR0128" H 3115 1965 50  0001 C CNN
F 1 "GND" H 3120 2042 50  0000 C CNN
F 2 "" H 3115 2215 50  0001 C CNN
F 3 "" H 3115 2215 50  0001 C CNN
	1    3115 2215
	1    0    0    -1  
$EndComp
Wire Wire Line
	2060 2715 2210 2715
Wire Wire Line
	5380 5245 5380 5345
Wire Wire Line
	4680 2845 4780 2845
Wire Wire Line
	4680 2945 4780 2945
Wire Wire Line
	4680 3845 4780 3845
Wire Wire Line
	4680 3945 4780 3945
Wire Wire Line
	4680 4045 4780 4045
Wire Wire Line
	4680 4145 4780 4145
Wire Wire Line
	4680 4245 4780 4245
Wire Wire Line
	4680 4345 4780 4345
Wire Wire Line
	5980 2645 6080 2645
Wire Wire Line
	5980 2745 6080 2745
Wire Wire Line
	6080 2845 5980 2845
Wire Wire Line
	6080 2945 5980 2945
Wire Wire Line
	6080 3045 5980 3045
Wire Wire Line
	6080 3145 5980 3145
Wire Wire Line
	6080 3545 5980 3545
Wire Wire Line
	5980 3645 6080 3645
Wire Wire Line
	6080 3745 5980 3745
Wire Wire Line
	6080 3845 5980 3845
Wire Wire Line
	6080 3945 5980 3945
Wire Wire Line
	6080 4245 5980 4245
Wire Wire Line
	6080 4345 5980 4345
Wire Wire Line
	6080 4545 5980 4545
Wire Wire Line
	6080 4645 5980 4645
Wire Wire Line
	6080 4745 5980 4745
Wire Wire Line
	6080 4845 5980 4845
Wire Wire Line
	6080 4945 5980 4945
Text HLabel 3930 2645 0    50   Input Italic 0
RESET
Wire Notes Line
	515  6175 515  1375
Text Notes 3150 1805 2    79   Italic 16
Local and Global Decoupling Capacitors\nFor LoRa Module and MicroSD Module
Text Notes 4025 1745 0    98   Italic 20
ESP32-WROOM with RESET pin
Text Notes 2425 930  0    118  Italic 24
ESP32-WROOM Block\n
Wire Wire Line
	5380 2145 5380 2445
$Comp
L power:GND #PWR0131
U 1 1 5F9F7EB5
P 9615 5130
F 0 "#PWR0131" H 9615 4880 50  0001 C CNN
F 1 "GND" H 9620 4957 50  0000 C CNN
F 2 "" H 9615 5130 50  0001 C CNN
F 3 "" H 9615 5130 50  0001 C CNN
	1    9615 5130
	1    0    0    -1  
$EndComp
Wire Wire Line
	9465 5030 9615 5030
Wire Wire Line
	9615 5030 9615 5130
$Comp
L Device:C_Small C15
U 1 1 5FA13DB2
P 8000 2135
F 0 "C15" H 8092 2181 50  0000 L CNN
F 1 "100nF" H 8092 2090 50  0000 L CNN
F 2 "Capacitor_SMD:C_1206_3216Metric_Pad1.42x1.75mm_HandSolder" H 8000 2135 50  0001 C CNN
F 3 "~" H 8000 2135 50  0001 C CNN
	1    8000 2135
	1    0    0    -1  
$EndComp
$Comp
L Device:C_Small C16
U 1 1 5FA15196
P 8500 2135
F 0 "C16" H 8592 2181 50  0000 L CNN
F 1 "100nF" H 8592 2090 50  0000 L CNN
F 2 "Capacitor_SMD:C_1206_3216Metric_Pad1.42x1.75mm_HandSolder" H 8500 2135 50  0001 C CNN
F 3 "~" H 8500 2135 50  0001 C CNN
	1    8500 2135
	1    0    0    -1  
$EndComp
$Comp
L power:GND #PWR0134
U 1 1 5FA15FA1
P 8000 2335
F 0 "#PWR0134" H 8000 2085 50  0001 C CNN
F 1 "GND" H 8135 7515 50  0000 C CNN
F 2 "" H 8000 2335 50  0001 C CNN
F 3 "" H 8000 2335 50  0001 C CNN
	1    8000 2335
	1    0    0    -1  
$EndComp
$Comp
L power:GND #PWR0135
U 1 1 5FA164DB
P 8500 2335
F 0 "#PWR0135" H 8500 2085 50  0001 C CNN
F 1 "GND" H 8505 2162 50  0000 C CNN
F 2 "" H 8500 2335 50  0001 C CNN
F 3 "" H 8500 2335 50  0001 C CNN
	1    8500 2335
	1    0    0    -1  
$EndComp
Wire Wire Line
	8000 2235 8000 2335
Wire Wire Line
	8500 2335 8500 2235
$Comp
L Device:C_Small C17
U 1 1 5FA2A2D1
P 9000 2135
F 0 "C17" H 9092 2181 50  0000 L CNN
F 1 "4.7uF" H 9092 2090 50  0000 L CNN
F 2 "Capacitor_SMD:C_Elec_3x5.4" H 9000 2135 50  0001 C CNN
F 3 "~" H 9000 2135 50  0001 C CNN
	1    9000 2135
	1    0    0    -1  
$EndComp
$Comp
L power:GND #PWR0137
U 1 1 5FA2AD61
P 9000 2335
F 0 "#PWR0137" H 9000 2085 50  0001 C CNN
F 1 "GND" H 9005 2162 50  0000 C CNN
F 2 "" H 9000 2335 50  0001 C CNN
F 3 "" H 9000 2335 50  0001 C CNN
	1    9000 2335
	1    0    0    -1  
$EndComp
Wire Wire Line
	9000 2335 9000 2235
Text HLabel 6080 3645 2    50   BiDi Italic 0
IO-16
Wire Notes Line
	9375 1690 7825 1690
Wire Notes Line
	7825 1690 7825 2590
Wire Notes Line
	7825 2590 9375 2590
Wire Notes Line
	9375 2590 9375 1690
Text Notes 7460 1635 0    79   Italic 16
Local & Global Decoupling Capacitors
Text Notes 7580 2980 0    79   Italic 16
MTXDOT-NA1 Module - RESET pin\nu.FL socket in module
Wire Notes Line
	10400 1375 10400 5775
Text Notes 7665 1295 0    118  Italic 24
MTX-DOT LoRa Block
Text HLabel 6080 3545 2    50   BiDi ~ 0
NSS
Text HLabel 6080 2845 2    50   BiDi ~ 0
IO-2
Wire Wire Line
	4780 2645 4030 2645
Wire Wire Line
	3930 2645 4030 2645
Connection ~ 4030 2645
Wire Wire Line
	4030 2645 4030 2745
Wire Wire Line
	4030 2945 4030 2995
Wire Wire Line
	5380 2145 4030 2145
Connection ~ 4030 2145
Wire Wire Line
	4030 2145 4030 2295
Text HLabel 4680 2845 0    50   BiDi ~ 0
SENS_VP
Text HLabel 4680 2945 0    50   BiDi ~ 0
SENS_VN
Text HLabel 4680 3845 0    50   BiDi ~ 0
SD0
Text HLabel 4680 3945 0    50   BiDi ~ 0
SD1
Text HLabel 4680 4045 0    50   BiDi ~ 0
SD2
Text HLabel 4680 4145 0    50   BiDi ~ 0
SD3
Text HLabel 4680 4245 0    50   BiDi ~ 0
CLK
Text HLabel 4680 4345 0    50   BiDi ~ 0
CMD
Text Notes 3980 4245 0    50   ~ 0
Pads y\nTestpoints\npara Flash\nIntegrada
Text Notes 1550 1280 0    79   Italic 16
Included TestPoints and Pin Headers for Expansion of Applications
Wire Notes Line
	3580 1795 3580 5895
Wire Notes Line
	6680 1795 3580 1795
Wire Notes Line
	6950 1375 10400 1375
Wire Notes Line
	10400 5775 6950 5775
Wire Notes Line
	6950 1375 6950 5775
Wire Notes Line
	6845 1375 6845 6175
Wire Wire Line
	6080 4445 5980 4445
Wire Wire Line
	6080 3245 5980 3245
Wire Wire Line
	6080 3445 5980 3445
Wire Wire Line
	6080 3345 5980 3345
$Comp
L Connector:Conn_01x04_Male J4
U 1 1 5FAFF858
P 930 4130
F 0 "J4" H 1040 4430 50  0000 C CNN
F 1 "Conn_01x04_Male" H 1040 4340 50  0000 C CNN
F 2 "Connector_PinHeader_1.27mm:PinHeader_1x04_P1.27mm_Vertical" H 930 4130 50  0001 C CNN
F 3 "~" H 930 4130 50  0001 C CNN
	1    930  4130
	1    0    0    -1  
$EndComp
$Comp
L Device:R_Small R12
U 1 1 5FB06D8F
P 1630 3780
F 0 "R12" H 1689 3826 50  0000 L CNN
F 1 "10K" H 1689 3735 50  0000 L CNN
F 2 "Resistor_SMD:R_0603_1608Metric_Pad1.05x0.95mm_HandSolder" H 1630 3780 50  0001 C CNN
F 3 "~" H 1630 3780 50  0001 C CNN
	1    1630 3780
	1    0    0    -1  
$EndComp
$Comp
L Device:R_Small R13
U 1 1 5FB087C7
P 1980 3780
F 0 "R13" H 2039 3826 50  0000 L CNN
F 1 "10K" H 2039 3735 50  0000 L CNN
F 2 "Resistor_SMD:R_0603_1608Metric_Pad1.05x0.95mm_HandSolder" H 1980 3780 50  0001 C CNN
F 3 "~" H 1980 3780 50  0001 C CNN
	1    1980 3780
	1    0    0    -1  
$EndComp
Wire Wire Line
	1130 4030 1630 4030
Wire Wire Line
	1630 4030 1630 3880
Wire Wire Line
	1130 4130 1980 4130
Wire Wire Line
	1980 4130 1980 3880
Wire Wire Line
	1630 3680 1630 3630
Wire Wire Line
	1980 3630 1980 3680
Wire Wire Line
	1630 4030 1680 4030
Connection ~ 1630 4030
Wire Wire Line
	2030 4130 1980 4130
Connection ~ 1980 4130
$Comp
L power:GND #PWR0140
U 1 1 5FB29165
P 1230 4430
F 0 "#PWR0140" H 1230 4180 50  0001 C CNN
F 1 "GND" H 1235 4257 50  0000 C CNN
F 2 "" H 1230 4430 50  0001 C CNN
F 3 "" H 1230 4430 50  0001 C CNN
	1    1230 4430
	1    0    0    -1  
$EndComp
Wire Wire Line
	1230 4430 1230 4330
Wire Wire Line
	1230 4330 1130 4330
Wire Notes Line
	2480 4680 2480 3330
Wire Notes Line
	2480 3330 680  3330
Wire Notes Line
	680  3330 680  4680
Wire Notes Line
	680  4680 2480 4680
$Comp
L Device:R_Small R11
U 1 1 5FB4864A
P 1225 5315
F 0 "R11" V 1385 5240 50  0000 L CNN
F 1 "1K" V 1305 5265 50  0000 L CNN
F 2 "Resistor_SMD:R_0603_1608Metric_Pad1.05x0.95mm_HandSolder" H 1225 5315 50  0001 C CNN
F 3 "~" H 1225 5315 50  0001 C CNN
	1    1225 5315
	0    -1   -1   0   
$EndComp
Wire Wire Line
	1980 3630 2310 3630
Wire Wire Line
	2310 3630 2310 4230
Wire Wire Line
	2310 4230 1130 4230
Connection ~ 1980 3630
$Comp
L power:GND #PWR0141
U 1 1 5FB5F3D4
P 1450 5840
F 0 "#PWR0141" H 1450 5590 50  0001 C CNN
F 1 "GND" H 1455 5667 50  0000 C CNN
F 2 "" H 1450 5840 50  0001 C CNN
F 3 "" H 1450 5840 50  0001 C CNN
	1    1450 5840
	1    0    0    -1  
$EndComp
Wire Wire Line
	1325 5315 1450 5315
Wire Wire Line
	1450 5315 1450 5440
$Comp
L Device:LED_ALT D6
U 1 1 5FB5DBF4
P 1450 5590
F 0 "D6" V 1489 5472 50  0000 R CNN
F 1 "GREEN" V 1398 5472 50  0000 R CNN
F 2 "LED_SMD:LED_0603_1608Metric_Pad1.05x0.95mm_HandSolder" H 1450 5590 50  0001 C CNN
F 3 "~" H 1450 5590 50  0001 C CNN
	1    1450 5590
	0    -1   -1   0   
$EndComp
Wire Wire Line
	1450 5740 1450 5840
Text HLabel 975  5315 0    50   BiDi Italic 0
IO-23
Wire Wire Line
	975  5315 1125 5315
Wire Notes Line
	1900 5065 1900 6065
Wire Notes Line
	1900 6065 625  6065
Wire Notes Line
	625  6065 625  5065
Wire Notes Line
	625  5065 1900 5065
Text Notes 600  5025 0    79   Italic 16
GPIO23 LED Indicator
Text Notes 685  3280 0    79   Italic 16
I2C Bus Pin Header & Source
$Comp
L Switch:SW_Push RESET1
U 1 1 5FBD9F3C
P 2880 5585
F 0 "RESET1" H 2880 5870 50  0000 C CNN
F 1 "SW_Push" H 2880 5779 50  0000 C CNN
F 2 "Button_Switch_SMD:SW_SPST_B3U-1000P" H 2880 5785 50  0001 C CNN
F 3 "~" H 2880 5785 50  0001 C CNN
	1    2880 5585
	1    0    0    -1  
$EndComp
$Comp
L power:GND #PWR0142
U 1 1 5FBDFC4A
P 3205 5835
F 0 "#PWR0142" H 3205 5585 50  0001 C CNN
F 1 "GND" H 3210 5662 50  0000 C CNN
F 2 "" H 3205 5835 50  0001 C CNN
F 3 "" H 3205 5835 50  0001 C CNN
	1    3205 5835
	1    0    0    -1  
$EndComp
Text HLabel 2505 5585 0    50   Input Italic 0
RESET
Wire Wire Line
	2505 5585 2680 5585
Wire Wire Line
	3205 5835 3205 5585
Wire Wire Line
	3205 5585 3080 5585
Wire Notes Line
	2155 5060 2155 6060
Wire Notes Line
	2155 6060 3330 6060
Wire Notes Line
	3330 6060 3330 5060
Wire Notes Line
	3330 5060 2155 5060
Text Notes 2175 5030 0    79   Italic 16
RESET PushButton
$Comp
L power:GND #PWR0143
U 1 1 5F9D75B3
P 1285 2715
F 0 "#PWR0143" H 1285 2465 50  0001 C CNN
F 1 "GND" H 1290 2542 50  0000 C CNN
F 2 "" H 1285 2715 50  0001 C CNN
F 3 "" H 1285 2715 50  0001 C CNN
	1    1285 2715
	1    0    0    -1  
$EndComp
$Comp
L power:GND #PWR0144
U 1 1 5F9D7B5B
P 1285 2215
F 0 "#PWR0144" H 1285 1965 50  0001 C CNN
F 1 "GND" H 1290 2042 50  0000 C CNN
F 2 "" H 1285 2215 50  0001 C CNN
F 3 "" H 1285 2215 50  0001 C CNN
	1    1285 2215
	1    0    0    -1  
$EndComp
Wire Wire Line
	1185 2215 1285 2215
Wire Wire Line
	1185 2715 1285 2715
$Comp
L Device:C_Small C9
U 1 1 5F9D8256
P 1085 2715
F 0 "C9" V 1290 2660 50  0000 L CNN
F 1 "100nF" V 1195 2590 50  0000 L CNN
F 2 "Capacitor_SMD:C_1206_3216Metric_Pad1.42x1.75mm_HandSolder" H 1085 2715 50  0001 C CNN
F 3 "~" H 1085 2715 50  0001 C CNN
	1    1085 2715
	0    -1   -1   0   
$EndComp
$Comp
L Device:C_Small C8
U 1 1 5F9D7EA5
P 1085 2215
F 0 "C8" V 1280 2155 50  0000 L CNN
F 1 "10uF" V 1195 2115 50  0000 L CNN
F 2 "Capacitor_SMD:C_Elec_3x5.4" H 1085 2215 50  0001 C CNN
F 3 "~" H 1085 2215 50  0001 C CNN
	1    1085 2215
	0    -1   -1   0   
$EndComp
Wire Notes Line
	590  1865 590  2990
Wire Notes Line
	3320 1865 3320 2990
$Comp
L Device:C_Small C12
U 1 1 5FD05A33
P 2875 2215
F 0 "C12" V 3070 2155 50  0000 L CNN
F 1 "10uF" V 2985 2115 50  0000 L CNN
F 2 "Capacitor_SMD:C_Elec_3x5.4" H 2875 2215 50  0001 C CNN
F 3 "~" H 2875 2215 50  0001 C CNN
	1    2875 2215
	0    -1   -1   0   
$EndComp
$Comp
L Device:C_Small C13
U 1 1 5FD061C5
P 2875 2725
F 0 "C13" V 3070 2665 50  0000 L CNN
F 1 "100nF" V 2985 2605 50  0000 L CNN
F 2 "Capacitor_SMD:C_1206_3216Metric_Pad1.42x1.75mm_HandSolder" H 2875 2725 50  0001 C CNN
F 3 "~" H 2875 2725 50  0001 C CNN
	1    2875 2725
	0    -1   -1   0   
$EndComp
$Comp
L power:GND #PWR0154
U 1 1 5FD22A7F
P 3115 2725
F 0 "#PWR0154" H 3115 2475 50  0001 C CNN
F 1 "GND" H 3120 2552 50  0000 C CNN
F 2 "" H 3115 2725 50  0001 C CNN
F 3 "" H 3115 2725 50  0001 C CNN
	1    3115 2725
	1    0    0    -1  
$EndComp
Wire Wire Line
	2060 2215 2210 2215
$Comp
L power:GND #PWR0155
U 1 1 5FD247D2
P 2210 2215
F 0 "#PWR0155" H 2210 1965 50  0001 C CNN
F 1 "GND" H 2215 2042 50  0000 C CNN
F 2 "" H 2210 2215 50  0001 C CNN
F 3 "" H 2210 2215 50  0001 C CNN
	1    2210 2215
	1    0    0    -1  
$EndComp
Wire Wire Line
	2975 2215 3115 2215
Wire Wire Line
	2975 2725 3115 2725
Wire Notes Line
	590  1865 3320 1865
Wire Notes Line
	590  2990 3320 2990
Wire Notes Line
	515  1375 6845 1375
Wire Notes Line
	515  6175 6845 6175
Wire Wire Line
	7665 3430 7565 3430
Wire Wire Line
	9465 4530 9565 4530
Wire Wire Line
	7665 4530 7565 4530
Wire Wire Line
	7665 4630 7565 4630
Wire Wire Line
	7665 4330 7565 4330
Wire Wire Line
	7665 4130 7565 4130
Wire Wire Line
	7665 4230 7565 4230
$Comp
L MTXDOT-NA1-A01-100:MTXDOT-NA1-A01-100 U4
U 1 1 5FA67BC1
P 8565 4230
F 0 "U4" H 8565 5297 50  0000 C CNN
F 1 "MTXDOT-NA1-A01-100" H 8565 5206 50  0000 C CNN
F 2 "modules_lib:XCVR_MTXDOT-NA1-A01-100" H 8565 4230 50  0001 L BNN
F 3 "MULTITECH" H 8565 4230 50  0001 L BNN
	1    8565 4230
	1    0    0    -1  
$EndComp
Wire Wire Line
	9465 4630 9565 4630
Wire Wire Line
	9465 4730 9565 4730
Wire Notes Line
	6685 1795 6730 1795
Wire Notes Line
	3580 5895 6730 5895
Wire Notes Line
	6730 1795 6730 5895
Wire Notes Line
	10215 3025 10215 5475
Wire Wire Line
	7665 4930 7540 4930
Text HLabel 7570 3730 0    50   BiDi Italic 0
SWCLK
Text HLabel 7570 3830 0    50   BiDi Italic 0
SWDIO
Text HLabel 7565 4030 0    50   BiDi Italic 0
NSS
Text HLabel 9565 4330 2    50   BiDi Italic 0
UART_RTS
Text HLabel 9565 4230 2    50   BiDi Italic 0
UART_CTS
Text HLabel 9565 4030 2    50   BiDi Italic 0
UART2_TxD
Text HLabel 9565 3930 2    50   BiDi Italic 0
UART2_RxD
Text HLabel 9570 3730 2    50   BiDi Italic 0
RxD
Text HLabel 9570 3630 2    50   BiDi Italic 0
TxD
Text HLabel 7570 3530 0    50   BiDi Italic 0
WAKE
Wire Wire Line
	9465 3630 9570 3630
Wire Wire Line
	9465 3730 9570 3730
Wire Wire Line
	9465 3930 9565 3930
Wire Wire Line
	9465 4030 9565 4030
Wire Wire Line
	9465 4230 9565 4230
Wire Wire Line
	9465 4330 9565 4330
Wire Wire Line
	9465 4830 9565 4830
Wire Wire Line
	7665 5030 7540 5030
Wire Wire Line
	7565 4030 7665 4030
Wire Wire Line
	7570 3830 7665 3830
Wire Wire Line
	7570 3730 7665 3730
Wire Wire Line
	7665 3530 7570 3530
Text HLabel 3985 2000 0    50   BiDi ~ 0
3.3V
Wire Wire Line
	3985 2000 4030 2000
Wire Wire Line
	4030 2000 4030 2145
Text HLabel 9570 3430 2    50   BiDi ~ 0
3.3V
Wire Wire Line
	9465 3430 9570 3430
NoConn ~ 7540 5030
Text HLabel 7565 3430 0    50   Input Italic 0
~RESET
Text HLabel 6080 3445 2    50   BiDi Italic 0
SCK
Text HLabel 7565 4130 0    50   BiDi Italic 0
SCK
Text HLabel 6080 3345 2    50   BiDi Italic 0
MOSI_ESP32
Text HLabel 7565 4330 0    50   BiDi Italic 0
MISO_MTX
Text HLabel 6080 3245 2    50   BiDi Italic 0
MISO_ESP32
$Comp
L power:+3.3V #PWR0125
U 1 1 5FC7B864
P 9000 1925
F 0 "#PWR0125" H 9000 1775 50  0001 C CNN
F 1 "+3.3V" H 9015 2098 50  0000 C CNN
F 2 "" H 9000 1925 50  0001 C CNN
F 3 "" H 9000 1925 50  0001 C CNN
	1    9000 1925
	1    0    0    -1  
$EndComp
$Comp
L power:+3.3V #PWR0129
U 1 1 5FC7BF20
P 8500 1925
F 0 "#PWR0129" H 8500 1775 50  0001 C CNN
F 1 "+3.3V" H 8515 2098 50  0000 C CNN
F 2 "" H 8500 1925 50  0001 C CNN
F 3 "" H 8500 1925 50  0001 C CNN
	1    8500 1925
	1    0    0    -1  
$EndComp
$Comp
L power:+3.3V #PWR0130
U 1 1 5FC7C87D
P 8000 1925
F 0 "#PWR0130" H 8000 1775 50  0001 C CNN
F 1 "+3.3V" H 8015 2098 50  0000 C CNN
F 2 "" H 8000 1925 50  0001 C CNN
F 3 "" H 8000 1925 50  0001 C CNN
	1    8000 1925
	1    0    0    -1  
$EndComp
$Comp
L power:+3.3V #PWR0132
U 1 1 5FC7CBFA
P 2485 2155
F 0 "#PWR0132" H 2485 2005 50  0001 C CNN
F 1 "+3.3V" H 2500 2328 50  0000 C CNN
F 2 "" H 2485 2155 50  0001 C CNN
F 3 "" H 2485 2155 50  0001 C CNN
	1    2485 2155
	1    0    0    -1  
$EndComp
$Comp
L power:+3.3V #PWR0133
U 1 1 5FC809D5
P 2480 2665
F 0 "#PWR0133" H 2480 2515 50  0001 C CNN
F 1 "+3.3V" H 2495 2838 50  0000 C CNN
F 2 "" H 2480 2665 50  0001 C CNN
F 3 "" H 2480 2665 50  0001 C CNN
	1    2480 2665
	1    0    0    -1  
$EndComp
$Comp
L power:+3.3V #PWR0136
U 1 1 5FC81447
P 1590 2660
F 0 "#PWR0136" H 1590 2510 50  0001 C CNN
F 1 "+3.3V" H 1605 2833 50  0000 C CNN
F 2 "" H 1590 2660 50  0001 C CNN
F 3 "" H 1590 2660 50  0001 C CNN
	1    1590 2660
	1    0    0    -1  
$EndComp
$Comp
L power:+3.3V #PWR0139
U 1 1 5FC81F50
P 1595 2155
F 0 "#PWR0139" H 1595 2005 50  0001 C CNN
F 1 "+3.3V" H 1610 2328 50  0000 C CNN
F 2 "" H 1595 2155 50  0001 C CNN
F 3 "" H 1595 2155 50  0001 C CNN
	1    1595 2155
	1    0    0    -1  
$EndComp
$Comp
L power:+3.3V #PWR0145
U 1 1 5FC8272C
P 770 2150
F 0 "#PWR0145" H 770 2000 50  0001 C CNN
F 1 "+3.3V" H 785 2323 50  0000 C CNN
F 2 "" H 770 2150 50  0001 C CNN
F 3 "" H 770 2150 50  0001 C CNN
	1    770  2150
	1    0    0    -1  
$EndComp
$Comp
L power:+3.3V #PWR0146
U 1 1 5FC8339F
P 775 2655
F 0 "#PWR0146" H 775 2505 50  0001 C CNN
F 1 "+3.3V" H 790 2828 50  0000 C CNN
F 2 "" H 775 2655 50  0001 C CNN
F 3 "" H 775 2655 50  0001 C CNN
	1    775  2655
	1    0    0    -1  
$EndComp
Wire Wire Line
	770  2215 770  2150
Wire Wire Line
	770  2215 985  2215
Wire Wire Line
	1595 2215 1595 2155
Wire Wire Line
	1595 2215 1860 2215
Wire Wire Line
	2485 2215 2485 2155
Wire Wire Line
	2485 2215 2775 2215
Wire Wire Line
	2480 2725 2480 2665
Wire Wire Line
	2480 2725 2775 2725
Wire Wire Line
	1590 2715 1590 2660
Wire Wire Line
	1590 2715 1860 2715
Wire Wire Line
	775  2715 775  2655
Wire Wire Line
	775  2715 985  2715
$Comp
L power:+3.3V #PWR0149
U 1 1 5FCED022
P 1980 3565
F 0 "#PWR0149" H 1980 3415 50  0001 C CNN
F 1 "+3.3V" H 1995 3738 50  0000 C CNN
F 2 "" H 1980 3565 50  0001 C CNN
F 3 "" H 1980 3565 50  0001 C CNN
	1    1980 3565
	1    0    0    -1  
$EndComp
Wire Wire Line
	1630 3630 1980 3630
Wire Wire Line
	1980 3565 1980 3630
Wire Wire Line
	8000 1925 8000 2035
Wire Wire Line
	8500 1925 8500 2035
Wire Wire Line
	9000 1925 9000 2035
NoConn ~ 7540 4930
Text HLabel 7565 4230 0    50   BiDi Italic 0
MOSI_MTX
Wire Notes Line
	7075 3025 10215 3025
Wire Notes Line
	7075 5475 10215 5475
Wire Notes Line
	7075 3025 7075 5475
Text GLabel 6235 4045 2    50   BiDi ~ 0
SDA
Text GLabel 6235 4145 2    50   BiDi ~ 0
SCL
Wire Wire Line
	5980 4145 6235 4145
Wire Wire Line
	5980 4045 6235 4045
Text GLabel 7565 4630 0    50   BiDi ~ 0
SDA
Text GLabel 7565 4530 0    50   BiDi ~ 0
SCL
Text GLabel 2030 4130 2    50   BiDi ~ 0
SDA
Text GLabel 1680 4030 2    50   BiDi ~ 0
SCL
Text GLabel 6080 4445 2    50   BiDi ~ 0
IO_26
Text GLabel 6080 4645 2    50   BiDi ~ 0
IO_32
Text GLabel 6080 4745 2    50   BiDi ~ 0
IO_33
Text HLabel 9565 4530 2    50   BiDi Italic 0
IO-23
Text HLabel 9565 4630 2    50   BiDi Italic 0
IO-25
Text HLabel 9565 4730 2    50   BiDi Italic 0
IO-34
Text HLabel 9565 4830 2    50   BiDi Italic 0
IO-35
$EndSCHEMATC
