EESchema Schematic File Version 4
EELAYER 30 0
EELAYER END
$Descr USLetter 11000 8500
encoding utf-8
Sheet 1 1
Title "RF CentineLoRa"
Date "2020-11-04"
Rev "0.1.2"
Comp "Universidad Sergio Arboleda"
Comment1 "Camilo Arzuza Bonett"
Comment2 ""
Comment3 ""
Comment4 ""
$EndDescr
$Comp
L RF_Module:ESP32-WROOM-32 U1
U 1 1 5F9CA04C
P 5380 3845
F 0 "U1" H 5530 5345 50  0000 C CNN
F 1 "ESP32-WROOM-32" H 5830 5245 50  0000 C CNN
F 2 "RF_Module:ESP32-WROOM-32" H 5380 2345 50  0001 C CNN
F 3 "https://www.espressif.com/sites/default/files/documentation/esp32-wroom-32_datasheet_en.pdf" H 5080 3895 50  0001 C CNN
	1    5380 3845
	1    0    0    -1  
$EndComp
Text HLabel 6080 2745 2    50   BiDi Italic 0
TxD
Text HLabel 6080 2945 2    50   BiDi Italic 0
RxD
Text HLabel 6080 2645 2    50   BiDi Italic 0
IO-0
Text HLabel 6080 3045 2    50   BiDi Italic 0
IO-4
Text HLabel 6080 3145 2    50   BiDi Italic 0
IO-5
Text HLabel 6080 3745 2    50   BiDi Italic 0
IO-17
Text HLabel 6080 3845 2    50   BiDi Italic 0
IO-18
Text HLabel 6080 3945 2    50   BiDi Italic 0
IO-19
Text HLabel 6080 4245 2    50   BiDi Italic 0
IO-23
Text HLabel 6080 4345 2    50   BiDi Italic 0
IO-25
Text HLabel 6080 4545 2    50   BiDi Italic 0
IO-27
Text HLabel 6080 4645 2    50   BiDi Italic 0
RFM_DIO2-32
Text HLabel 6080 4745 2    50   BiDi Italic 0
RFM_DIO1-33
Text HLabel 6080 4845 2    50   BiDi Italic 0
IO-34
Text HLabel 6080 4945 2    50   BiDi Italic 0
IO-35
Text HLabel 6080 4145 2    50   BiDi Italic 0
SCL
Text HLabel 6080 4045 2    50   BiDi Italic 0
SDA
$Comp
L power:GND #PWR0101
U 1 1 5F9D0EC1
P 5380 5345
F 0 "#PWR0101" H 5380 5095 50  0001 C CNN
F 1 "GND" H 5385 5172 50  0000 C CNN
F 2 "" H 5380 5345 50  0001 C CNN
F 3 "" H 5380 5345 50  0001 C CNN
	1    5380 5345
	1    0    0    -1  
$EndComp
$Comp
L power:+3.3V #PWR0102
U 1 1 5F9D16FC
P 4030 2045
F 0 "#PWR0102" H 4030 1895 50  0001 C CNN
F 1 "+3.3V" H 4045 2218 50  0000 C CNN
F 2 "" H 4030 2045 50  0001 C CNN
F 3 "" H 4030 2045 50  0001 C CNN
	1    4030 2045
	1    0    0    -1  
$EndComp
$Comp
L Device:C_Small C5
U 1 1 5F9D35AA
P 4030 2845
F 0 "C5" H 3780 2895 50  0000 L CNN
F 1 "100nF" H 3730 2795 50  0000 L CNN
F 2 "Capacitor_SMD:C_1206_3216Metric_Pad1.42x1.75mm_HandSolder" H 4030 2845 50  0001 C CNN
F 3 "~" H 4030 2845 50  0001 C CNN
	1    4030 2845
	1    0    0    -1  
$EndComp
$Comp
L Device:R_Small R1
U 1 1 5F9D4BFE
P 4030 2395
F 0 "R1" H 4089 2441 50  0000 L CNN
F 1 "10K" H 4089 2350 50  0000 L CNN
F 2 "Resistor_SMD:R_0603_1608Metric_Pad1.05x0.95mm_HandSolder" H 4030 2395 50  0001 C CNN
F 3 "~" H 4030 2395 50  0001 C CNN
	1    4030 2395
	1    0    0    -1  
$EndComp
$Comp
L power:GND #PWR0103
U 1 1 5F9D6FA6
P 4030 2995
F 0 "#PWR0103" H 4030 2745 50  0001 C CNN
F 1 "GND" H 4035 2822 50  0000 C CNN
F 2 "" H 4030 2995 50  0001 C CNN
F 3 "" H 4030 2995 50  0001 C CNN
	1    4030 2995
	1    0    0    -1  
$EndComp
Wire Wire Line
	4030 2495 4030 2645
$Comp
L Device:C_Small C3
U 1 1 5F9EB73A
P 2055 2485
F 0 "C3" V 2245 2430 50  0000 L CNN
F 1 "100nF" V 2160 2360 50  0000 L CNN
F 2 "Capacitor_SMD:C_1206_3216Metric_Pad1.42x1.75mm_HandSolder" H 2055 2485 50  0001 C CNN
F 3 "~" H 2055 2485 50  0001 C CNN
	1    2055 2485
	0    -1   -1   0   
$EndComp
$Comp
L Device:C_Small C4
U 1 1 5F9EBD10
P 2055 1985
F 0 "C4" V 2265 1930 50  0000 L CNN
F 1 "100nF" V 2170 1860 50  0000 L CNN
F 2 "Capacitor_SMD:C_1206_3216Metric_Pad1.42x1.75mm_HandSolder" H 2055 1985 50  0001 C CNN
F 3 "~" H 2055 1985 50  0001 C CNN
	1    2055 1985
	0    -1   -1   0   
$EndComp
$Comp
L power:GND #PWR0108
U 1 1 5F9EDEF5
P 2305 2485
F 0 "#PWR0108" H 2305 2235 50  0001 C CNN
F 1 "GND" H 2310 2312 50  0000 C CNN
F 2 "" H 2305 2485 50  0001 C CNN
F 3 "" H 2305 2485 50  0001 C CNN
	1    2305 2485
	1    0    0    -1  
$EndComp
$Comp
L power:GND #PWR0109
U 1 1 5F9EE324
P 3210 1985
F 0 "#PWR0109" H 3210 1735 50  0001 C CNN
F 1 "GND" H 3215 1812 50  0000 C CNN
F 2 "" H 3210 1985 50  0001 C CNN
F 3 "" H 3210 1985 50  0001 C CNN
	1    3210 1985
	1    0    0    -1  
$EndComp
$Comp
L power:+3.3V #PWR0111
U 1 1 5F9EEC48
P 1805 1985
F 0 "#PWR0111" H 1805 1835 50  0001 C CNN
F 1 "+3.3V" H 1710 2140 50  0000 C CNN
F 2 "" H 1805 1985 50  0001 C CNN
F 3 "" H 1805 1985 50  0001 C CNN
	1    1805 1985
	1    0    0    -1  
$EndComp
Wire Wire Line
	1805 1985 1955 1985
Wire Wire Line
	1805 2485 1955 2485
Wire Wire Line
	2155 2485 2305 2485
Wire Wire Line
	5380 5245 5380 5345
Wire Wire Line
	4680 2845 4780 2845
Wire Wire Line
	4680 2945 4780 2945
Wire Wire Line
	4680 3845 4780 3845
Wire Wire Line
	4680 3945 4780 3945
Wire Wire Line
	4680 4045 4780 4045
Wire Wire Line
	4680 4145 4780 4145
Wire Wire Line
	4680 4245 4780 4245
Wire Wire Line
	4680 4345 4780 4345
Wire Wire Line
	5980 2645 6080 2645
Wire Wire Line
	5980 2745 6080 2745
Wire Wire Line
	6080 2845 5980 2845
Wire Wire Line
	6080 2945 5980 2945
Wire Wire Line
	6080 3045 5980 3045
Wire Wire Line
	6080 3145 5980 3145
Wire Wire Line
	6080 3545 5980 3545
Wire Wire Line
	5980 3645 6080 3645
Wire Wire Line
	6080 3745 5980 3745
Wire Wire Line
	6080 3845 5980 3845
Wire Wire Line
	6080 3945 5980 3945
Wire Wire Line
	6080 4045 5980 4045
Wire Wire Line
	6080 4145 5980 4145
Wire Wire Line
	6080 4245 5980 4245
Wire Wire Line
	6080 4345 5980 4345
Wire Wire Line
	6080 4545 5980 4545
Wire Wire Line
	6080 4645 5980 4645
Wire Wire Line
	6080 4745 5980 4745
Wire Wire Line
	6080 4845 5980 4845
Wire Wire Line
	6080 4945 5980 4945
Text HLabel 3930 2645 0    50   Input Italic 0
RESET
Wire Notes Line
	515  6175 515  1375
Text Notes 3440 1575 2    50   Italic 0
Capacitores de Desacople Local -- C9 y C10 Desacople para microSD
Text Notes 4130 1745 0    50   Italic 0
Modulo ESP32-WROOM con salida a pin de RESET
Text Notes 2625 825  0    118  Italic 24
ESP32-WROOM Block\n
Wire Wire Line
	5380 2145 5380 2445
$Comp
L power:+3.3V #PWR0112
U 1 1 5F9F6C53
P 9565 3330
F 0 "#PWR0112" H 9565 3180 50  0001 C CNN
F 1 "+3.3V" H 9580 3503 50  0000 C CNN
F 2 "" H 9565 3330 50  0001 C CNN
F 3 "" H 9565 3330 50  0001 C CNN
	1    9565 3330
	1    0    0    -1  
$EndComp
$Comp
L power:GND #PWR0113
U 1 1 5F9F7EB5
P 9615 5130
F 0 "#PWR0113" H 9615 4880 50  0001 C CNN
F 1 "GND" H 9620 4957 50  0000 C CNN
F 2 "" H 9615 5130 50  0001 C CNN
F 3 "" H 9615 5130 50  0001 C CNN
	1    9615 5130
	1    0    0    -1  
$EndComp
Wire Wire Line
	9465 3430 9565 3430
Wire Wire Line
	9565 3430 9565 3330
Wire Wire Line
	9465 5030 9615 5030
Wire Wire Line
	9615 5030 9615 5130
$Comp
L Device:C_Small C6
U 1 1 5FA13DB2
P 8750 2125
F 0 "C6" H 8842 2171 50  0000 L CNN
F 1 "100nF" H 8842 2080 50  0000 L CNN
F 2 "Capacitor_SMD:C_1206_3216Metric_Pad1.42x1.75mm_HandSolder" H 8750 2125 50  0001 C CNN
F 3 "~" H 8750 2125 50  0001 C CNN
	1    8750 2125
	1    0    0    -1  
$EndComp
$Comp
L Device:C_Small C7
U 1 1 5FA15196
P 9250 2125
F 0 "C7" H 9342 2171 50  0000 L CNN
F 1 "100nF" H 9342 2080 50  0000 L CNN
F 2 "Capacitor_SMD:C_1206_3216Metric_Pad1.42x1.75mm_HandSolder" H 9250 2125 50  0001 C CNN
F 3 "~" H 9250 2125 50  0001 C CNN
	1    9250 2125
	1    0    0    -1  
$EndComp
$Comp
L power:+3.3V #PWR0114
U 1 1 5FA15488
P 8750 1925
F 0 "#PWR0114" H 8750 1775 50  0001 C CNN
F 1 "+3.3V" H 8765 2098 50  0000 C CNN
F 2 "" H 8750 1925 50  0001 C CNN
F 3 "" H 8750 1925 50  0001 C CNN
	1    8750 1925
	1    0    0    -1  
$EndComp
$Comp
L power:+3.3V #PWR0115
U 1 1 5FA159E4
P 9250 1925
F 0 "#PWR0115" H 9250 1775 50  0001 C CNN
F 1 "+3.3V" H 9265 2098 50  0000 C CNN
F 2 "" H 9250 1925 50  0001 C CNN
F 3 "" H 9250 1925 50  0001 C CNN
	1    9250 1925
	1    0    0    -1  
$EndComp
$Comp
L power:GND #PWR0116
U 1 1 5FA15FA1
P 8750 2325
F 0 "#PWR0116" H 8750 2075 50  0001 C CNN
F 1 "GND" H 8755 2152 50  0000 C CNN
F 2 "" H 8750 2325 50  0001 C CNN
F 3 "" H 8750 2325 50  0001 C CNN
	1    8750 2325
	1    0    0    -1  
$EndComp
$Comp
L power:GND #PWR0117
U 1 1 5FA164DB
P 9250 2325
F 0 "#PWR0117" H 9250 2075 50  0001 C CNN
F 1 "GND" H 9255 2152 50  0000 C CNN
F 2 "" H 9250 2325 50  0001 C CNN
F 3 "" H 9250 2325 50  0001 C CNN
	1    9250 2325
	1    0    0    -1  
$EndComp
Wire Wire Line
	8750 1925 8750 2025
Wire Wire Line
	8750 2225 8750 2325
Wire Wire Line
	9250 2325 9250 2225
Wire Wire Line
	9250 2025 9250 1925
$Comp
L Device:C_Small C8
U 1 1 5FA2A2D1
P 9750 2125
F 0 "C8" H 9842 2171 50  0000 L CNN
F 1 "4.7uF" H 9842 2080 50  0000 L CNN
F 2 "Capacitor_SMD:C_Elec_3x5.4" H 9750 2125 50  0001 C CNN
F 3 "~" H 9750 2125 50  0001 C CNN
	1    9750 2125
	1    0    0    -1  
$EndComp
$Comp
L power:+3.3V #PWR0118
U 1 1 5FA2A607
P 9750 1925
F 0 "#PWR0118" H 9750 1775 50  0001 C CNN
F 1 "+3.3V" H 9765 2098 50  0000 C CNN
F 2 "" H 9750 1925 50  0001 C CNN
F 3 "" H 9750 1925 50  0001 C CNN
	1    9750 1925
	1    0    0    -1  
$EndComp
$Comp
L power:GND #PWR0119
U 1 1 5FA2AD61
P 9750 2325
F 0 "#PWR0119" H 9750 2075 50  0001 C CNN
F 1 "GND" H 9755 2152 50  0000 C CNN
F 2 "" H 9750 2325 50  0001 C CNN
F 3 "" H 9750 2325 50  0001 C CNN
	1    9750 2325
	1    0    0    -1  
$EndComp
Wire Wire Line
	9750 2325 9750 2225
Wire Wire Line
	9750 2025 9750 1925
Text HLabel 6080 3645 2    50   BiDi Italic 0
RFM_CS
$Comp
L Connector:Conn_Coaxial J1
U 1 1 5FA3DE91
P 7770 2020
F 0 "J1" H 7870 1995 50  0000 L CNN
F 1 "Conn_Coaxial" H 7870 1904 50  0000 L CNN
F 2 "Connector_Coaxial:SMA_Molex_73251-1153_EdgeMount_Horizontal" H 7770 2020 50  0001 C CNN
F 3 " ~" H 7770 2020 50  0001 C CNN
	1    7770 2020
	1    0    0    -1  
$EndComp
Text HLabel 7470 2020 0    50   BiDi ~ 0
ANT1
$Comp
L power:GND #PWR0120
U 1 1 5FA3F955
P 7770 2320
F 0 "#PWR0120" H 7770 2070 50  0001 C CNN
F 1 "GND" H 7775 2147 50  0000 C CNN
F 2 "" H 7770 2320 50  0001 C CNN
F 3 "" H 7770 2320 50  0001 C CNN
	1    7770 2320
	1    0    0    -1  
$EndComp
Wire Wire Line
	7770 2320 7770 2220
Wire Wire Line
	7470 2020 7570 2020
Text Notes 7320 1870 0    50   Italic 0
Usar Conector RP-SMA
Wire Notes Line
	10100 1675 8550 1675
Wire Notes Line
	8550 1675 8550 2575
Wire Notes Line
	8550 2575 10100 2575
Wire Notes Line
	10100 2575 10100 1675
Wire Notes Line
	7200 1675 8400 1675
Wire Notes Line
	8400 2575 7200 2575
Text Notes 8700 1625 0    50   Italic 0
Capacitores de Desacople Local
Text Notes 7425 2965 0    50   Italic 0
Modulo MTXDOT-NA1 - con pin hacia RESET - Socalo u.FL Incluido
Text Notes 7500 1625 0    50   Italic 0
Antena RFM95
Wire Notes Line
	10400 1375 10400 5775
Text Notes 7750 875  0    118  Italic 24
RFM95W LoRa Block
Text HLabel 6080 3545 2    50   BiDi ~ 0
IO-15
Text HLabel 6080 2845 2    50   BiDi ~ 0
IO-2
Wire Wire Line
	4030 2045 4030 2145
Wire Wire Line
	4780 2645 4030 2645
Wire Wire Line
	3930 2645 4030 2645
Connection ~ 4030 2645
Wire Wire Line
	4030 2645 4030 2745
Wire Wire Line
	4030 2945 4030 2995
Wire Wire Line
	5380 2145 4030 2145
Connection ~ 4030 2145
Wire Wire Line
	4030 2145 4030 2295
Text HLabel 4680 2845 0    50   BiDi ~ 0
SENS_VP
Text HLabel 4680 2945 0    50   BiDi ~ 0
SENS_VN
Text HLabel 4680 3845 0    50   BiDi ~ 0
SDO
Text HLabel 4680 3945 0    50   BiDi ~ 0
SD1
Text HLabel 4680 4045 0    50   BiDi ~ 0
SD2
Text HLabel 4680 4145 0    50   BiDi ~ 0
SD3
Text HLabel 4680 4245 0    50   BiDi ~ 0
CLK
Text HLabel 4680 4345 0    50   BiDi ~ 0
CMD
Text Notes 3980 4245 0    50   ~ 0
Pads y\nTestpoints\npara Flash\nIntegrada
Text Notes 7500 1225 0    50   ~ 0
Se usa una pista curva en el PCB para un conector SMA \nen el borde de la placa, lo mas cercano posible del modulo LoRa.
Text Notes 2325 1225 0    50   ~ 0
Todo pin tendra una via como Testpoint y Todo pin que no se use\nestara conectado a un pad para soldar Pin Headers, si el usuario final\ndesea agregar elementos de Ingeneria extra al producto final
Wire Notes Line
	8400 1675 8400 2575
Wire Notes Line
	7200 1675 7200 2575
Wire Notes Line
	3580 1795 3580 5895
Wire Notes Line
	6680 1795 3580 1795
Wire Notes Line
	7200 5475 7200 3025
Wire Notes Line
	6950 1375 10400 1375
Wire Notes Line
	10400 5775 6950 5775
Wire Notes Line
	6950 1375 6950 5775
Wire Notes Line
	6845 1375 6845 6175
Wire Wire Line
	6080 4445 5980 4445
Text HLabel 6080 4445 2    50   BiDi Italic 0
INT-26_DIO-0
Wire Wire Line
	6080 3245 5980 3245
Text HLabel 6080 3245 2    50   BiDi Italic 0
MISO
Wire Wire Line
	6080 3445 5980 3445
Text HLabel 6080 3445 2    50   BiDi Italic 0
SCK
Wire Wire Line
	6080 3345 5980 3345
Text HLabel 6080 3345 2    50   BiDi Italic 0
MOSI
$Comp
L Connector:Conn_01x04_Male J2
U 1 1 5FAFF858
P 1300 7250
F 0 "J2" H 1410 7550 50  0000 C CNN
F 1 "Conn_01x04_Male" H 1410 7460 50  0000 C CNN
F 2 "" H 1300 7250 50  0001 C CNN
F 3 "~" H 1300 7250 50  0001 C CNN
	1    1300 7250
	1    0    0    -1  
$EndComp
$Comp
L Device:R_Small R2
U 1 1 5FB06D8F
P 2000 6900
F 0 "R2" H 2059 6946 50  0000 L CNN
F 1 "10K" H 2059 6855 50  0000 L CNN
F 2 "Resistor_SMD:R_0603_1608Metric_Pad1.05x0.95mm_HandSolder" H 2000 6900 50  0001 C CNN
F 3 "~" H 2000 6900 50  0001 C CNN
	1    2000 6900
	1    0    0    -1  
$EndComp
$Comp
L Device:R_Small R3
U 1 1 5FB087C7
P 2350 6900
F 0 "R3" H 2409 6946 50  0000 L CNN
F 1 "10K" H 2409 6855 50  0000 L CNN
F 2 "Resistor_SMD:R_0603_1608Metric_Pad1.05x0.95mm_HandSolder" H 2350 6900 50  0001 C CNN
F 3 "~" H 2350 6900 50  0001 C CNN
	1    2350 6900
	1    0    0    -1  
$EndComp
Wire Wire Line
	1500 7150 2000 7150
Wire Wire Line
	2000 7150 2000 7000
Wire Wire Line
	1500 7250 2350 7250
Wire Wire Line
	2350 7250 2350 7000
$Comp
L power:+3.3V #PWR?
U 1 1 5FB146DF
P 2200 6700
F 0 "#PWR?" H 2200 6550 50  0001 C CNN
F 1 "+3.3V" H 2215 6873 50  0000 C CNN
F 2 "" H 2200 6700 50  0001 C CNN
F 3 "" H 2200 6700 50  0001 C CNN
	1    2200 6700
	1    0    0    -1  
$EndComp
Wire Wire Line
	2000 6800 2000 6750
Wire Wire Line
	2350 6750 2350 6800
Wire Wire Line
	2000 6750 2200 6750
Wire Wire Line
	2200 6700 2200 6750
Connection ~ 2200 6750
Wire Wire Line
	2200 6750 2350 6750
Text HLabel 2400 7250 2    50   BiDi ~ 0
SDA
Text HLabel 2050 7150 2    50   BiDi ~ 0
SCL
Wire Wire Line
	2000 7150 2050 7150
Connection ~ 2000 7150
Wire Wire Line
	2400 7250 2350 7250
Connection ~ 2350 7250
$Comp
L power:GND #PWR?
U 1 1 5FB29165
P 1600 7550
F 0 "#PWR?" H 1600 7300 50  0001 C CNN
F 1 "GND" H 1605 7377 50  0000 C CNN
F 2 "" H 1600 7550 50  0001 C CNN
F 3 "" H 1600 7550 50  0001 C CNN
	1    1600 7550
	1    0    0    -1  
$EndComp
Wire Wire Line
	1600 7550 1600 7450
Wire Wire Line
	1600 7450 1500 7450
Wire Notes Line
	2850 7800 2850 6450
Wire Notes Line
	2850 6450 1050 6450
Wire Notes Line
	1050 6450 1050 7800
Wire Notes Line
	1050 7800 2850 7800
$Comp
L Device:R_Small R4
U 1 1 5FB4864A
P 3700 6675
F 0 "R4" V 3860 6625 50  0000 L CNN
F 1 "1K" V 3780 6625 50  0000 L CNN
F 2 "Resistor_SMD:R_0603_1608Metric_Pad1.05x0.95mm_HandSolder" H 3700 6675 50  0001 C CNN
F 3 "~" H 3700 6675 50  0001 C CNN
	1    3700 6675
	0    -1   -1   0   
$EndComp
Wire Wire Line
	2350 6750 2680 6750
Wire Wire Line
	2680 6750 2680 7350
Wire Wire Line
	2680 7350 1500 7350
Connection ~ 2350 6750
$Comp
L power:GND #PWR?
U 1 1 5FB5F3D4
P 3925 7200
F 0 "#PWR?" H 3925 6950 50  0001 C CNN
F 1 "GND" H 3930 7027 50  0000 C CNN
F 2 "" H 3925 7200 50  0001 C CNN
F 3 "" H 3925 7200 50  0001 C CNN
	1    3925 7200
	1    0    0    -1  
$EndComp
Wire Wire Line
	3800 6675 3925 6675
Wire Wire Line
	3925 6675 3925 6800
$Comp
L Device:LED_ALT D1
U 1 1 5FB5DBF4
P 3925 6950
F 0 "D1" V 3964 6832 50  0000 R CNN
F 1 "GREEN" V 3873 6832 50  0000 R CNN
F 2 "" H 3925 6950 50  0001 C CNN
F 3 "~" H 3925 6950 50  0001 C CNN
	1    3925 6950
	0    -1   -1   0   
$EndComp
Wire Wire Line
	3925 7100 3925 7200
Text HLabel 3450 6675 0    50   BiDi Italic 0
IO-23
Wire Wire Line
	3450 6675 3600 6675
Wire Notes Line
	4375 6425 4375 7425
Wire Notes Line
	4375 7425 3100 7425
Wire Notes Line
	3100 7425 3100 6425
Wire Notes Line
	3100 6425 4375 6425
Text Notes 3300 6375 0    50   Italic 0
LED Indicador GPIO23
Text Notes 1700 6375 0    50   Italic 0
Fuente Bus I2C
$Comp
L Switch:SW_Push SW1
U 1 1 5FBD9F3C
P 5400 6950
F 0 "SW1" H 5400 7235 50  0000 C CNN
F 1 "SW_Push" H 5400 7144 50  0000 C CNN
F 2 "" H 5400 7150 50  0001 C CNN
F 3 "~" H 5400 7150 50  0001 C CNN
	1    5400 6950
	1    0    0    -1  
$EndComp
$Comp
L power:GND #PWR?
U 1 1 5FBDFC4A
P 5725 7200
F 0 "#PWR?" H 5725 6950 50  0001 C CNN
F 1 "GND" H 5730 7027 50  0000 C CNN
F 2 "" H 5725 7200 50  0001 C CNN
F 3 "" H 5725 7200 50  0001 C CNN
	1    5725 7200
	1    0    0    -1  
$EndComp
Text HLabel 5025 6950 0    50   Input Italic 0
RESET
Wire Wire Line
	5025 6950 5200 6950
Wire Wire Line
	5725 7200 5725 6950
Wire Wire Line
	5725 6950 5600 6950
Wire Notes Line
	4675 6425 4675 7425
Wire Notes Line
	4675 7425 5850 7425
Wire Notes Line
	5850 7425 5850 6425
Wire Notes Line
	5850 6425 4675 6425
Text Notes 5025 6375 0    50   Italic 0
Boton RESET
$Comp
L power:GND #PWR0107
U 1 1 5F9D75B3
P 1380 2485
F 0 "#PWR0107" H 1380 2235 50  0001 C CNN
F 1 "GND" H 1385 2312 50  0000 C CNN
F 2 "" H 1380 2485 50  0001 C CNN
F 3 "" H 1380 2485 50  0001 C CNN
	1    1380 2485
	1    0    0    -1  
$EndComp
$Comp
L power:GND #PWR0106
U 1 1 5F9D7B5B
P 1380 1985
F 0 "#PWR0106" H 1380 1735 50  0001 C CNN
F 1 "GND" H 1385 1812 50  0000 C CNN
F 2 "" H 1380 1985 50  0001 C CNN
F 3 "" H 1380 1985 50  0001 C CNN
	1    1380 1985
	1    0    0    -1  
$EndComp
Wire Wire Line
	1280 1985 1380 1985
Wire Wire Line
	1280 2485 1380 2485
Wire Wire Line
	980  2485 1080 2485
Wire Wire Line
	980  1985 1080 1985
$Comp
L power:+3.3V #PWR0105
U 1 1 5F9D8F03
P 980 2485
F 0 "#PWR0105" H 980 2335 50  0001 C CNN
F 1 "+3.3V" H 890 2635 50  0000 C CNN
F 2 "" H 980 2485 50  0001 C CNN
F 3 "" H 980 2485 50  0001 C CNN
	1    980  2485
	1    0    0    -1  
$EndComp
$Comp
L Device:C_Small C1
U 1 1 5F9D8256
P 1180 2485
F 0 "C1" V 1385 2430 50  0000 L CNN
F 1 "100nF" V 1290 2360 50  0000 L CNN
F 2 "Capacitor_SMD:C_1206_3216Metric_Pad1.42x1.75mm_HandSolder" H 1180 2485 50  0001 C CNN
F 3 "~" H 1180 2485 50  0001 C CNN
	1    1180 2485
	0    -1   -1   0   
$EndComp
$Comp
L Device:C_Small C2
U 1 1 5F9D7EA5
P 1180 1985
F 0 "C2" V 1375 1925 50  0000 L CNN
F 1 "10uF" V 1290 1885 50  0000 L CNN
F 2 "Capacitor_SMD:C_Elec_3x5.4" H 1180 1985 50  0001 C CNN
F 3 "~" H 1180 1985 50  0001 C CNN
	1    1180 1985
	0    -1   -1   0   
$EndComp
$Comp
L power:+3.3V #PWR0110
U 1 1 5F9EE5C7
P 1805 2485
F 0 "#PWR0110" H 1805 2335 50  0001 C CNN
F 1 "+3.3V" H 1710 2635 50  0000 C CNN
F 2 "" H 1805 2485 50  0001 C CNN
F 3 "" H 1805 2485 50  0001 C CNN
	1    1805 2485
	1    0    0    -1  
$EndComp
$Comp
L power:+3.3V #PWR0104
U 1 1 5F9D85CB
P 980 1985
F 0 "#PWR0104" H 980 1835 50  0001 C CNN
F 1 "+3.3V" H 890 2135 50  0000 C CNN
F 2 "" H 980 1985 50  0001 C CNN
F 3 "" H 980 1985 50  0001 C CNN
	1    980  1985
	1    0    0    -1  
$EndComp
Wire Notes Line
	685  1635 685  2760
Wire Notes Line
	3415 1635 3415 2760
$Comp
L power:GND #PWR?
U 1 1 5FAF10D2
P 3330 4565
F 0 "#PWR?" H 3330 4315 50  0001 C CNN
F 1 "GND" H 3335 4392 50  0000 C CNN
F 2 "" H 3330 4565 50  0001 C CNN
F 3 "" H 3330 4565 50  0001 C CNN
	1    3330 4565
	1    0    0    -1  
$EndComp
$Comp
L Connector:Micro_SD_Card_Det J2
U 1 1 5FB70CA1
P 2490 3905
F 0 "J2" H 2440 4722 50  0000 C CNN
F 1 "Micro_SD_Card_Det" H 2440 4631 50  0000 C CNN
F 2 "" H 4540 4605 50  0001 C CNN
F 3 "https://www.hirose.com/product/en/download_file/key_name/DM3/category/Catalog/doc_file_id/49662/?file_category_id=4&item_id=195&is_series=1" H 2490 4005 50  0001 C CNN
	1    2490 3905
	1    0    0    -1  
$EndComp
Wire Wire Line
	3330 4405 3290 4405
Wire Wire Line
	3330 4405 3330 4565
$Comp
L 4xxx:4050 U3
U 7 1 5FBBAC30
P 7605 6395
F 0 "U3" V 7238 6395 50  0000 C CNN
F 1 "4050" V 7329 6395 50  0000 C CNN
F 2 "" H 7605 6395 50  0001 C CNN
F 3 "http://www.intersil.com/content/dam/intersil/documents/cd40/cd4050bms.pdf" H 7605 6395 50  0001 C CNN
	7    7605 6395
	0    1    1    0   
$EndComp
$Comp
L 4xxx:4050 U3
U 1 1 5FBC7A34
P 1980 5375
F 0 "U3" V 2026 5195 50  0000 R CNN
F 1 "4050" V 1935 5195 50  0000 R CNN
F 2 "" H 1980 5375 50  0001 C CNN
F 3 "http://www.intersil.com/content/dam/intersil/documents/cd40/cd4050bms.pdf" H 1980 5375 50  0001 C CNN
	1    1980 5375
	0    -1   -1   0   
$EndComp
$Comp
L 4xxx:4050 U3
U 2 1 5FBE940A
P 1410 5375
F 0 "U3" V 1456 5195 50  0000 R CNN
F 1 "4050" V 1365 5195 50  0000 R CNN
F 2 "" H 1410 5375 50  0001 C CNN
F 3 "http://www.intersil.com/content/dam/intersil/documents/cd40/cd4050bms.pdf" H 1410 5375 50  0001 C CNN
	2    1410 5375
	0    -1   -1   0   
$EndComp
$Comp
L 4xxx:4050 U3
U 3 1 5FC03AD4
P 870 5375
F 0 "U3" V 916 5195 50  0000 R CNN
F 1 "4050" V 825 5195 50  0000 R CNN
F 2 "" H 870 5375 50  0001 C CNN
F 3 "http://www.intersil.com/content/dam/intersil/documents/cd40/cd4050bms.pdf" H 870 5375 50  0001 C CNN
	3    870  5375
	0    -1   -1   0   
$EndComp
Wire Wire Line
	870  5075 870  4800
Wire Wire Line
	870  3605 1590 3605
Wire Wire Line
	1410 5075 1410 4915
Wire Wire Line
	1410 4915 970  4915
Wire Wire Line
	970  4915 970  3705
Wire Wire Line
	970  3705 1590 3705
Wire Wire Line
	1980 5075 1980 4835
Wire Wire Line
	1980 4835 1080 4835
Wire Wire Line
	1080 4835 1080 3905
Wire Wire Line
	1080 3905 1590 3905
$Comp
L power:GND #PWR?
U 1 1 5FC1CB17
P 1400 4005
F 0 "#PWR?" H 1400 3755 50  0001 C CNN
F 1 "GND" V 1405 3877 50  0000 R CNN
F 2 "" H 1400 4005 50  0001 C CNN
F 3 "" H 1400 4005 50  0001 C CNN
	1    1400 4005
	0    1    1    0   
$EndComp
Text HLabel 1530 3505 0    50   BiDi ~ 0
DAT2
Text HLabel 1530 4205 0    50   BiDi ~ 0
DAT1
Wire Wire Line
	1530 4205 1590 4205
Wire Wire Line
	1530 3505 1590 3505
$Comp
L power:+3.3V #PWR?
U 1 1 5FC66047
P 1350 3805
F 0 "#PWR?" H 1350 3655 50  0001 C CNN
F 1 "+3.3V" V 1340 4035 50  0000 C CNN
F 2 "" H 1350 3805 50  0001 C CNN
F 3 "" H 1350 3805 50  0001 C CNN
	1    1350 3805
	0    -1   -1   0   
$EndComp
Wire Wire Line
	1350 3805 1590 3805
$Comp
L power:+3.3V #PWR?
U 1 1 5FC6E4D4
P 7045 6235
F 0 "#PWR?" H 7045 6085 50  0001 C CNN
F 1 "+3.3V" H 7025 6395 50  0000 C CNN
F 2 "" H 7045 6235 50  0001 C CNN
F 3 "" H 7045 6235 50  0001 C CNN
	1    7045 6235
	1    0    0    -1  
$EndComp
$Comp
L power:GND #PWR?
U 1 1 5FC6F0C8
P 8195 6465
F 0 "#PWR?" H 8195 6215 50  0001 C CNN
F 1 "GND" H 8195 6295 50  0000 C CNN
F 2 "" H 8195 6465 50  0001 C CNN
F 3 "" H 8195 6465 50  0001 C CNN
	1    8195 6465
	1    0    0    -1  
$EndComp
Wire Wire Line
	1530 4105 1590 4105
Text HLabel 1530 4305 0    50   BiDi ~ 0
CD_1
Wire Wire Line
	1530 4305 1590 4305
Text HLabel 1530 4405 0    50   BiDi ~ 0
CD_2
Wire Wire Line
	1530 4405 1590 4405
Wire Wire Line
	8195 6395 8105 6395
Wire Wire Line
	8195 6395 8195 6465
Wire Wire Line
	7045 6395 7105 6395
Wire Wire Line
	7045 6235 7045 6395
$Comp
L 4xxx:4050 U3
U 4 1 5FCE1C15
P 2570 5375
F 0 "U3" V 2616 5195 50  0000 R CNN
F 1 "4050" V 2525 5195 50  0000 R CNN
F 2 "" H 2570 5375 50  0001 C CNN
F 3 "http://www.intersil.com/content/dam/intersil/documents/cd40/cd4050bms.pdf" H 2570 5375 50  0001 C CNN
	4    2570 5375
	0    -1   -1   0   
$EndComp
$Comp
L Device:C_Small C9
U 1 1 5FD05A33
P 2970 1985
F 0 "C9" V 3165 1925 50  0000 L CNN
F 1 "10uF" V 3080 1885 50  0000 L CNN
F 2 "Capacitor_SMD:C_Elec_3x5.4" H 2970 1985 50  0001 C CNN
F 3 "~" H 2970 1985 50  0001 C CNN
	1    2970 1985
	0    -1   -1   0   
$EndComp
$Comp
L Device:C_Small C10
U 1 1 5FD061C5
P 2970 2495
F 0 "C10" V 3165 2435 50  0000 L CNN
F 1 "100nF" V 3080 2375 50  0000 L CNN
F 2 "Capacitor_SMD:C_Elec_3x5.4" H 2970 2495 50  0001 C CNN
F 3 "~" H 2970 2495 50  0001 C CNN
	1    2970 2495
	0    -1   -1   0   
$EndComp
$Comp
L power:+3.3V #PWR?
U 1 1 5FD21F02
P 2730 1985
F 0 "#PWR?" H 2730 1835 50  0001 C CNN
F 1 "+3.3V" H 2635 2140 50  0000 C CNN
F 2 "" H 2730 1985 50  0001 C CNN
F 3 "" H 2730 1985 50  0001 C CNN
	1    2730 1985
	1    0    0    -1  
$EndComp
$Comp
L power:+3.3V #PWR?
U 1 1 5FD22557
P 2730 2495
F 0 "#PWR?" H 2730 2345 50  0001 C CNN
F 1 "+3.3V" H 2635 2650 50  0000 C CNN
F 2 "" H 2730 2495 50  0001 C CNN
F 3 "" H 2730 2495 50  0001 C CNN
	1    2730 2495
	1    0    0    -1  
$EndComp
$Comp
L power:GND #PWR?
U 1 1 5FD22A7F
P 3210 2495
F 0 "#PWR?" H 3210 2245 50  0001 C CNN
F 1 "GND" H 3215 2322 50  0000 C CNN
F 2 "" H 3210 2495 50  0001 C CNN
F 3 "" H 3210 2495 50  0001 C CNN
	1    3210 2495
	1    0    0    -1  
$EndComp
Wire Wire Line
	2155 1985 2305 1985
$Comp
L power:GND #PWR?
U 1 1 5FD247D2
P 2305 1985
F 0 "#PWR?" H 2305 1735 50  0001 C CNN
F 1 "GND" H 2310 1812 50  0000 C CNN
F 2 "" H 2305 1985 50  0001 C CNN
F 3 "" H 2305 1985 50  0001 C CNN
	1    2305 1985
	1    0    0    -1  
$EndComp
Wire Wire Line
	2730 1985 2870 1985
Wire Wire Line
	3070 1985 3210 1985
Wire Wire Line
	2870 2495 2730 2495
Wire Wire Line
	3070 2495 3210 2495
Wire Notes Line
	685  1635 3415 1635
Wire Notes Line
	685  2760 3415 2760
Wire Wire Line
	2570 5725 2570 5675
Wire Wire Line
	1980 5725 2570 5725
Wire Wire Line
	1980 5675 1980 5725
$Comp
L Device:R_Small R5
U 1 1 5FDC6FE9
P 2855 4840
F 0 "R5" V 3015 4790 50  0000 L CNN
F 1 "1K" V 2935 4790 50  0000 L CNN
F 2 "Resistor_SMD:R_0603_1608Metric_Pad1.05x0.95mm_HandSolder" H 2855 4840 50  0001 C CNN
F 3 "~" H 2855 4840 50  0001 C CNN
	1    2855 4840
	0    -1   -1   0   
$EndComp
$Comp
L Device:LED_ALT D2
U 1 1 5FDD0B99
P 3120 5275
F 0 "D2" V 3159 5157 50  0000 R CNN
F 1 "RED" V 3068 5157 50  0000 R CNN
F 2 "" H 3120 5275 50  0001 C CNN
F 3 "~" H 3120 5275 50  0001 C CNN
	1    3120 5275
	0    -1   -1   0   
$EndComp
Wire Wire Line
	2955 4840 3120 4840
Wire Wire Line
	3120 5975 680  5975
Wire Wire Line
	680  4800 870  4800
Connection ~ 870  4800
Wire Wire Line
	870  4800 870  3605
Wire Wire Line
	2755 4840 2570 4840
Wire Wire Line
	2570 4840 2570 5075
Wire Wire Line
	3120 4840 3120 5125
Wire Notes Line
	515  1375 6845 1375
Wire Notes Line
	515  6175 6845 6175
Wire Wire Line
	3120 5425 3120 5975
Wire Wire Line
	680  4800 680  5975
Text HLabel 1530 4105 0    50   BiDi ~ 0
DAT_OUT
Wire Wire Line
	1590 4005 1400 4005
Text HLabel 1440 5785 2    50   BiDi ~ 0
DAT_IN
Wire Wire Line
	1440 5785 1410 5785
Wire Wire Line
	1410 5785 1410 5675
Text HLabel 905  5785 2    50   BiDi ~ 0
CS
Wire Wire Line
	870  5675 870  5785
Wire Wire Line
	870  5785 905  5785
Text HLabel 2055 5845 2    50   BiDi ~ 0
SD_CLK
Wire Wire Line
	1980 5725 1980 5845
Wire Wire Line
	1980 5845 2055 5845
Connection ~ 1980 5725
Wire Notes Line
	3440 3035 3440 6030
Wire Notes Line
	3440 6030 615  6030
Wire Notes Line
	615  6030 615  3035
Wire Notes Line
	615  3035 3440 3035
Text Notes 2355 2995 2    50   Italic 0
Modulo microSD
$Comp
L 4xxx:4050 U3
U 5 1 5FF8C027
P 8890 6395
F 0 "U3" H 8890 6712 50  0000 C CNN
F 1 "4050" H 8890 6621 50  0000 C CNN
F 2 "" H 8890 6395 50  0001 C CNN
F 3 "http://www.intersil.com/content/dam/intersil/documents/cd40/cd4050bms.pdf" H 8890 6395 50  0001 C CNN
	5    8890 6395
	1    0    0    -1  
$EndComp
$Comp
L power:GND #PWR?
U 1 1 5FFAB82A
P 9310 6465
F 0 "#PWR?" H 9310 6215 50  0001 C CNN
F 1 "GND" H 9310 6295 50  0000 C CNN
F 2 "" H 9310 6465 50  0001 C CNN
F 3 "" H 9310 6465 50  0001 C CNN
	1    9310 6465
	1    0    0    -1  
$EndComp
$Comp
L power:GND #PWR?
U 1 1 5FFABCCE
P 10330 6465
F 0 "#PWR?" H 10330 6215 50  0001 C CNN
F 1 "GND" H 10330 6295 50  0000 C CNN
F 2 "" H 10330 6465 50  0001 C CNN
F 3 "" H 10330 6465 50  0001 C CNN
	1    10330 6465
	1    0    0    -1  
$EndComp
$Comp
L 4xxx:4050 U3
U 6 1 5FF8F4D4
P 9930 6395
F 0 "U3" H 9930 6712 50  0000 C CNN
F 1 "4050" H 9930 6621 50  0000 C CNN
F 2 "" H 9930 6395 50  0001 C CNN
F 3 "http://www.intersil.com/content/dam/intersil/documents/cd40/cd4050bms.pdf" H 9930 6395 50  0001 C CNN
	6    9930 6395
	1    0    0    -1  
$EndComp
$Comp
L power:GND #PWR?
U 1 1 600254BE
P 8475 6465
F 0 "#PWR?" H 8475 6215 50  0001 C CNN
F 1 "GND" H 8475 6295 50  0000 C CNN
F 2 "" H 8475 6465 50  0001 C CNN
F 3 "" H 8475 6465 50  0001 C CNN
	1    8475 6465
	1    0    0    -1  
$EndComp
$Comp
L power:GND #PWR?
U 1 1 60028CAE
P 9515 6465
F 0 "#PWR?" H 9515 6215 50  0001 C CNN
F 1 "GND" H 9515 6295 50  0000 C CNN
F 2 "" H 9515 6465 50  0001 C CNN
F 3 "" H 9515 6465 50  0001 C CNN
	1    9515 6465
	1    0    0    -1  
$EndComp
Wire Wire Line
	8590 6395 8475 6395
Wire Wire Line
	8475 6395 8475 6465
Wire Wire Line
	9190 6395 9310 6395
Wire Wire Line
	9310 6395 9310 6465
Wire Wire Line
	9515 6465 9515 6395
Wire Wire Line
	9515 6395 9630 6395
Wire Wire Line
	10330 6465 10330 6395
Wire Wire Line
	10330 6395 10230 6395
Wire Notes Line
	6905 5975 10425 5975
Wire Notes Line
	10425 5975 10425 6680
Wire Notes Line
	10425 6680 6905 6680
Wire Notes Line
	6905 6680 6905 5975
Text Notes 9770 5935 2    50   Italic 0
Buffer CD4050D -- Unidades sin usar y Alimentacion
Text HLabel 7565 3430 0    50   Input Italic 0
RESET
Wire Wire Line
	7665 3430 7565 3430
Wire Wire Line
	9465 4530 9565 4530
Wire Wire Line
	7665 4530 7565 4530
Wire Wire Line
	7665 4630 7565 4630
Text HLabel 7565 4530 0    50   BiDi Italic 0
SCL
Text HLabel 7565 4630 0    50   BiDi Italic 0
SDA
Wire Wire Line
	7665 4330 7565 4330
Text HLabel 7565 4330 0    50   BiDi Italic 0
MISO
Wire Wire Line
	7665 4130 7565 4130
Text HLabel 7565 4130 0    50   BiDi Italic 0
SCK
Wire Wire Line
	7665 4230 7565 4230
Text HLabel 7565 4230 0    50   BiDi Italic 0
MOSI
$Comp
L MTXDOT-NA1-A01-100:MTXDOT-NA1-A01-100 U2
U 1 1 5FA67BC1
P 8565 4230
F 0 "U2" H 8565 5297 50  0000 C CNN
F 1 "MTXDOT-NA1-A01-100" H 8565 5206 50  0000 C CNN
F 2 "XCVR_MTXDOT-NA1-A01-100" H 8565 4230 50  0001 L BNN
F 3 "MULTITECH" H 8565 4230 50  0001 L BNN
	1    8565 4230
	1    0    0    -1  
$EndComp
Wire Wire Line
	9465 4630 9565 4630
Wire Wire Line
	9465 4730 9565 4730
Text HLabel 9565 4730 2    50   BiDi Italic 0
DIO1-33
Text HLabel 9565 4630 2    50   BiDi Italic 0
DIO2-32
Text HLabel 9565 4530 2    50   BiDi Italic 0
DIO3
Wire Notes Line
	6685 1795 6730 1795
Wire Notes Line
	3580 5895 6730 5895
Wire Notes Line
	6730 1795 6730 5895
Wire Notes Line
	7200 3025 10215 3025
Wire Notes Line
	7200 5475 10215 5475
Wire Notes Line
	10215 3025 10215 5475
Text HLabel 9565 4830 2    50   BiDi Italic 0
INT-26_DIO-0
Text HLabel 7540 4930 0    50   BiDi ~ 0
ANT1
Wire Wire Line
	7665 4930 7540 4930
Text HLabel 7570 3730 0    50   BiDi Italic 0
SWCLK
Text HLabel 7570 3830 0    50   BiDi Italic 0
SWDIO
Text HLabel 7565 4030 0    50   BiDi Italic 0
NSS
Text HLabel 9565 4330 2    50   BiDi Italic 0
UART_RTS
Text HLabel 9565 4230 2    50   BiDi Italic 0
UART_CTS
Text HLabel 9565 4030 2    50   BiDi Italic 0
UART2_TxD
Text HLabel 9565 3930 2    50   BiDi Italic 0
UART2_RxD
Text HLabel 9570 3730 2    50   BiDi Italic 0
RxD
Text HLabel 9570 3630 2    50   BiDi Italic 0
TxD
Text HLabel 7570 3530 0    50   BiDi Italic 0
WAKE
Wire Wire Line
	9465 3630 9570 3630
Wire Wire Line
	9465 3730 9570 3730
Wire Wire Line
	9465 3930 9565 3930
Wire Wire Line
	9465 4030 9565 4030
Wire Wire Line
	9465 4230 9565 4230
Wire Wire Line
	9465 4330 9565 4330
Wire Wire Line
	9465 4830 9565 4830
Text HLabel 7540 5030 0    50   BiDi ~ 0
ANT2
Wire Wire Line
	7665 5030 7540 5030
Wire Wire Line
	7565 4030 7665 4030
Wire Wire Line
	7570 3830 7665 3830
Wire Wire Line
	7570 3730 7665 3730
Wire Wire Line
	7665 3530 7570 3530
$EndSCHEMATC
