EESchema Schematic File Version 4
EELAYER 30 0
EELAYER END
$Descr USLetter 11000 8500
encoding utf-8
Sheet 1 1
Title "Power Stage"
Date "2020-10-31"
Rev "0.1.1"
Comp "USA-Centine-LORA"
Comment1 "Juan Pablo Mariño Ardila"
Comment2 ""
Comment3 ""
Comment4 ""
$EndDescr
Wire Notes Line
	9825 6125 6375 6125
Text Notes 6425 3725 0    50   ~ 0
Digital On-Off & Shut Down\nButton [Digital Power On] of the System.\nButton [System Shut Down ].\n
$Comp
L LED:SFH4550 D?
U 1 1 5F9D8FC6
P 2800 2850
AR Path="/5F91AA4A/5F9D8FC6" Ref="D?"  Part="1" 
AR Path="/5F9D8FC6" Ref="D2"  Part="1" 
F 0 "D2" H 2750 3049 50  0000 C CNN
F 1 "SFH4550" H 2750 3049 50  0001 C CNN
F 2 "LED_THT:LED_D5.0mm_IRGrey" H 2800 3025 50  0001 C CNN
F 3 "http://www.osram-os.com/Graphics/XPic3/00116140_0.pdf" H 2750 2850 50  0001 C CNN
	1    2800 2850
	0    1    1    0   
$EndComp
$Comp
L LED:SFH4550 D?
U 1 1 5F9D8FCC
P 2450 2850
AR Path="/5F91AA4A/5F9D8FCC" Ref="D?"  Part="1" 
AR Path="/5F9D8FCC" Ref="D1"  Part="1" 
F 0 "D1" H 2400 3049 50  0000 C CNN
F 1 "SFH4550" H 2400 3049 50  0001 C CNN
F 2 "LED_THT:LED_D5.0mm_IRGrey" H 2450 3025 50  0001 C CNN
F 3 "http://www.osram-os.com/Graphics/XPic3/00116140_0.pdf" H 2400 2850 50  0001 C CNN
	1    2450 2850
	0    1    1    0   
$EndComp
$Comp
L Device:R R?
U 1 1 5F9D8FD2
P 2450 3200
AR Path="/5F91AA4A/5F9D8FD2" Ref="R?"  Part="1" 
AR Path="/5F9D8FD2" Ref="R2"  Part="1" 
F 0 "R2" H 2520 3246 50  0000 L CNN
F 1 "1.5K" H 2520 3155 50  0000 L CNN
F 2 "" V 2380 3200 50  0001 C CNN
F 3 "~" H 2450 3200 50  0001 C CNN
	1    2450 3200
	1    0    0    -1  
$EndComp
$Comp
L Device:R R?
U 1 1 5F9D8FD8
P 2800 3200
AR Path="/5F91AA4A/5F9D8FD8" Ref="R?"  Part="1" 
AR Path="/5F9D8FD8" Ref="R3"  Part="1" 
F 0 "R3" H 2870 3246 50  0000 L CNN
F 1 "1.5K" H 2870 3155 50  0000 L CNN
F 2 "" V 2730 3200 50  0001 C CNN
F 3 "~" H 2800 3200 50  0001 C CNN
	1    2800 3200
	1    0    0    -1  
$EndComp
$Comp
L power:GND #PWR?
U 1 1 5F9D8FDE
P 2600 1650
AR Path="/5F91AA4A/5F9D8FDE" Ref="#PWR?"  Part="1" 
AR Path="/5F9D8FDE" Ref="#PWR0101"  Part="1" 
F 0 "#PWR0101" H 2600 1400 50  0001 C CNN
F 1 "GND" H 2605 1477 50  0000 C CNN
F 2 "" H 2600 1650 50  0001 C CNN
F 3 "" H 2600 1650 50  0001 C CNN
	1    2600 1650
	1    0    0    -1  
$EndComp
$Comp
L power:GND #PWR?
U 1 1 5F9D8FE4
P 3550 3200
AR Path="/5F91AA4A/5F9D8FE4" Ref="#PWR?"  Part="1" 
AR Path="/5F9D8FE4" Ref="#PWR0102"  Part="1" 
F 0 "#PWR0102" H 3550 2950 50  0001 C CNN
F 1 "GND" H 3555 3027 50  0000 C CNN
F 2 "" H 3550 3200 50  0001 C CNN
F 3 "" H 3550 3200 50  0001 C CNN
	1    3550 3200
	1    0    0    -1  
$EndComp
Wire Wire Line
	2800 3050 2800 2950
$Comp
L Connector:USB_B_Micro J?
U 1 1 5F9D8FED
P 2600 1200
AR Path="/5F91AA4A/5F9D8FED" Ref="J?"  Part="1" 
AR Path="/5F9D8FED" Ref="J1"  Part="1" 
F 0 "J1" H 2657 1667 50  0000 C CNN
F 1 "USB_B_Micro" H 2657 1576 50  0000 C CNN
F 2 "" H 2750 1150 50  0001 C CNN
F 3 "~" H 2750 1150 50  0001 C CNN
	1    2600 1200
	1    0    0    -1  
$EndComp
Wire Wire Line
	2800 2650 2950 2650
Wire Wire Line
	2450 3350 2450 3500
Wire Wire Line
	2800 3500 2800 3350
$Comp
L power:GND #PWR?
U 1 1 5F9D8FFE
P 2075 2950
AR Path="/5F91AA4A/5F9D8FFE" Ref="#PWR?"  Part="1" 
AR Path="/5F9D8FFE" Ref="#PWR0103"  Part="1" 
F 0 "#PWR0103" H 2075 2700 50  0001 C CNN
F 1 "GND" H 2080 2777 50  0000 C CNN
F 2 "" H 2075 2950 50  0001 C CNN
F 3 "" H 2075 2950 50  0001 C CNN
	1    2075 2950
	1    0    0    -1  
$EndComp
$Comp
L Device:C C?
U 1 1 5F9D9012
P 1005 2650
AR Path="/5F91AA4A/5F9D9012" Ref="C?"  Part="1" 
AR Path="/5F9D9012" Ref="C2"  Part="1" 
F 0 "C2" H 1120 2696 50  0000 L CNN
F 1 "4.7uF" H 1120 2605 50  0000 L CNN
F 2 "" H 1043 2500 50  0001 C CNN
F 3 "~" H 1005 2650 50  0001 C CNN
	1    1005 2650
	1    0    0    -1  
$EndComp
Wire Notes Line
	2195 2455 2195 2905
Wire Notes Line
	1395 2905 1395 2455
Wire Wire Line
	1750 2250 1750 2150
$Comp
L power:GND #PWR?
U 1 1 5F9D9026
P 1005 3000
AR Path="/5F91AA4A/5F9D9026" Ref="#PWR?"  Part="1" 
AR Path="/5F9D9026" Ref="#PWR0105"  Part="1" 
F 0 "#PWR0105" H 1005 2750 50  0001 C CNN
F 1 "GND" H 1010 2827 50  0000 C CNN
F 2 "" H 1005 3000 50  0001 C CNN
F 3 "" H 1005 3000 50  0001 C CNN
	1    1005 3000
	1    0    0    -1  
$EndComp
Wire Wire Line
	1005 2800 1005 3000
Wire Wire Line
	2450 2550 2950 2550
Wire Wire Line
	1750 2150 2950 2150
Connection ~ 4350 2150
NoConn ~ 3650 2850
$Comp
L Device:R R?
U 1 1 5F9D903B
P 4600 3200
AR Path="/5F91AA4A/5F9D903B" Ref="R?"  Part="1" 
AR Path="/5F9D903B" Ref="R5"  Part="1" 
F 0 "R5" H 4400 3150 50  0000 C CNN
F 1 "1.18K" H 4400 3250 50  0000 C CNN
F 2 "" V 4530 3200 50  0001 C CNN
F 3 "~" H 4600 3200 50  0001 C CNN
	1    4600 3200
	-1   0    0    1   
$EndComp
Wire Wire Line
	2800 1950 2950 1950
Wire Wire Line
	2800 1850 2950 1850
Wire Wire Line
	4350 2250 4350 2150
$Comp
L Battery_Management:BQ24075 CH?
U 1 1 5F9D9044
P 3550 2250
AR Path="/5F91AA4A/5F9D9044" Ref="CH?"  Part="1" 
AR Path="/5F9D9044" Ref="CH1"  Part="1" 
F 0 "CH1" H 3300 2950 50  0000 C CNN
F 1 "BQ24075" H 3300 2850 50  0000 C CNN
F 2 "" H 3800 1700 50  0001 L CNN
F 3 "http://www.ti.com/lit/ds/symlink/bq24075.pdf" H 3750 2450 50  0001 C CNN
	1    3550 2250
	-1   0    0    -1  
$EndComp
$Comp
L Device:C C?
U 1 1 5F9D904C
P 3100 1250
AR Path="/5F91AA4A/5F9D904C" Ref="C?"  Part="1" 
AR Path="/5F9D904C" Ref="C3"  Part="1" 
F 0 "C3" H 3215 1296 50  0000 L CNN
F 1 "1uF" H 3215 1205 50  0000 L CNN
F 2 "" H 3138 1100 50  0001 C CNN
F 3 "~" H 3100 1250 50  0001 C CNN
	1    3100 1250
	1    0    0    -1  
$EndComp
$Comp
L power:GND #PWR?
U 1 1 5F9D9052
P 3100 1500
AR Path="/5F91AA4A/5F9D9052" Ref="#PWR?"  Part="1" 
AR Path="/5F9D9052" Ref="#PWR0106"  Part="1" 
F 0 "#PWR0106" H 3100 1250 50  0001 C CNN
F 1 "GND" H 3105 1327 50  0000 C CNN
F 2 "" H 3100 1500 50  0001 C CNN
F 3 "" H 3100 1500 50  0001 C CNN
	1    3100 1500
	1    0    0    -1  
$EndComp
Wire Wire Line
	2900 1000 3100 1000
Text GLabel 4350 1850 2    50   Input ~ 0
SYSOFF
Wire Wire Line
	4150 2050 4350 2050
Wire Wire Line
	4150 2150 4350 2150
Wire Wire Line
	4150 2250 4350 2250
Wire Wire Line
	4150 2650 4200 2650
Text Notes 1465 3000 0    50   ~ 0
PACK 1C\n
Wire Notes Line
	850  650  5200 650 
Wire Notes Line
	5200 650  5200 3750
Wire Notes Line
	5200 3750 850  3750
Wire Notes Line
	850  3750 850  650 
$Comp
L Device:C C?
U 1 1 5F9D9069
P 1600 1850
AR Path="/5F91AA4A/5F9D9069" Ref="C?"  Part="1" 
AR Path="/5F9D9069" Ref="C1"  Part="1" 
F 0 "C1" H 1485 1896 50  0000 R CNN
F 1 "4.7uF" H 1485 1805 50  0000 R CNN
F 2 "" H 1638 1700 50  0001 C CNN
F 3 "~" H 1600 1850 50  0001 C CNN
	1    1600 1850
	-1   0    0    -1  
$EndComp
Text Notes 900  1050 0    50   ~ 0
Battery Magnement & System  Input\nUSB-B micro: 5V\nBat: 1 Cell 3.7V 1.2mA\nVSys: 3.3-4.2V\n
Wire Wire Line
	4150 1850 4350 1850
Wire Wire Line
	3100 1100 3100 1000
Connection ~ 3100 1000
Wire Wire Line
	3100 1400 3100 1500
$Comp
L power:GND #PWR0108
U 1 1 5F9D907E
P 4200 3450
AR Path="/5F9D907E" Ref="#PWR0108"  Part="1" 
AR Path="/5F91AA4A/5F9D907E" Ref="#PWR?"  Part="1" 
F 0 "#PWR0108" H 4200 3200 50  0001 C CNN
F 1 "GND" H 4205 3277 50  0000 C CNN
F 2 "" H 4200 3450 50  0001 C CNN
F 3 "" H 4200 3450 50  0001 C CNN
	1    4200 3450
	1    0    0    -1  
$EndComp
$Comp
L power:GND #PWR?
U 1 1 5F9D9084
P 1600 2000
AR Path="/5F91AA4A/5F9D9084" Ref="#PWR?"  Part="1" 
AR Path="/5F9D9084" Ref="#PWR0109"  Part="1" 
F 0 "#PWR0109" H 1600 1750 50  0001 C CNN
F 1 "GND" H 1605 1827 50  0000 C CNN
F 2 "" H 1600 2000 50  0001 C CNN
F 3 "" H 1600 2000 50  0001 C CNN
	1    1600 2000
	1    0    0    -1  
$EndComp
Wire Wire Line
	2800 1850 2800 1900
Wire Wire Line
	1950 1700 1950 1900
Wire Wire Line
	1950 1900 2800 1900
Connection ~ 2800 1900
Wire Wire Line
	2800 1900 2800 1950
Wire Wire Line
	1400 1700 1600 1700
Connection ~ 1600 1700
$Comp
L power:GND #PWR?
U 1 1 5F9D9099
P 4950 2100
AR Path="/5F91AA4A/5F9D9099" Ref="#PWR?"  Part="1" 
AR Path="/5F9D9099" Ref="#PWR0111"  Part="1" 
F 0 "#PWR0111" H 4950 1850 50  0001 C CNN
F 1 "GND" H 4955 1927 50  0000 C CNN
F 2 "" H 4950 2100 50  0001 C CNN
F 3 "" H 4950 2100 50  0001 C CNN
	1    4950 2100
	1    0    0    -1  
$EndComp
NoConn ~ 2500 1650
NoConn ~ 2900 1200
NoConn ~ 2900 1300
NoConn ~ 2900 1400
$Comp
L Regulator_Linear:LT1963AxQ-3.3 U?
U 1 1 5F9EF6FC
P 7825 1775
AR Path="/5F935379/5F9EF6FC" Ref="U?"  Part="1" 
AR Path="/5F9EF6FC" Ref="U2"  Part="1" 
F 0 "U2" H 7825 2142 50  0000 C CNN
F 1 "LT1963AxQ-3.3" H 7825 2051 50  0000 C CNN
F 2 "Package_TO_SOT_SMD:TO-263-5_TabPin3" H 7825 1325 50  0001 C CNN
F 3 "https://www.analog.com/media/en/technical-documentation/data-sheets/1963aff.pdf" H 7825 1225 50  0001 C CNN
	1    7825 1775
	1    0    0    -1  
$EndComp
$Comp
L power:GND #PWR?
U 1 1 5F9EF702
P 7825 2175
AR Path="/5F935379/5F9EF702" Ref="#PWR?"  Part="1" 
AR Path="/5F9EF702" Ref="#PWR0112"  Part="1" 
F 0 "#PWR0112" H 7825 1925 50  0001 C CNN
F 1 "GND" H 7830 2002 50  0000 C CNN
F 2 "" H 7825 2175 50  0001 C CNN
F 3 "" H 7825 2175 50  0001 C CNN
	1    7825 2175
	1    0    0    -1  
$EndComp
Wire Wire Line
	7825 2075 7825 2175
Wire Wire Line
	8225 1775 8425 1775
Wire Wire Line
	8425 1775 8425 1675
Wire Wire Line
	8225 1675 8425 1675
Connection ~ 8425 1675
Wire Wire Line
	7425 1775 7175 1775
Wire Wire Line
	7175 1775 7175 1675
Wire Wire Line
	7175 1675 7425 1675
$Comp
L Device:CP1 C?
U 1 1 5F9EF710
P 8725 1825
AR Path="/5F935379/5F9EF710" Ref="C?"  Part="1" 
AR Path="/5F9EF710" Ref="C5"  Part="1" 
F 0 "C5" H 8840 1871 50  0000 L CNN
F 1 "22uF" H 8840 1780 50  0000 L CNN
F 2 "" H 8725 1825 50  0001 C CNN
F 3 "~" H 8725 1825 50  0001 C CNN
	1    8725 1825
	1    0    0    -1  
$EndComp
$Comp
L Device:CP1 C?
U 1 1 5F9EF716
P 6875 1825
AR Path="/5F935379/5F9EF716" Ref="C?"  Part="1" 
AR Path="/5F9EF716" Ref="C4"  Part="1" 
F 0 "C4" H 6990 1871 50  0000 L CNN
F 1 "100uF" H 6990 1780 50  0000 L CNN
F 2 "" H 6875 1825 50  0001 C CNN
F 3 "~" H 6875 1825 50  0001 C CNN
	1    6875 1825
	1    0    0    -1  
$EndComp
Connection ~ 7175 1675
Wire Wire Line
	8425 1675 8725 1675
Connection ~ 8725 1675
$Comp
L power:GND #PWR?
U 1 1 5F9EF720
P 8725 2075
AR Path="/5F935379/5F9EF720" Ref="#PWR?"  Part="1" 
AR Path="/5F9EF720" Ref="#PWR0113"  Part="1" 
F 0 "#PWR0113" H 8725 1825 50  0001 C CNN
F 1 "GND" H 8730 1902 50  0000 C CNN
F 2 "" H 8725 2075 50  0001 C CNN
F 3 "" H 8725 2075 50  0001 C CNN
	1    8725 2075
	1    0    0    -1  
$EndComp
$Comp
L power:GND #PWR?
U 1 1 5F9EF726
P 6875 2075
AR Path="/5F935379/5F9EF726" Ref="#PWR?"  Part="1" 
AR Path="/5F9EF726" Ref="#PWR0114"  Part="1" 
F 0 "#PWR0114" H 6875 1825 50  0001 C CNN
F 1 "GND" H 6880 1902 50  0000 C CNN
F 2 "" H 6875 2075 50  0001 C CNN
F 3 "" H 6875 2075 50  0001 C CNN
	1    6875 2075
	1    0    0    -1  
$EndComp
Wire Wire Line
	6875 2075 6875 1975
$Comp
L power:+3.3V #PWR?
U 1 1 5F9EF749
P 9075 1675
AR Path="/5F935379/5F9EF749" Ref="#PWR?"  Part="1" 
AR Path="/5F9EF749" Ref="#PWR0115"  Part="1" 
F 0 "#PWR0115" H 9075 1525 50  0001 C CNN
F 1 "+3.3V" H 9090 1848 50  0000 C CNN
F 2 "" H 9075 1675 50  0001 C CNN
F 3 "" H 9075 1675 50  0001 C CNN
	1    9075 1675
	1    0    0    -1  
$EndComp
Wire Wire Line
	6625 1675 6875 1675
Connection ~ 6875 1675
Wire Wire Line
	8725 1675 9075 1675
$Comp
L power:GND #PWR?
U 1 1 5F9EF75E
P 2875 6425
AR Path="/5F935379/5F9EF75E" Ref="#PWR?"  Part="1" 
AR Path="/5F9EF75E" Ref="#PWR0116"  Part="1" 
F 0 "#PWR0116" H 2875 6175 50  0001 C CNN
F 1 "GND" H 2880 6252 50  0000 C CNN
F 2 "" H 2875 6425 50  0001 C CNN
F 3 "" H 2875 6425 50  0001 C CNN
	1    2875 6425
	1    0    0    -1  
$EndComp
$Comp
L Device:L LIN?
U 1 1 5F9EF765
P 2025 5725
AR Path="/5F935379/5F9EF765" Ref="LIN?"  Part="1" 
AR Path="/5F9EF765" Ref="L1"  Part="1" 
F 0 "L1" H 2078 5771 50  0000 L CNN
F 1 "1uH" H 2078 5680 50  0000 L CNN
F 2 "" H 2025 5725 50  0001 C CNN
F 3 "~" H 2025 5725 50  0001 C CNN
	1    2025 5725
	1    0    0    -1  
$EndComp
$Comp
L Device:C CIN?
U 1 1 5F9EF76E
P 1625 5725
AR Path="/5F935379/5F9EF76E" Ref="CIN?"  Part="1" 
AR Path="/5F9EF76E" Ref="C6"  Part="1" 
F 0 "C6" H 1740 5771 50  0000 L CNN
F 1 "2.2uF" H 1740 5680 50  0000 L CNN
F 2 "" H 1663 5575 50  0001 C CNN
F 3 "~" H 1625 5725 50  0001 C CNN
	1    1625 5725
	1    0    0    -1  
$EndComp
Wire Wire Line
	2025 5225 2025 5575
Connection ~ 2025 5225
$Comp
L power:GND #PWR?
U 1 1 5F9EF782
P 1625 6075
AR Path="/5F935379/5F9EF782" Ref="#PWR?"  Part="1" 
AR Path="/5F9EF782" Ref="#PWR0117"  Part="1" 
F 0 "#PWR0117" H 1625 5825 50  0001 C CNN
F 1 "GND" H 1630 5902 50  0000 C CNN
F 2 "" H 1625 6075 50  0001 C CNN
F 3 "" H 1625 6075 50  0001 C CNN
	1    1625 6075
	1    0    0    -1  
$EndComp
Wire Wire Line
	1625 5875 1625 6075
$Comp
L Device:C COUT?
U 1 1 5F9EF789
P 3775 6375
AR Path="/5F935379/5F9EF789" Ref="COUT?"  Part="1" 
AR Path="/5F9EF789" Ref="C7"  Part="1" 
F 0 "C7" H 3890 6421 50  0000 L CNN
F 1 "4.7uF" H 3890 6330 50  0000 L CNN
F 2 "" H 3813 6225 50  0001 C CNN
F 3 "~" H 3775 6375 50  0001 C CNN
	1    3775 6375
	1    0    0    -1  
$EndComp
Wire Wire Line
	3775 6225 3775 5925
$Comp
L power:GND #PWR?
U 1 1 5F9EF794
P 3775 6775
AR Path="/5F935379/5F9EF794" Ref="#PWR?"  Part="1" 
AR Path="/5F9EF794" Ref="#PWR0118"  Part="1" 
F 0 "#PWR0118" H 3775 6525 50  0001 C CNN
F 1 "GND" H 3780 6602 50  0000 C CNN
F 2 "" H 3775 6775 50  0001 C CNN
F 3 "" H 3775 6775 50  0001 C CNN
	1    3775 6775
	1    0    0    -1  
$EndComp
Wire Wire Line
	3775 6525 3775 6775
$Comp
L power:+5V #PWR?
U 1 1 5F9EF79B
P 4175 5775
AR Path="/5F935379/5F9EF79B" Ref="#PWR?"  Part="1" 
AR Path="/5F9EF79B" Ref="#PWR0119"  Part="1" 
F 0 "#PWR0119" H 4175 5625 50  0001 C CNN
F 1 "+5V" H 4190 5948 50  0000 C CNN
F 2 "" H 4175 5775 50  0001 C CNN
F 3 "" H 4175 5775 50  0001 C CNN
	1    4175 5775
	1    0    0    -1  
$EndComp
Wire Wire Line
	4175 5925 4175 5775
Wire Wire Line
	1625 5225 2025 5225
Wire Wire Line
	1625 5575 1625 5225
Wire Notes Line
	5925 875  9825 875 
Wire Notes Line
	9825 875  9825 2725
Wire Notes Line
	9825 2725 5925 2725
Wire Notes Line
	5925 2725 5925 875 
Text Notes 5975 1075 0    50   ~ 0
LDO Regulator  (VCC- 3.3V) 1.5A\nFeed of core system at 3.3V\n
Wire Wire Line
	3775 5925 4175 5925
Connection ~ 3775 5925
Wire Notes Line
	825  4625 4725 4625
Wire Notes Line
	825  7125 825  4625
Text Notes 875  4825 0    50   ~ 0
Step-Up booster Regulator  (VCC-5V)  450mA\nFeed of Gas sensor at 5V\n
Wire Notes Line
	4725 7125 825  7125
Wire Notes Line
	4725 4625 4725 7125
$Comp
L pspice:DIODE D3
U 1 1 5FA5B4E5
P 7675 4925
F 0 "D3" H 7675 5190 50  0000 C CNN
F 1 "DIODE" H 7675 5099 50  0000 C CNN
F 2 "" H 7675 4925 50  0001 C CNN
F 3 "~" H 7675 4925 50  0001 C CNN
	1    7675 4925
	1    0    0    -1  
$EndComp
$Comp
L pspice:DIODE D4
U 1 1 5FA5C1FD
P 9075 4375
F 0 "D4" H 9075 4640 50  0000 C CNN
F 1 "DIODE" H 9075 4549 50  0000 C CNN
F 2 "" H 9075 4375 50  0001 C CNN
F 3 "~" H 9075 4375 50  0001 C CNN
	1    9075 4375
	0    1    1    0   
$EndComp
$Comp
L Transistor_BJT:2N3904 Q2
U 1 1 5FA5F3FA
P 8525 5075
F 0 "Q2" H 8715 5121 50  0000 L CNN
F 1 "2N3904" H 8715 5030 50  0000 L CNN
F 2 "Package_TO_SOT_THT:TO-92_Inline" H 8725 5000 50  0001 L CIN
F 3 "https://www.onsemi.com/pub/Collateral/2N3903-D.PDF" H 8525 5075 50  0001 L CNN
	1    8525 5075
	-1   0    0    -1  
$EndComp
$Comp
L Device:R R9
U 1 1 5FA5FCF0
P 9075 3925
F 0 "R9" H 9145 3971 50  0000 L CNN
F 1 "10K" H 9145 3880 50  0000 L CNN
F 2 "" V 9005 3925 50  0001 C CNN
F 3 "~" H 9075 3925 50  0001 C CNN
	1    9075 3925
	1    0    0    -1  
$EndComp
$Comp
L Device:R R7
U 1 1 5FA65461
P 8425 5575
F 0 "R7" H 8495 5621 50  0000 L CNN
F 1 "10K" H 8495 5530 50  0000 L CNN
F 2 "" V 8355 5575 50  0001 C CNN
F 3 "~" H 8425 5575 50  0001 C CNN
	1    8425 5575
	1    0    0    -1  
$EndComp
Wire Wire Line
	7375 4925 7425 4925
Wire Wire Line
	7425 4925 7425 4575
Connection ~ 7425 4925
Wire Wire Line
	7425 4925 7475 4925
Wire Wire Line
	9075 4725 9075 4575
Wire Wire Line
	9075 4175 9075 4125
Wire Wire Line
	7075 4925 7025 4925
Wire Wire Line
	7025 4925 7025 4275
Text GLabel 9175 5075 2    50   Input ~ 0
SYSON
$Comp
L power:+3V3 #PWR0120
U 1 1 5FAE3C6B
P 9075 3775
F 0 "#PWR0120" H 9075 3625 50  0001 C CNN
F 1 "+3V3" H 9090 3948 50  0000 C CNN
F 2 "" H 9075 3775 50  0001 C CNN
F 3 "" H 9075 3775 50  0001 C CNN
	1    9075 3775
	1    0    0    -1  
$EndComp
Wire Notes Line
	6375 3425 9825 3425
$Comp
L power:GND #PWR0121
U 1 1 5FAF1FB0
P 8425 5875
F 0 "#PWR0121" H 8425 5625 50  0001 C CNN
F 1 "GND" H 8430 5702 50  0000 C CNN
F 2 "" H 8425 5875 50  0001 C CNN
F 3 "" H 8425 5875 50  0001 C CNN
	1    8425 5875
	1    0    0    -1  
$EndComp
$Comp
L power:GND #PWR0122
U 1 1 5FAF28CE
P 7875 5725
F 0 "#PWR0122" H 7875 5475 50  0001 C CNN
F 1 "GND" H 7880 5552 50  0000 C CNN
F 2 "" H 7875 5725 50  0001 C CNN
F 3 "" H 7875 5725 50  0001 C CNN
	1    7875 5725
	1    0    0    -1  
$EndComp
Wire Notes Line
	6375 3425 6375 6125
Wire Notes Line
	9825 3425 9825 6125
$Comp
L power:VCC #PWR?
U 1 1 5FB02A49
P 6775 4175
AR Path="/5F91AA4A/5FB02A49" Ref="#PWR?"  Part="1" 
AR Path="/5FB02A49" Ref="#PWR0123"  Part="1" 
F 0 "#PWR0123" H 6775 4025 50  0001 C CNN
F 1 "VCC" H 6790 4348 50  0000 C CNN
F 2 "" H 6775 4175 50  0001 C CNN
F 3 "" H 6775 4175 50  0001 C CNN
	1    6775 4175
	1    0    0    -1  
$EndComp
Text GLabel 8575 4275 2    50   Input ~ 0
V_ON
Text GLabel 9225 4125 2    50   Input ~ 0
ON_Lec
Wire Wire Line
	9225 4125 9075 4125
Connection ~ 9075 4125
Wire Wire Line
	9075 4125 9075 4075
Wire Wire Line
	6775 4175 6775 4275
Wire Wire Line
	6775 4275 7025 4275
Text GLabel 6625 1675 0    50   Input ~ 0
V_ON
Text GLabel 1425 5225 0    50   Input ~ 0
V_ON
Wire Wire Line
	1425 5225 1625 5225
Connection ~ 1625 5225
$Comp
L Device:Q_PMOS_DGS Q1
U 1 1 5FA56FD5
P 7425 4375
F 0 "Q1" V 7775 4325 50  0000 L CNN
F 1 "Q_PMOS_DGS" V 7675 4025 50  0000 L CNN
F 2 "" H 7625 4475 50  0001 C CNN
F 3 "~" H 7425 4375 50  0001 C CNN
	1    7425 4375
	0    -1   -1   0   
$EndComp
Wire Wire Line
	7025 4275 7225 4275
Connection ~ 7025 4275
Wire Wire Line
	7425 4575 8425 4575
Connection ~ 7425 4575
Connection ~ 7875 4925
Wire Wire Line
	7875 4925 7875 5225
$Comp
L Device:R R8
U 1 1 5FB48A74
P 8975 5075
F 0 "R8" V 9182 5075 50  0000 C CNN
F 1 "1K" V 9091 5075 50  0000 C CNN
F 2 "" V 8905 5075 50  0001 C CNN
F 3 "~" H 8975 5075 50  0001 C CNN
	1    8975 5075
	0    1    -1   0   
$EndComp
Wire Wire Line
	9175 5075 9125 5075
Wire Wire Line
	10025 4525 9975 4525
Wire Wire Line
	7875 4725 9075 4725
Wire Wire Line
	7875 4725 7875 4925
Wire Wire Line
	8425 4575 8425 4875
Wire Wire Line
	8725 5075 8825 5075
Wire Wire Line
	8425 5275 8425 5425
$Comp
L TPS61241:TPS61241 U1
U 1 1 5F9E2423
P 2775 5475
F 0 "U1" H 3125 5575 50  0000 C CNN
F 1 "TPS61241" H 3125 5475 50  0000 C CNN
F 2 "" H 2775 5575 50  0001 C CNN
F 3 "" H 2775 5575 50  0001 C CNN
	1    2775 5475
	1    0    0    -1  
$EndComp
Wire Wire Line
	2875 5475 2875 5225
Wire Wire Line
	2425 5725 2425 5225
Wire Wire Line
	2025 5225 2425 5225
Connection ~ 2425 5225
Wire Wire Line
	2425 5225 2875 5225
Wire Wire Line
	2425 5925 2025 5925
Wire Wire Line
	2025 5925 2025 5875
Wire Wire Line
	3775 5925 3475 5925
Wire Wire Line
	3275 5725 3475 5725
Wire Wire Line
	3475 5725 3475 5925
Connection ~ 3475 5925
Wire Wire Line
	3475 5925 3275 5925
Wire Wire Line
	1005 2500 1005 2250
Wire Notes Line
	1395 2455 2195 2455
Wire Notes Line
	1395 2905 2195 2905
Wire Wire Line
	4200 2650 4200 3050
$Comp
L Device:R R?
U 1 1 5F9D9035
P 4200 3200
AR Path="/5F91AA4A/5F9D9035" Ref="R?"  Part="1" 
AR Path="/5F9D9035" Ref="R4"  Part="1" 
F 0 "R4" H 4000 3150 50  0000 C CNN
F 1 "1.13K" H 4000 3250 50  0000 C CNN
F 2 "" V 4130 3200 50  0001 C CNN
F 3 "~" H 4200 3200 50  0001 C CNN
	1    4200 3200
	-1   0    0    1   
$EndComp
Wire Wire Line
	4600 3050 4600 2550
Wire Wire Line
	4150 2550 4600 2550
Wire Wire Line
	4200 3350 4200 3400
Wire Wire Line
	4200 3400 4600 3400
Wire Wire Line
	4600 3400 4600 3350
Connection ~ 4200 3400
Wire Wire Line
	4200 3400 4200 3450
Wire Wire Line
	4150 2350 4550 2350
Wire Wire Line
	4550 2350 4550 2300
Wire Wire Line
	4350 2050 4350 2150
Wire Wire Line
	4350 2050 4950 2050
Wire Wire Line
	4950 2050 4950 2100
Connection ~ 4350 2050
Wire Wire Line
	3550 1000 3550 1650
Wire Wire Line
	3100 1000 3550 1000
Wire Wire Line
	2450 2550 2450 2650
Wire Wire Line
	2450 2950 2450 3050
Wire Wire Line
	7625 4275 8575 4275
Wire Wire Line
	6875 1675 7175 1675
Wire Wire Line
	2450 3500 2800 3500
$Comp
L power:VCC #PWR0107
U 1 1 5FB3B20D
P 2275 3350
F 0 "#PWR0107" H 2275 3200 50  0001 C CNN
F 1 "VCC" H 2292 3523 50  0000 C CNN
F 2 "" H 2275 3350 50  0001 C CNN
F 3 "" H 2275 3350 50  0001 C CNN
	1    2275 3350
	1    0    0    -1  
$EndComp
Text Notes 4150 1750 0    50   ~ 0
Si no se usa control\nde apagado de bateria,\nConectar SYSOFF a Tierra.
$Comp
L Device:R R6
U 1 1 5FA6303C
P 7225 4925
F 0 "R6" V 7432 4925 50  0000 C CNN
F 1 "10K" V 7341 4925 50  0000 C CNN
F 2 "" V 7155 4925 50  0001 C CNN
F 3 "~" H 7225 4925 50  0001 C CNN
	1    7225 4925
	0    -1   -1   0   
$EndComp
$Comp
L Switch:SW_Push SW1
U 1 1 5FB85B1A
P 7875 5425
F 0 "SW1" V 7921 5377 50  0000 R CNN
F 1 "SW_Push" V 7830 5377 50  0000 R CNN
F 2 "" H 7875 5625 50  0001 C CNN
F 3 "~" H 7875 5625 50  0001 C CNN
	1    7875 5425
	0    -1   -1   0   
$EndComp
Wire Wire Line
	7875 5625 7875 5725
Wire Wire Line
	8425 5725 8425 5875
Wire Wire Line
	8725 1975 8725 2075
Wire Wire Line
	2875 6175 2875 6425
Wire Wire Line
	1600 1700 1950 1700
Text GLabel 1400 1700 0    50   Output ~ 0
VOUT
Wire Wire Line
	2600 1600 2600 1650
Wire Wire Line
	2500 1600 2500 1650
Wire Wire Line
	3550 2850 3550 3200
$Comp
L power:+5V #PWR0104
U 1 1 5FC22E49
P 4550 2300
F 0 "#PWR0104" H 4550 2150 50  0001 C CNN
F 1 "+5V" H 4565 2473 50  0000 C CNN
F 2 "" H 4550 2300 50  0001 C CNN
F 3 "" H 4550 2300 50  0001 C CNN
	1    4550 2300
	1    0    0    -1  
$EndComp
$Comp
L S3B-PH-K-S_LF__SN_:S3B-PH-K-S(LF)(SN) J2
U 1 1 5FC51328
P 1625 2675
F 0 "J2" H 1675 2350 50  0000 C CNN
F 1 "JST-3Pin" H 1650 2425 50  0000 C CNN
F 2 "JST_S3B-PH-K-S(LF)(SN)" H 1625 2675 50  0001 L BNN
F 3 "" H 1625 2675 50  0001 L BNN
F 4 "JST Sales" H 1625 2675 50  0001 L BNN "Field4"
F 5 "Manufacturer Recommendations" H 1625 2675 50  0001 L BNN "Field5"
F 6 "4.8mm" H 1625 2675 50  0001 L BNN "Field6"
	1    1625 2675
	-1   0    0    1   
$EndComp
Wire Wire Line
	2450 3500 2275 3500
Wire Wire Line
	2275 3500 2275 3350
Connection ~ 2450 3500
Wire Wire Line
	2075 2950 2075 2775
Wire Wire Line
	2075 2775 2025 2775
Wire Wire Line
	2950 2350 2025 2350
Wire Wire Line
	2025 2350 2025 2575
Wire Wire Line
	2950 2250 2250 2250
Wire Wire Line
	2025 2675 2250 2675
Wire Wire Line
	2250 2675 2250 2250
Connection ~ 2250 2250
Wire Wire Line
	2250 2250 1750 2250
Wire Wire Line
	1005 2250 1750 2250
Connection ~ 1750 2250
$EndSCHEMATC
