M48
; DRILL file {KiCad 5.1.5+dfsg1-2build2} date Wed 02 Dec 2020 01:40:35 PM -05
; FORMAT={-:-/ absolute / inch / decimal}
; #@! TF.CreationDate,2020-12-02T13:40:35-05:00
; #@! TF.GenerationSoftware,Kicad,Pcbnew,5.1.5+dfsg1-2build2
; #@! TF.FileFunction,Plated,2,4,Blind
FMAT,2
INCH
T1C0.0157
T2C0.0197
T3C0.0295
%
G90
G05
T1
X3.675Y-4.4405
X4.1174Y-4.6336
X4.158Y-4.785
X4.2035Y-4.785
X4.4576Y-3.2286
X4.9165Y-3.5327
X4.9193Y-3.6884
T2
X4.7718Y-2.5165
T3
X4.331Y-5.2455
X4.3357Y-4.5086
X4.403Y-6.013
T0
M30
