
(module JST_S3B-PH-K-S_LF__SN_ (layer F.Cu) (tedit 5F9CDE82)
  (descr "")
  (fp_text reference REF** (at 1.474225 -3.188995 0) (layer F.SilkS)
    (effects (font (size 1.00033858268 1.00033858268) (thickness 0.015)))
  )
  (fp_text value JST_S3B-PH-K-S_LF__SN_ (at 12.07775 7.19784 0) (layer F.Fab)
    (effects (font (size 1.00091338583 1.00091338583) (thickness 0.015)))
  )
  (fp_line (start 5.95 -1.35) (end -1.95 -1.35) (layer F.Fab) (width 0.127))
  (fp_line (start -1.95 -1.35) (end -1.95 6.25) (layer F.Fab) (width 0.127))
  (fp_line (start -1.95 6.25) (end 5.95 6.25) (layer F.Fab) (width 0.127))
  (fp_line (start 5.95 6.25) (end 5.95 -1.35) (layer F.Fab) (width 0.127))
  (fp_circle (center -0.6 -1.9) (end -0.5 -1.9) (layer F.SilkS) (width 0.2))
  (fp_line (start 6.2 6.5) (end -2.2 6.5) (layer F.CrtYd) (width 0.05))
  (fp_line (start -2.2 6.5) (end -2.2 -1.6) (layer F.CrtYd) (width 0.05))
  (fp_line (start -2.2 -1.6) (end 6.2 -1.6) (layer F.CrtYd) (width 0.05))
  (fp_line (start 6.2 -1.6) (end 6.2 6.5) (layer F.CrtYd) (width 0.05))
  (fp_line (start 5.95 -1.35) (end -1.95 -1.35) (layer F.SilkS) (width 0.127))
  (fp_line (start -1.95 -1.35) (end -1.95 6.25) (layer F.SilkS) (width 0.127))
  (fp_line (start -1.95 6.25) (end 5.95 6.25) (layer F.SilkS) (width 0.127))
  (fp_line (start 5.95 6.25) (end 5.95 -1.35) (layer F.SilkS) (width 0.127))
  (fp_circle (center -0.6 -1.9) (end -0.5 -1.9) (layer F.Fab) (width 0.2))
  (pad 1 thru_hole rect (at 0.0 0.0) (size 1.308 1.308) (drill 0.8) (layers *.Cu *.Mask))
  (pad 2 thru_hole circle (at 2.0 0.0) (size 1.308 1.308) (drill 0.8) (layers *.Cu *.Mask))
  (pad 3 thru_hole circle (at 4.0 0.0) (size 1.308 1.308) (drill 0.8) (layers *.Cu *.Mask))
)