
(module XCVR_RFM95W-915S2 (layer F.Cu) (tedit 5F9C2120)
  (descr "")
  (fp_text reference REF** (at -6.63079 -9.54026 0) (layer F.SilkS)
    (effects (font (size 1.0 1.0) (thickness 0.015)))
  )
  (fp_text value XCVR_RFM95W-915S2 (at 0.6917 9.5683 0) (layer F.Fab)
    (effects (font (size 1.0 1.0) (thickness 0.015)))
  )
  (fp_line (start -8.0 8.0) (end -8.0 -8.0) (layer F.Fab) (width 0.127))
  (fp_line (start -8.0 -8.0) (end 8.0 -8.0) (layer F.Fab) (width 0.127))
  (fp_line (start 8.0 -8.0) (end 8.0 8.0) (layer F.Fab) (width 0.127))
  (fp_line (start 8.0 8.0) (end -8.0 8.0) (layer F.Fab) (width 0.127))
  (fp_line (start -8.25 -8.25) (end 8.25 -8.25) (layer F.CrtYd) (width 0.05))
  (fp_line (start 8.25 -8.25) (end 8.25 -7.95) (layer F.CrtYd) (width 0.05))
  (fp_line (start 8.25 -7.95) (end 9.45 -7.95) (layer F.CrtYd) (width 0.05))
  (fp_line (start 9.45 -7.95) (end 9.45 7.95) (layer F.CrtYd) (width 0.05))
  (fp_line (start 9.45 7.95) (end 8.25 7.95) (layer F.CrtYd) (width 0.05))
  (fp_line (start 8.25 7.95) (end 8.25 8.25) (layer F.CrtYd) (width 0.05))
  (fp_line (start 8.25 8.25) (end -8.25 8.25) (layer F.CrtYd) (width 0.05))
  (fp_line (start -8.25 8.25) (end -8.25 7.95) (layer F.CrtYd) (width 0.05))
  (fp_line (start -8.25 7.95) (end -9.45 7.95) (layer F.CrtYd) (width 0.05))
  (fp_line (start -9.45 7.95) (end -9.45 -7.95) (layer F.CrtYd) (width 0.05))
  (fp_line (start -9.45 -7.95) (end -8.25 -7.95) (layer F.CrtYd) (width 0.05))
  (fp_line (start -8.25 -7.95) (end -8.25 -8.25) (layer F.CrtYd) (width 0.05))
  (fp_circle (center -10.15 -7.05) (end -10.05 -7.05) (layer F.SilkS) (width 0.2))
  (fp_circle (center -10.15 -7.05) (end -10.05 -7.05) (layer F.Fab) (width 0.2))
  (fp_line (start -8.0 -8.0) (end 8.0 -8.0) (layer F.SilkS) (width 0.127))
  (fp_line (start -8.0 8.0) (end 8.0 8.0) (layer F.SilkS) (width 0.127))
  (pad 1 smd rect (at -7.7 -7.0) (size 3.0 1.4) (layers F.Cu F.Mask F.Paste))
  (pad 2 smd rect (at -7.7 -5.0) (size 3.0 1.4) (layers F.Cu F.Mask F.Paste))
  (pad 3 smd rect (at -7.7 -3.0) (size 3.0 1.4) (layers F.Cu F.Mask F.Paste))
  (pad 4 smd rect (at -7.7 -1.0) (size 3.0 1.4) (layers F.Cu F.Mask F.Paste))
  (pad 5 smd rect (at -7.7 1.0) (size 3.0 1.4) (layers F.Cu F.Mask F.Paste))
  (pad 6 smd rect (at -7.7 3.0) (size 3.0 1.4) (layers F.Cu F.Mask F.Paste))
  (pad 7 smd rect (at -7.7 5.0) (size 3.0 1.4) (layers F.Cu F.Mask F.Paste))
  (pad 8 smd rect (at -7.7 7.0) (size 3.0 1.4) (layers F.Cu F.Mask F.Paste))
  (pad 9 smd rect (at 7.7 7.0) (size 3.0 1.4) (layers F.Cu F.Mask F.Paste))
  (pad 10 smd rect (at 7.7 5.0) (size 3.0 1.4) (layers F.Cu F.Mask F.Paste))
  (pad 11 smd rect (at 7.7 3.0) (size 3.0 1.4) (layers F.Cu F.Mask F.Paste))
  (pad 12 smd rect (at 7.7 1.0) (size 3.0 1.4) (layers F.Cu F.Mask F.Paste))
  (pad 13 smd rect (at 7.7 -1.0) (size 3.0 1.4) (layers F.Cu F.Mask F.Paste))
  (pad 14 smd rect (at 7.7 -3.0) (size 3.0 1.4) (layers F.Cu F.Mask F.Paste))
  (pad 15 smd rect (at 7.7 -5.0) (size 3.0 1.4) (layers F.Cu F.Mask F.Paste))
  (pad 16 smd rect (at 7.7 -7.0) (size 3.0 1.4) (layers F.Cu F.Mask F.Paste))
)